plot.UID,plot.range,plot.range_in_lot,plot.range_global,plot.row,plot.row_in_lot,plot.row_global,plot.spatial_x,plot.spatial_y,plot.replication,replication,spatial_check,spatial_block,range_block,row_block,genotype.id,site.label,site.id,year_site.lot,year_site.harvest_year,year_site.UID,experiment.UID
FPWW0280108,18,19,19,3,21,21,966534.17798313,5984380.167658,2,2,0,18,3,3,240,ETHZ_FIP,1,4,2019,FPWW028_lot4,FPWW028
FPWW0280073,18,19,19,2,20,20,966532.625728854,5984378.68108929,2,2,0,15,3,2,28,ETHZ_FIP,1,4,2019,FPWW028_lot4,FPWW028
FPWW0280072,18,19,19,1,19,19,966531.413812317,5984376.67570143,2,2,0,12,3,1,301,ETHZ_FIP,1,4,2019,FPWW028_lot4,FPWW028
FPWW0280107,17,18,18,3,21,21,966532.117073037,5984381.9107574,2,2,0,18,3,3,27,ETHZ_FIP,1,4,2019,FPWW028_lot4,FPWW028
FPWW0280074,17,18,18,2,20,20,966530.349318963,5984380.4982592,2,2,0,15,3,2,5,ETHZ_FIP,1,4,2019,FPWW028_lot4,FPWW028
FPWW0280071,17,18,18,1,19,19,966529.180133211,5984378.51417459,2,2,0,12,3,1,149,ETHZ_FIP,1,4,2019,FPWW028_lot4,FPWW028
FPWW0280106,16,17,17,3,21,21,966529.827206747,5984383.77053396,2,2,0,18,3,3,22,ETHZ_FIP,1,4,2019,FPWW028_lot4,FPWW028
FPWW0280075,16,17,17,2,20,20,966528.139806428,5984382.37560231,2,2,0,15,3,2,33,ETHZ_FIP,1,4,2019,FPWW028_lot4,FPWW028
FPWW0280070,16,17,17,1,19,19,966526.97111864,5984380.42291115,2,2,0,12,3,1,30,ETHZ_FIP,1,4,2019,FPWW028_lot4,FPWW028
FPWW0280105,15,16,16,3,21,21,966527.514764388,5984385.69190225,2,2,0,18,3,3,25,ETHZ_FIP,1,4,2019,FPWW028_lot4,FPWW028
FPWW0280076,15,16,16,2,20,20,966525.878343239,5984384.24434824,2,2,0,15,3,2,466,ETHZ_FIP,1,4,2019,FPWW028_lot4,FPWW028
FPWW0280069,15,16,16,1,19,19,966524.64425054,5984382.32566541,2,2,0,12,3,1,6,ETHZ_FIP,1,4,2019,FPWW028_lot4,FPWW028
FPWW0280104,14,15,15,3,21,21,966525.201425137,5984387.55676082,2,2,0,18,3,3,251,ETHZ_FIP,1,4,2019,FPWW028_lot4,FPWW028
FPWW0280077,14,15,15,2,20,20,966523.58707949,5984386.11513651,2,2,0,15,3,2,335,ETHZ_FIP,1,4,2019,FPWW028_lot4,FPWW028
FPWW0280068,14,15,15,1,19,19,966522.349273299,5984384.25931595,2,2,0,12,3,1,254,ETHZ_FIP,1,4,2019,FPWW028_lot4,FPWW028
FPWW0280103,13,14,14,3,21,21,966522.837180334,5984389.47894992,2,2,0,18,3,3,128,ETHZ_FIP,1,4,2019,FPWW028_lot4,FPWW028
FPWW0280078,13,14,14,2,20,20,966521.266413319,5984388.01308245,2,2,0,15,3,2,106,ETHZ_FIP,1,4,2019,FPWW028_lot4,FPWW028
FPWW0280067,13,14,14,1,19,19,966520.01455462,5984386.16219424,2,2,0,12,3,1,218,ETHZ_FIP,1,4,2019,FPWW028_lot4,FPWW028
FPWW0280102,12,13,13,3,21,21,966520.632895616,5984391.38918233,2,2,0,17,2,3,206,ETHZ_FIP,1,4,2019,FPWW028_lot4,FPWW028
FPWW0280079,12,13,13,2,20,20,966519.027818969,5984389.93798898,2,2,0,14,2,2,85,ETHZ_FIP,1,4,2019,FPWW028_lot4,FPWW028
FPWW0280066,12,13,13,1,19,19,966517.843410228,5984387.98397403,2,2,0,11,2,1,282,ETHZ_FIP,1,4,2019,FPWW028_lot4,FPWW028
FPWW0280101,11,12,12,3,21,21,966518.315267284,5984393.28080002,2,2,0,17,2,3,330,ETHZ_FIP,1,4,2019,FPWW028_lot4,FPWW028
FPWW0280080,11,12,12,2,20,20,966516.762303173,5984391.79894782,2,2,0,14,2,2,26,ETHZ_FIP,1,4,2019,FPWW028_lot4,FPWW028
FPWW0280065,11,12,12,1,19,19,966515.516040449,5984389.85533331,2,2,0,11,2,1,371,ETHZ_FIP,1,4,2019,FPWW028_lot4,FPWW028
FPWW0280100,10,11,11,3,21,21,966516.010792844,5984395.20989149,2,2,0,17,2,3,362,ETHZ_FIP,1,4,2019,FPWW028_lot4,FPWW028
FPWW0280081,10,11,11,2,20,20,966514.462775333,5984393.69341784,2,2,0,14,2,2,339,ETHZ_FIP,1,4,2019,FPWW028_lot4,FPWW028
FPWW0280064,10,11,11,1,19,19,966513.250089505,5984391.63936299,2,2,0,11,2,1,201,ETHZ_FIP,1,4,2019,FPWW028_lot4,FPWW028
FPWW0280099,9,10,10,3,21,21,966513.730636498,5984397.08835389,2,2,0,17,2,3,300,ETHZ_FIP,1,4,2019,FPWW028_lot4,FPWW028
FPWW0280082,9,10,10,2,20,20,966512.175890231,5984395.64264091,2,2,0,14,2,2,146,ETHZ_FIP,1,4,2019,FPWW028_lot4,FPWW028
FPWW0280063,9,10,10,1,19,19,966510.987994469,5984393.66669757,2,2,0,11,2,1,48,ETHZ_FIP,1,4,2019,FPWW028_lot4,FPWW028
FPWW0280098,8,9,9,3,21,21,966511.507088317,5984398.97219916,2,2,0,17,2,3,211,ETHZ_FIP,1,4,2019,FPWW028_lot4,FPWW028
FPWW0280083,8,9,9,2,20,20,966509.809398828,5984397.52247094,2,2,1,14,2,2,424,ETHZ_FIP,1,4,2019,FPWW028_lot4,FPWW028
FPWW0280062,8,9,9,1,19,19,966508.637946926,5984395.59336936,2,2,0,11,2,1,2,ETHZ_FIP,1,4,2019,FPWW028_lot4,FPWW028
FPWW0280097,7,8,8,3,21,21,966509.164738724,5984400.88932958,2,2,0,17,2,3,157,ETHZ_FIP,1,4,2019,FPWW028_lot4,FPWW028
FPWW0280084,7,8,8,2,20,20,966507.584056038,5984399.39221279,2,2,0,14,2,2,19,ETHZ_FIP,1,4,2019,FPWW028_lot4,FPWW028
FPWW0280061,7,8,8,1,19,19,966506.349940336,5984397.47195433,2,2,0,11,2,1,162,ETHZ_FIP,1,4,2019,FPWW028_lot4,FPWW028
FPWW0280096,6,7,7,3,21,21,966506.85986214,5984402.79330493,2,2,1,16,1,3,1,ETHZ_FIP,1,4,2019,FPWW028_lot4,FPWW028
FPWW0280085,6,7,7,2,20,20,966505.249081276,5984401.27939331,2,2,0,13,1,2,108,ETHZ_FIP,1,4,2019,FPWW028_lot4,FPWW028
FPWW0280060,6,7,7,1,19,19,966504.069283688,5984399.31902046,2,2,0,10,1,1,341,ETHZ_FIP,1,4,2019,FPWW028_lot4,FPWW028
FPWW0280095,5,6,6,3,21,21,966504.582018006,5984404.71883306,2,2,0,16,1,3,302,ETHZ_FIP,1,4,2019,FPWW028_lot4,FPWW028
FPWW0280086,5,6,6,2,20,20,966502.921456438,5984403.13505497,2,2,0,13,1,2,133,ETHZ_FIP,1,4,2019,FPWW028_lot4,FPWW028
FPWW0280059,5,6,6,1,19,19,966501.742654369,5984401.23746987,2,2,0,10,1,1,122,ETHZ_FIP,1,4,2019,FPWW028_lot4,FPWW028
FPWW0280094,4,5,5,3,21,21,966502.348699291,5984406.58085096,2,2,1,16,1,3,452,ETHZ_FIP,1,4,2019,FPWW028_lot4,FPWW028
FPWW0280087,4,5,5,2,20,20,966500.602301199,5984405.02983481,2,2,0,13,1,2,23,ETHZ_FIP,1,4,2019,FPWW028_lot4,FPWW028
FPWW0280058,4,5,5,1,19,19,966499.464359435,5984403.23365826,2,2,0,10,1,1,238,ETHZ_FIP,1,4,2019,FPWW028_lot4,FPWW028
FPWW0280093,3,4,4,3,21,21,966500.010441795,5984408.42621408,2,2,0,16,1,3,170,ETHZ_FIP,1,4,2019,FPWW028_lot4,FPWW028
FPWW0280088,3,4,4,2,20,20,966498.383559057,5984406.82096586,2,2,0,13,1,2,336,ETHZ_FIP,1,4,2019,FPWW028_lot4,FPWW028
FPWW0280057,3,4,4,1,19,19,966497.253217277,5984405.00896713,2,2,0,10,1,1,385,ETHZ_FIP,1,4,2019,FPWW028_lot4,FPWW028
FPWW0280092,2,3,3,3,21,21,966497.782809677,5984410.31692674,2,2,0,16,1,3,294,ETHZ_FIP,1,4,2019,FPWW028_lot4,FPWW028
FPWW0280089,2,3,3,2,20,20,966495.994013556,5984408.73256204,2,2,0,13,1,2,202,ETHZ_FIP,1,4,2019,FPWW028_lot4,FPWW028
FPWW0280056,2,3,3,1,19,19,966494.957108406,5984406.87197841,2,2,0,10,1,1,172,ETHZ_FIP,1,4,2019,FPWW028_lot4,FPWW028
FPWW0280091,1,2,2,3,21,21,966495.354434905,5984412.25530742,2,2,1,16,1,3,29,ETHZ_FIP,1,4,2019,FPWW028_lot4,FPWW028
FPWW0280090,1,2,2,2,20,20,966493.785357277,5984410.66484251,2,2,0,13,1,2,17,ETHZ_FIP,1,4,2019,FPWW028_lot4,FPWW028
FPWW0280055,1,2,2,1,19,19,966492.690900045,5984408.64030909,2,2,0,10,1,1,290,ETHZ_FIP,1,4,2019,FPWW028_lot4,FPWW028
