plot.UID,plot.range,plot.range_in_lot,plot.range_global,plot.row,plot.row_in_lot,plot.row_global,plot.spatial_x,plot.spatial_y,plot.replication,replication,spatial_check,spatial_block,range_block,row_block,genotype.id,site.label,site.id,year_site.lot,year_site.harvest_year,year_site.UID,experiment.UID
FPWW0280054,18,19,19,3,21,21,966519.244742934,5984469.10202284,1,1,0,9,3,3,282,ETHZ_FIP,1,2,2019,FPWW028_lot2,FPWW028
FPWW0280019,18,19,19,2,20,20,966517.529067319,5984467.58255225,1,1,0,6,3,2,17,ETHZ_FIP,1,2,2019,FPWW028_lot2,FPWW028
FPWW0280018,18,19,19,1,19,19,966516.489505276,5984465.53569659,1,1,0,3,3,1,336,ETHZ_FIP,1,2,2019,FPWW028_lot2,FPWW028
FPWW0280053,17,18,18,3,21,21,966516.922574331,5984471.0539076,1,1,0,9,3,3,19,ETHZ_FIP,1,2,2019,FPWW028_lot2,FPWW028
FPWW0280020,17,18,18,2,20,20,966515.247332237,5984469.57795483,1,1,0,6,3,2,48,ETHZ_FIP,1,2,2019,FPWW028_lot2,FPWW028
FPWW0280017,17,18,18,1,19,19,966514.164461831,5984467.58477647,1,1,0,3,3,1,294,ETHZ_FIP,1,2,2019,FPWW028_lot2,FPWW028
FPWW0280052,16,17,17,3,21,21,966514.643923332,5984472.96535866,1,1,1,9,3,3,1,ETHZ_FIP,1,2,2019,FPWW028_lot2,FPWW028
FPWW0280021,16,17,17,2,20,20,966513.054878726,5984471.35555993,1,1,1,6,3,2,29,ETHZ_FIP,1,2,2019,FPWW028_lot2,FPWW028
FPWW0280016,16,17,17,1,19,19,966511.807183652,5984469.55046395,1,1,0,3,3,1,201,ETHZ_FIP,1,2,2019,FPWW028_lot2,FPWW028
FPWW0280051,15,16,16,3,21,21,966512.241305558,5984474.85669484,1,1,0,9,3,3,108,ETHZ_FIP,1,2,2019,FPWW028_lot2,FPWW028
FPWW0280022,15,16,16,2,20,20,966510.617922006,5984473.30926311,1,1,0,6,3,2,330,ETHZ_FIP,1,2,2019,FPWW028_lot2,FPWW028
FPWW0280015,15,16,16,1,19,19,966509.48872829,5984471.45812834,1,1,0,3,3,1,157,ETHZ_FIP,1,2,2019,FPWW028_lot2,FPWW028
FPWW0280050,14,15,15,3,21,21,966510.080383927,5984476.67354405,1,1,0,9,3,3,385,ETHZ_FIP,1,2,2019,FPWW028_lot2,FPWW028
FPWW0280023,14,15,15,2,20,20,966508.434856177,5984475.12204666,1,1,0,6,3,2,172,ETHZ_FIP,1,2,2019,FPWW028_lot2,FPWW028
FPWW0280014,14,15,15,1,19,19,966507.222620294,5984473.32521909,1,1,0,3,3,1,85,ETHZ_FIP,1,2,2019,FPWW028_lot2,FPWW028
FPWW0280049,13,14,14,3,21,21,966507.736067009,5984478.62136312,1,1,0,9,3,3,206,ETHZ_FIP,1,2,2019,FPWW028_lot2,FPWW028
FPWW0280024,13,14,14,2,20,20,966505.980657846,5984477.10251844,1,1,0,6,3,2,26,ETHZ_FIP,1,2,2019,FPWW028_lot2,FPWW028
FPWW0280013,13,14,14,1,19,19,966504.924767599,5984475.13982129,1,1,0,3,3,1,290,ETHZ_FIP,1,2,2019,FPWW028_lot2,FPWW028
FPWW0280048,12,13,13,3,21,21,966505.487546218,5984480.48376017,1,1,1,8,2,3,452,ETHZ_FIP,1,2,2019,FPWW028_lot2,FPWW028
FPWW0280025,12,13,13,2,20,20,966503.749656529,5984478.95580508,1,1,0,5,2,2,170,ETHZ_FIP,1,2,2019,FPWW028_lot2,FPWW028
FPWW0280012,12,13,13,1,19,19,966502.60224429,5984477.06962932,1,1,0,2,2,1,202,ETHZ_FIP,1,2,2019,FPWW028_lot2,FPWW028
FPWW0280047,11,12,12,3,21,21,966503.204755317,5984482.41293971,1,1,0,8,2,3,133,ETHZ_FIP,1,2,2019,FPWW028_lot2,FPWW028
FPWW0280026,11,12,12,2,20,20,966501.496230096,5984480.78736717,1,1,0,5,2,2,466,ETHZ_FIP,1,2,2019,FPWW028_lot2,FPWW028
FPWW0280011,11,12,12,1,19,19,966500.288199774,5984478.97722293,1,1,0,2,2,1,28,ETHZ_FIP,1,2,2019,FPWW028_lot2,FPWW028
FPWW0280046,10,11,11,3,21,21,966500.955602775,5984484.2356027,1,1,0,8,2,3,301,ETHZ_FIP,1,2,2019,FPWW028_lot2,FPWW028
FPWW0280027,10,11,11,2,20,20,966499.182954105,5984482.74352472,1,1,0,5,2,2,149,ETHZ_FIP,1,2,2019,FPWW028_lot2,FPWW028
FPWW0280010,10,11,11,1,19,19,966498.12643176,5984480.88019471,1,1,0,2,2,1,302,ETHZ_FIP,1,2,2019,FPWW028_lot2,FPWW028
FPWW0280045,9,10,10,3,21,21,966498.672460003,5984486.1427076,1,1,0,8,2,3,106,ETHZ_FIP,1,2,2019,FPWW028_lot2,FPWW028
FPWW0280028,9,10,10,2,20,20,966496.838003336,5984484.6516085,1,1,0,5,2,2,341,ETHZ_FIP,1,2,2019,FPWW028_lot2,FPWW028
FPWW0280044,8,9,9,3,21,21,966496.331223305,5984488.00657342,1,1,0,8,2,3,240,ETHZ_FIP,1,2,2019,FPWW028_lot2,FPWW028
FPWW0280029,8,9,9,2,20,20,966494.54435043,5984486.45289577,1,1,0,5,2,2,23,ETHZ_FIP,1,2,2019,FPWW028_lot2,FPWW028
FPWW0280008,8,9,9,1,19,19,966493.622513536,5984484.72874059,1,1,0,2,2,1,30,ETHZ_FIP,1,2,2019,FPWW028_lot2,FPWW028
FPWW0280043,7,8,8,3,21,21,966494.003370139,5984489.8790588,1,1,0,8,2,3,238,ETHZ_FIP,1,2,2019,FPWW028_lot2,FPWW028
FPWW0280030,7,8,8,2,20,20,966492.26667015,5984488.42615239,1,1,0,5,2,2,25,ETHZ_FIP,1,2,2019,FPWW028_lot2,FPWW028
FPWW0280042,6,7,7,3,21,21,966491.716439277,5984491.82596684,1,1,0,7,1,3,335,ETHZ_FIP,1,2,2019,FPWW028_lot2,FPWW028
FPWW0280031,6,7,7,2,20,20,966490.09242645,5984490.23879454,1,1,0,4,1,2,362,ETHZ_FIP,1,2,2019,FPWW028_lot2,FPWW028
FPWW0280006,6,7,7,1,19,19,966488.913601068,5984488.46019967,1,1,0,1,1,1,211,ETHZ_FIP,1,2,2019,FPWW028_lot2,FPWW028
FPWW0280041,5,6,6,3,21,21,966489.392789043,5984493.68513726,1,1,0,7,1,3,300,ETHZ_FIP,1,2,2019,FPWW028_lot2,FPWW028
FPWW0280032,5,6,6,2,20,20,966487.673958424,5984492.24519398,1,1,0,4,1,2,218,ETHZ_FIP,1,2,2019,FPWW028_lot2,FPWW028
FPWW0280005,5,6,6,1,19,19,966486.627914765,5984490.34636674,1,1,0,1,1,1,27,ETHZ_FIP,1,2,2019,FPWW028_lot2,FPWW028
FPWW0280040,4,5,5,3,21,21,966487.144260458,5984495.54753279,1,1,0,7,1,3,254,ETHZ_FIP,1,2,2019,FPWW028_lot2,FPWW028
FPWW0280033,4,5,5,2,20,20,966485.425569786,5984494.11641849,1,1,0,4,1,2,162,ETHZ_FIP,1,2,2019,FPWW028_lot2,FPWW028
FPWW0280004,4,5,5,1,19,19,966484.273989547,5984492.24575903,1,1,1,1,1,1,424,ETHZ_FIP,1,2,2019,FPWW028_lot2,FPWW028
FPWW0280039,3,4,4,3,21,21,966484.899935865,5984497.39661359,1,1,0,7,1,3,146,ETHZ_FIP,1,2,2019,FPWW028_lot2,FPWW028
FPWW0280034,3,4,4,2,20,20,966483.163235896,5984495.94370411,1,1,0,4,1,2,251,ETHZ_FIP,1,2,2019,FPWW028_lot2,FPWW028
FPWW0280003,3,4,4,1,19,19,966482.00815234,5984494.06095556,1,1,0,1,1,1,6,ETHZ_FIP,1,2,2019,FPWW028_lot2,FPWW028
FPWW0280038,2,3,3,3,21,21,966482.524423833,5984499.32726085,1,1,0,7,1,3,2,ETHZ_FIP,1,2,2019,FPWW028_lot2,FPWW028
FPWW0280035,2,3,3,2,20,20,966480.795504074,5984497.80798768,1,1,0,4,1,2,339,ETHZ_FIP,1,2,2019,FPWW028_lot2,FPWW028
FPWW0280002,2,3,3,1,19,19,966479.825145347,5984495.87815113,1,1,0,1,1,1,371,ETHZ_FIP,1,2,2019,FPWW028_lot2,FPWW028
FPWW0280037,1,2,2,3,21,21,966480.171125012,5984501.26638777,1,1,0,7,1,3,22,ETHZ_FIP,1,2,2019,FPWW028_lot2,FPWW028
FPWW0280036,1,2,2,2,20,20,966478.613615371,5984499.69582156,1,1,0,4,1,2,33,ETHZ_FIP,1,2,2019,FPWW028_lot2,FPWW028
FPWW0280001,1,2,2,1,19,19,966477.545222078,5984497.6405788,1,1,0,1,1,1,5,ETHZ_FIP,1,2,2019,FPWW028_lot2,FPWW028
FPWW0280007,7,8,8,1,19,19,966491.095255691,5984486.62756886,1,1,0,2,2,1,128,ETHZ_FIP,1,2,2019,FPWW028_lot2,FPWW028
FPWW0280009,9,10,10,1,19,19,966495.917257175,5984482.71767828,1,1,0,2,2,1,122,ETHZ_FIP,1,2,2019,FPWW028_lot2,FPWW028
