"Plot_ID","Lot","RangeLot","RowLot","Gen_Name","HeadingDAS","heading_date","heading_GDDAS"
"FPWW0120001",4,2,2,"TORAS",235,2016-06-04,1591.32065217391
"FPWW0120002",4,2,3,"PULSAR",232,2016-06-01,1545.24981884058
"FPWW0120003",4,2,4,"CH CLARO",229,2016-05-29,1500.77898550725
"FPWW0120004",4,2,5,"LEGENDA",234,2016-06-03,1575.79148550725
"FPWW0120005",4,2,6,"TANELIN",231,2016-05-31,1530.21648550725
"FPWW0120006",4,2,7,"RYWALKA",237,2016-06-06,1625.94981884058
"FPWW0120007",4,2,8,"FORNO",231,2016-05-31,1530.21648550725
"FPWW0120008",4,2,9,"ZEBEDEE",233,2016-06-02,1560.39565217391
"FPWW0120009",4,2,10,"MENDEL",228,2016-05-28,1485.94148550725
"FPWW0120010",4,2,11,"SYMBOL",236,2016-06-05,1607.38731884058
"FPWW0120011",4,2,12,"SOKRATES",234,2016-06-03,1575.79148550725
"FPWW0120012",4,2,13,"AGUILA",227,2016-05-27,1467.69565217391
"FPWW0120013",4,2,14,"SW HARPUN",233,2016-06-02,1560.39565217391
"FPWW0120014",4,2,15,"HERMANN",236,2016-06-05,1607.38731884058
"FPWW0120015",4,2,16,"EXPERT",233,2016-06-02,1560.39565217391
"FPWW0120016",4,2,17,"IBIS",231,2016-05-31,1530.21648550725
"FPWW0120017",4,2,18,"EPIDOC",228,2016-05-28,1485.94148550725
"FPWW0120018",4,2,19,"CAPNOR",230,2016-05-30,1515.49148550725
"FPWW0120019",4,2,20,"NUTKA",233,2016-06-02,1560.39565217391
"FPWW0120020",4,3,20,"ANTHUS",234,2016-06-03,1575.79148550725
"FPWW0120021",4,3,19,"TORONTO",229,2016-05-29,1500.77898550725
"FPWW0120022",4,3,18,"HALDOR",234,2016-06-03,1575.79148550725
"FPWW0120023",4,3,17,"CH CLARO",229,2016-05-29,1500.77898550725
"FPWW0120024",4,3,16,"MANDUB",236,2016-06-05,1607.38731884058
"FPWW0120025",4,3,15,"AZZURO",229,2016-05-29,1500.77898550725
"FPWW0120026",4,3,14,"MAGNO",228,2016-05-28,1485.94148550725
"FPWW0120027",4,3,13,"BOOMER",233,2016-06-02,1560.39565217391
"FPWW0120028",4,3,12,"ALTIGO",228,2016-05-28,1485.94148550725
"FPWW0120029",4,3,11,"ZENITH",235,2016-06-04,1591.32065217391
"FPWW0120030",4,3,10,"KWS AURUM LP 819.4.04",229,2016-05-29,1500.77898550725
"FPWW0120031",4,3,9,"AMBROSIA",233,2016-06-02,1560.39565217391
"FPWW0120032",4,3,8,"MEWA",234,2016-06-03,1575.79148550725
"FPWW0120033",4,3,7,"MARKSMAN",231,2016-05-31,1530.21648550725
"FPWW0120034",4,3,6,"ZANATAN",235,2016-06-04,1591.32065217391
"FPWW0120035",4,3,5,"GULLIVER",235,2016-06-04,1591.32065217391
"FPWW0120036",4,3,4,"SEMPER",233,2016-06-02,1560.39565217391
"FPWW0120037",4,3,3,"CHAUMONT",228,2016-05-28,1485.94148550725
"FPWW0120038",4,3,2,"RUNAL",231,2016-05-31,1530.21648550725
"FPWW0120039",4,4,2,"RECITAL",226,2016-05-26,1447.66648550725
"FPWW0120040",4,4,3,"INCISIF",231,2016-05-31,1530.21648550725
"FPWW0120041",4,4,4,"INEDIT",230,2016-05-30,1515.49148550725
"FPWW0120042",4,4,5,"TAMBOR",235,2016-06-04,1591.32065217391
"FPWW0120043",4,4,6,"NATEJA",234,2016-06-03,1575.79148550725
"FPWW0120044",4,4,7,"RAINER",231,2016-05-31,1530.21648550725
"FPWW0120045",4,4,8,"BUTEO",233,2016-06-02,1560.39565217391
"FPWW0120046",4,4,9,"PHILIUS",232,2016-06-01,1545.24981884058
"FPWW0120047",4,4,10,"OAKLEY",236,2016-06-05,1607.38731884058
"FPWW0120048",4,4,11,"BROMPTON",234,2016-06-03,1575.79148550725
"FPWW0120049",4,4,12,"CH CLARO",229,2016-05-29,1500.77898550725
"FPWW0120050",4,4,13,"INOUI",227,2016-05-27,1467.69565217391
"FPWW0120051",4,4,14,"H05581A",229,2016-05-29,1500.77898550725
"FPWW0120052",4,4,15,"KANZLER",235,2016-06-04,1591.32065217391
"FPWW0120053",4,4,16,"CAPHORN",229,2016-05-29,1500.77898550725
"FPWW0120054",4,4,17,"SAMURAI",234,2016-06-03,1575.79148550725
"FPWW0120055",4,4,18,"ARACK",229,2016-05-29,1500.77898550725
"FPWW0120056",4,4,19,"BORNEO",235,2016-06-04,1591.32065217391
"FPWW0120057",4,4,20,"PARADOR",233,2016-06-02,1560.39565217391
"FPWW0120058",4,5,20,"SPERBER",231,2016-05-31,1530.21648550725
"FPWW0120059",4,5,19,"SW HARNESK",238,2016-06-07,1644.86648550725
"FPWW0120060",4,5,18,"HISTORY",236,2016-06-05,1607.38731884058
"FPWW0120061",4,5,17,"ISTABRAQ",233,2016-06-02,1560.39565217391
"FPWW0120062",4,5,16,"CAMBRENA",231,2016-05-31,1530.21648550725
"FPWW0120063",4,5,15,"EQUINOX",235,2016-06-04,1591.32065217391
"FPWW0120064",4,5,14,"SMUGA",230,2016-05-30,1515.49148550725
"FPWW0120065",4,5,13,"MONSUN",228,2016-05-28,1485.94148550725
"FPWW0120066",4,5,12,"H03309",227,2016-05-27,1467.69565217391
"FPWW0120067",4,5,11,"ALDRIC",229,2016-05-29,1500.77898550725
"FPWW0120068",4,5,10,"TRANSIT",234,2016-06-03,1575.79148550725
"FPWW0120069",4,5,9,"VIVANT",236,2016-06-05,1607.38731884058
"FPWW0120070",4,5,8,"INSTINCT",228,2016-05-28,1485.94148550725
"FPWW0120071",4,5,7,"CH CLARO",229,2016-05-29,1500.77898550725
"FPWW0120072",4,5,6,"AZIMUT",228,2016-05-28,1485.94148550725
"FPWW0120073",4,5,5,"APACHE",230,2016-05-30,1515.49148550725
"FPWW0120074",4,5,4,"HAUSSMANN",234,2016-06-03,1575.79148550725
"FPWW0120075",4,5,3,"MASCOT",231,2016-05-31,1530.21648550725
"FPWW0120076",4,5,2,"BERMUDE",231,2016-05-31,1530.21648550725
"FPWW0120077",4,6,2,"CH CLARO",231,2016-05-31,1530.21648550725
"FPWW0120078",4,6,3,"DINOSOR",233,2016-06-02,1560.39565217391
"FPWW0120079",4,6,4,"P05312",226,2016-05-26,1447.66648550725
"FPWW0120080",4,6,5,"ASTRADO",234,2016-06-03,1575.79148550725
"FPWW0120081",4,6,6,"PRIVILEG",236,2016-06-05,1607.38731884058
"FPWW0120082",4,6,7,"MAXYL",235,2016-06-04,1591.32065217391
"FPWW0120083",4,6,8,"MERCATO",230,2016-05-30,1515.49148550725
"FPWW0120084",4,6,9,"RUBENS",230,2016-05-30,1515.49148550725
"FPWW0120085",4,6,10,"FEDOR",234,2016-06-03,1575.79148550725
"FPWW0120086",4,6,11,"ALCHEMY",237,2016-06-06,1625.94981884058
"FPWW0120087",4,6,12,"CONSORT",237,2016-06-06,1625.94981884058
"FPWW0120088",4,6,13,"TULSA",236,2016-06-05,1607.38731884058
"FPWW0120089",4,6,14,"EXSEPT",236,2016-06-05,1607.38731884058
"FPWW0120090",4,6,15,"CPBT W130",235,2016-06-04,1591.32065217391
"FPWW0120091",4,6,16,"POTENZIAL",234,2016-06-03,1575.79148550725
"FPWW0120092",4,6,17,"SW TOPPER",233,2016-06-02,1560.39565217391
"FPWW0120093",4,6,18,"MAGISTER",234,2016-06-03,1575.79148550725
"FPWW0120094",4,6,19,"SOBI",234,2016-06-03,1575.79148550725
"FPWW0120095",4,6,20,"CH CLARO",228,2016-05-28,1485.94148550725
"FPWW0120096",4,7,21,"HANSWIN",228,2016-05-28,1485.94148550725
"FPWW0120097",4,7,20,"CERTO",233,2016-06-02,1560.39565217391
"FPWW0120098",4,7,19,"GATSBY",236,2016-06-05,1607.38731884058
"FPWW0120099",4,7,18,"CAMPERO",228,2016-05-28,1485.94148550725
"FPWW0120100",4,7,17,"ZENTOS",236,2016-06-05,1607.38731884058
"FPWW0120101",4,7,16,"MEUNIER",231,2016-05-31,1530.21648550725
"FPWW0120102",4,7,15,"CH CLARO",230,2016-05-30,1515.49148550725
"FPWW0120103",4,7,14,"URBAN",237,2016-06-06,1625.94981884058
"FPWW0120104",4,7,13,"SANKARA",231,2016-05-31,1530.21648550725
"FPWW0120105",4,7,12,"CASSIOPEIA",237,2016-06-06,1625.94981884058
"FPWW0120106",4,7,11,"SKAGEN",237,2016-06-06,1625.94981884058
"FPWW0120107",4,7,10,"SENAT",237,2016-06-06,1625.94981884058
"FPWW0120108",4,7,9,"ORESTIS",235,2016-06-04,1591.32065217391
"FPWW0120109",4,7,8,"CAPO",232,2016-06-01,1545.24981884058
"FPWW0120110",4,7,7,"IZYDA",231,2016-05-31,1530.21648550725
"FPWW0120111",4,7,6,"TUAREG",235,2016-06-04,1591.32065217391
"FPWW0120112",4,7,5,"PRINZ",237,2016-06-06,1625.94981884058
"FPWW0120113",4,7,4,"PYTAGOR",231,2016-05-31,1530.21648550725
"FPWW0120114",4,7,3,"HOURRA",230,2016-05-30,1515.49148550725
"FPWW0120115",4,7,2,"XENOS",230,2016-05-30,1515.49148550725
"FPWW0120116",4,8,2,"ROBIGUS",236,2016-06-05,1607.38731884058
"FPWW0120117",4,8,3,"SKATER",233,2016-06-02,1560.39565217391
"FPWW0120118",4,8,4,"GRISBY",235,2016-06-04,1591.32065217391
"FPWW0120119",4,8,5,"CLIFF",233,2016-06-02,1560.39565217391
"FPWW0120120",4,8,6,"LONA",227,2016-05-27,1467.69565217391
"FPWW0120121",4,8,7,"ENORM",233,2016-06-02,1560.39565217391
"FPWW0120122",4,8,8,"BRILLIANT",233,2016-06-02,1560.39565217391
"FPWW0120123",4,8,9,"SMUGGLER",235,2016-06-04,1591.32065217391
"FPWW0120124",4,8,10,"CH CLARO",229,2016-05-29,1500.77898550725
"FPWW0120125",4,8,11,"INTENSE",231,2016-05-31,1530.21648550725
"FPWW0120126",4,8,12,"DEKAN",233,2016-06-02,1560.39565217391
"FPWW0120127",4,8,13,"ATLANTIS",235,2016-06-04,1591.32065217391
"FPWW0120128",4,8,14,"INTERET",233,2016-06-02,1560.39565217391
"FPWW0120129",4,8,15,"SLEJPNER",237,2016-06-06,1625.94981884058
"FPWW0120130",4,8,16,"TOWER",235,2016-06-04,1591.32065217391
"FPWW0120131",4,8,17,"HEREFORD",234,2016-06-03,1575.79148550725
"FPWW0120132",4,8,18,"MARKIZA",233,2016-06-02,1560.39565217391
"FPWW0120133",4,8,19,"SISLEY",229,2016-05-29,1500.77898550725
"FPWW0120134",4,8,20,"CONTUR",236,2016-06-05,1607.38731884058
"FPWW0120135",4,8,21,"SURETTA",229,2016-05-29,1500.77898550725
"FPWW0120136",4,9,21,"CONTRA",233,2016-06-02,1560.39565217391
"FPWW0120137",4,9,20,"RENAN",230,2016-05-30,1515.49148550725
"FPWW0120138",4,9,19,"ZAWISZA",235,2016-06-04,1591.32065217391
"FPWW0120139",4,9,18,"WYDMA",233,2016-06-02,1560.39565217391
"FPWW0120140",4,9,17,"MONTY",233,2016-06-02,1560.39565217391
"FPWW0120141",4,9,16,"PAROLI",234,2016-06-03,1575.79148550725
"FPWW0120142",4,9,15,"ACIENDA",227,2016-05-27,1467.69565217391
"FPWW0120143",4,9,14,"AUDI",236,2016-06-05,1607.38731884058
"FPWW0120144",4,9,13,"EXOTIC",227,2016-05-27,1467.69565217391
"FPWW0120145",4,9,12,"BATUTA",230,2016-05-30,1515.49148550725
"FPWW0120146",4,9,11,"TUKAN",233,2016-06-02,1560.39565217391
"FPWW0120147",4,9,10,"TRAPPE",230,2016-05-30,1515.49148550725
"FPWW0120148",4,9,9,"TITLIS",233,2016-06-02,1560.39565217391
"FPWW0120149",4,9,8,"HAMAC",230,2016-05-30,1515.49148550725
"FPWW0120150",4,9,7,"SKALMEJE",235,2016-06-04,1591.32065217391
"FPWW0120151",4,9,6,"LUCIUS",236,2016-06-05,1607.38731884058
"FPWW0120152",4,9,5,"CH CLARO",230,2016-05-30,1515.49148550725
"FPWW0120153",4,9,4,"CCB INGENIO",227,2016-05-27,1467.69565217391
"FPWW0120154",4,9,3,"PAPAGENO",234,2016-06-03,1575.79148550725
"FPWW0120155",4,9,2,"TONACJA",235,2016-06-04,1591.32065217391
"FPWW0120156",4,10,2,"BALTIMOR",234,2016-06-03,1575.79148550725
"FPWW0120157",4,10,3,"FORMAT",238,2016-06-07,1644.86648550725
"FPWW0120158",4,10,4,"CH COMBIN",229,2016-05-29,1500.77898550725
"FPWW0120159",4,10,5,"TRAVIX",233,2016-06-02,1560.39565217391
"FPWW0120160",4,10,6,"FLAIR",235,2016-06-04,1591.32065217391
"FPWW0120161",4,10,7,"FREGATA",237,2016-06-06,1625.94981884058
"FPWW0120162",4,10,8,"APERITIV",230,2016-05-30,1515.49148550725
"FPWW0120163",4,10,9,"CRAKLIN",228,2016-05-28,1485.94148550725
"FPWW0120164",4,10,10,"ERIWAN",230,2016-05-30,1515.49148550725
"FPWW0120165",4,10,11,"PROFILUS",232,2016-06-01,1545.24981884058
"FPWW0120166",4,10,12,"ORDEAL",231,2016-05-31,1530.21648550725
"FPWW0120167",4,10,13,"CALISTO",229,2016-05-29,1500.77898550725
"FPWW0120168",4,10,14,"LEIFFER",235,2016-06-04,1591.32065217391
"FPWW0120169",4,10,15,"JENGA",234,2016-06-03,1575.79148550725
"FPWW0120170",4,10,16,"MUSKETEER",232,2016-06-01,1545.24981884058
"FPWW0120171",4,10,17,"CENTRUM",235,2016-06-04,1591.32065217391
"FPWW0120172",4,10,18,"CH CLARO",230,2016-05-30,1515.49148550725
"FPWW0120173",4,10,19,"INNOV",228,2016-05-28,1485.94148550725
"FPWW0120174",4,10,20,"IRIDIUM",230,2016-05-30,1515.49148550725
"FPWW0120175",4,10,21,"NATURASTAR",234,2016-06-03,1575.79148550725
"FPWW0120176",4,11,21,"ROMANUS",227,2016-05-27,1467.69565217391
"FPWW0120177",4,11,20,"GLASGOW",230,2016-05-30,1515.49148550725
"FPWW0120178",4,11,19,"SCHAMANE",233,2016-06-02,1560.39565217391
"FPWW0120179",4,11,18,"BOGATKA",230,2016-05-30,1515.49148550725
"FPWW0120180",4,11,17,"GARCIA",227,2016-05-27,1467.69565217391
"FPWW0120181",4,11,16,"JB ASANO",231,2016-05-31,1530.21648550725
"FPWW0120182",4,11,15,"PR22R58",226,2016-05-26,1447.66648550725
"FPWW0120183",4,11,14,"MILVUS",233,2016-06-02,1560.39565217391
"FPWW0120184",4,11,13,"CH CLARO",229,2016-05-29,1500.77898550725
"FPWW0120185",4,11,12,"BUENO",228,2016-05-28,1485.94148550725
"FPWW0120186",4,11,11,"H05606",227,2016-05-27,1467.69565217391
"FPWW0120187",4,11,10,"CARIBOU",231,2016-05-31,1530.21648550725
"FPWW0120188",4,11,9,"ZINAL",230,2016-05-30,1515.49148550725
"FPWW0120189",4,11,8,"GLOBUS",235,2016-06-04,1591.32065217391
"FPWW0120190",4,11,7,"BILL",235,2016-06-04,1591.32065217391
"FPWW0120191",4,11,6,"SW HURTIG",237,2016-06-06,1625.94981884058
"FPWW0120192",4,11,5,"CCB PREFERENCE",231,2016-05-31,1530.21648550725
"FPWW0120193",4,11,4,"VERSAILLES",235,2016-06-04,1591.32065217391
"FPWW0120194",4,11,3,"ACTROS",236,2016-06-05,1607.38731884058
"FPWW0120195",4,11,2,"MONOPOL",235,2016-06-04,1591.32065217391
"FPWW0120196",4,12,2,"BASTIDE",229,2016-05-29,1500.77898550725
"FPWW0120197",4,12,3,"BRANDO",234,2016-06-03,1575.79148550725
"FPWW0120198",4,12,4,"DEBEN",236,2016-06-05,1607.38731884058
"FPWW0120199",4,12,5,"ELEGANT",235,2016-06-04,1591.32065217391
"FPWW0120200",4,12,6,"PALADAIN",231,2016-05-31,1530.21648550725
"FPWW0120201",4,12,7,"ESTICA",237,2016-06-06,1625.94981884058
"FPWW0120202",4,12,8,"CH CLARO",230,2016-05-30,1515.49148550725
"FPWW0120203",4,12,9,"KWS CHAMSIN LP 779.2.04",228,2016-05-28,1485.94148550725
"FPWW0120204",4,12,10,"SATYNA",230,2016-05-30,1515.49148550725
"FPWW0120205",4,12,11,"HUSSAR",234,2016-06-03,1575.79148550725
"FPWW0120206",4,12,12,"HUMBER",233,2016-06-02,1560.39565217391
"FPWW0120207",4,12,13,"CUBUS",233,2016-06-02,1560.39565217391
"FPWW0120208",4,12,14,"FOLIO",231,2016-05-31,1530.21648550725
"FPWW0120209",4,12,15,"SOISSONS",230,2016-05-30,1515.49148550725
"FPWW0120210",4,12,16,"ELLVIS",236,2016-06-05,1607.38731884058
"FPWW0120211",4,12,17,"CEZANNE",228,2016-05-28,1485.94148550725
"FPWW0120212",4,12,18,"LYNX",235,2016-06-04,1591.32065217391
"FPWW0120213",4,12,19,"COMPLIMENT",235,2016-06-04,1591.32065217391
"FPWW0120214",4,12,20,"AUBUSSON",227,2016-05-27,1467.69565217391
"FPWW0120215",4,12,21,"ATTLASS",234,2016-06-03,1575.79148550725
"FPWW0120216",4,13,21,"CH CLARO",228,2016-05-28,1485.94148550725
"FPWW0120217",4,13,20,"PR 22 R 28",233,2016-06-02,1560.39565217391
"FPWW0120218",4,13,19,"ORVANTIS",228,2016-05-28,1485.94148550725
"FPWW0120219",4,13,18,"BUSSARD",235,2016-06-04,1591.32065217391
"FPWW0120220",4,13,17,"ARES",233,2016-06-02,1560.39565217391
"FPWW0120221",4,13,16,"FASTNET",234,2016-06-03,1575.79148550725
"FPWW0120222",4,13,15,"MULAN",233,2016-06-02,1560.39565217391
"FPWW0120223",4,13,14,"KOCH",234,2016-06-03,1575.79148550725
"FPWW0120224",4,13,13,"H04438",231,2016-05-31,1530.21648550725
"FPWW0120225",4,13,12,"TOISONDOR",232,2016-06-01,1545.24981884058
"FPWW0120226",4,13,11,"BALANCE",232,2016-06-01,1545.24981884058
"FPWW0120227",4,13,10,"LIMERICK",233,2016-06-02,1560.39565217391
"FPWW0120228",4,13,9,"ORATORIO",230,2016-05-30,1515.49148550725
"FPWW0120229",4,13,8,"MIKON",233,2016-06-02,1560.39565217391
"FPWW0120230",4,13,7,"CARENIUS",235,2016-06-04,1591.32065217391
"FPWW0120231",4,13,6,"QUEBON",231,2016-05-31,1530.21648550725
"FPWW0120232",4,13,5,"FINEZJA",235,2016-06-04,1591.32065217391
"FPWW0120233",4,13,4,"WINNETOU",237,2016-06-06,1625.94981884058
"FPWW0120234",4,13,3,"CH CLARO",231,2016-05-31,1530.21648550725
"FPWW0120235",4,13,2,"LUDWIG",233,2016-06-02,1560.39565217391
"FPWW0120236",4,14,2,"TAMARO",232,2016-06-01,1545.24981884058
"FPWW0120237",4,14,3,"DISCUS",236,2016-06-05,1607.38731884058
"FPWW0120238",4,14,4,"KWS SCIROCCO LP 509.3.04",229,2016-05-29,1500.77898550725
"FPWW0120239",4,14,5,"KORWETA",238,2016-06-07,1644.86648550725
"FPWW0120240",4,14,6,"ARINA",233,2016-06-02,1560.39565217391
"FPWW0120241",4,14,7,"AUTAN",228,2016-05-28,1485.94148550725
"FPWW0120242",4,14,8,"VANILNOIR",232,2016-06-01,1545.24981884058
"FPWW0120243",4,14,9,"GALAXIE",230,2016-05-30,1515.49148550725
"FPWW0120244",4,14,10,"JAFET",236,2016-06-05,1607.38731884058
"FPWW0120245",4,14,11,"ZYTA",236,2016-06-05,1607.38731884058
"FPWW0120246",4,14,12,"ORNICAR",229,2016-05-29,1500.77898550725
"FPWW0120247",4,14,13,"JULIUS",233,2016-06-02,1560.39565217391
"FPWW0120248",4,14,14,"CH CLARO",229,2016-05-29,1500.77898550725
"FPWW0120249",4,14,15,"ACHAT",236,2016-06-05,1607.38731884058
"FPWW0120250",4,14,16,"CH CLARO",229,2016-05-29,1500.77898550725
"FPWW0120251",4,14,17,"MARSHAL",235,2016-06-04,1591.32065217391
"FPWW0120252",4,14,18,"ISENGRAIN",228,2016-05-28,1485.94148550725
"FPWW0120253",4,14,19,"DRIFTER",235,2016-06-04,1591.32065217391
"FPWW0120254",4,14,20,"BATIS",234,2016-06-03,1575.79148550725
"FPWW0120255",4,14,21,"ZOBEL",236,2016-06-05,1607.38731884058
"FPWW0120256",4,15,21,"ESKET",236,2016-06-05,1607.38731884058
"FPWW0120257",4,15,20,"PAMIER",233,2016-06-02,1560.39565217391
"FPWW0120258",4,15,19,"CORSAIRE",233,2016-06-02,1560.39565217391
"FPWW0120259",4,15,18,"PETRUS",234,2016-06-03,1575.79148550725
"FPWW0120260",4,15,17,"PR22R20",233,2016-06-02,1560.39565217391
"FPWW0120261",4,15,16,"SEYRAC",236,2016-06-05,1607.38731884058
"FPWW0120262",4,15,15,"METEOR",234,2016-06-03,1575.79148550725
"FPWW0120263",4,15,14,"RAISON",233,2016-06-02,1560.39565217391
"FPWW0120264",4,15,13,"BISCAY",236,2016-06-05,1607.38731884058
"FPWW0120265",4,15,12,"SOLITAR",237,2016-06-06,1625.94981884058
"FPWW0120266",4,15,11,"CH CLARO",230,2016-05-30,1515.49148550725
"FPWW0120267",4,15,10,"CH CAMEDO",231,2016-05-31,1530.21648550725
"FPWW0120268",4,15,9,"ALLISTER",229,2016-05-29,1500.77898550725
"FPWW0120269",4,15,8,"VITUS",236,2016-06-05,1607.38731884058
"FPWW0120270",4,15,7,"LEVIS",231,2016-05-31,1530.21648550725
"FPWW0120271",4,15,6,"MIRAGE",233,2016-06-02,1560.39565217391
"FPWW0120272",4,15,5,"AROBASE",229,2016-05-29,1500.77898550725
"FPWW0120273",4,15,4,"JAZZI",229,2016-05-29,1500.77898550725
"FPWW0120274",4,15,3,"APOLLO",233,2016-06-02,1560.39565217391
"FPWW0120275",4,15,2,"LORENZO",231,2016-05-31,1530.21648550725
"FPWW0120276",4,16,2,"OSTKA STRZELECKA",236,2016-06-05,1607.38731884058
"FPWW0120277",4,16,3,"GLADIATOR",233,2016-06-02,1560.39565217391
"FPWW0120278",4,16,4,"FOREL",230,2016-05-30,1515.49148550725
"FPWW0120279",4,16,5,"MANAGER",235,2016-06-04,1591.32065217391
"FPWW0120280",4,16,6,"CH CLARO",231,2016-05-31,1530.21648550725
"FPWW0120281",4,16,7,"CORDIALE",231,2016-05-31,1530.21648550725
"FPWW0120282",4,16,8,"CHARGER",231,2016-05-31,1530.21648550725
"FPWW0120283",4,16,9,"NADOBNA",230,2016-05-30,1515.49148550725
"FPWW0120284",4,16,10,"EUCLIDE",229,2016-05-29,1500.77898550725
"FPWW0120285",4,16,11,"FRIDOLIN",230,2016-05-30,1515.49148550725
"FPWW0120286",4,16,12,"KOSACK",238,2016-06-07,1644.86648550725
"FPWW0120287",4,16,13,"CATALAN",228,2016-05-28,1485.94148550725
"FPWW0120288",4,16,14,"PORTLAND",233,2016-06-02,1560.39565217391
"FPWW0120289",4,16,15,"MARIN",229,2016-05-29,1500.77898550725
"FPWW0120290",4,16,16,"LARS",234,2016-06-03,1575.79148550725
"FPWW0120291",4,16,17,"MUZA",231,2016-05-31,1530.21648550725
"FPWW0120292",4,16,18,"TROCADERO",226,2016-05-26,1447.66648550725
"FPWW0120293",4,16,19,"EQUILIBRE",229,2016-05-29,1500.77898550725
"FPWW0120294",4,16,20,"VANEK",227,2016-05-27,1467.69565217391
"FPWW0120295",4,16,21,"HYPERION",235,2016-06-04,1591.32065217391
"FPWW0120296",4,17,21,"FLORETT",231,2016-05-31,1530.21648550725
"FPWW0120297",4,17,20,"LINDOS",231,2016-05-31,1530.21648550725
"FPWW0120298",4,17,19,"CH CLARO",229,2016-05-29,1500.77898550725
"FPWW0120299",4,17,18,"STRIKER",234,2016-06-03,1575.79148550725
"FPWW0120300",4,17,17,"HANSEAT",234,2016-06-03,1575.79148550725
"FPWW0120301",4,17,16,"MALACCA",233,2016-06-02,1560.39565217391
"FPWW0120302",4,17,15,"SIMANO",228,2016-05-28,1485.94148550725
"FPWW0120303",4,17,14,"GREIF",233,2016-06-02,1560.39565217391
"FPWW0120304",4,17,13,"AVANTAGE",232,2016-06-01,1545.24981884058
"FPWW0120305",4,17,12,"TABASCO",236,2016-06-05,1607.38731884058
"FPWW0120306",4,17,11,"RICHEPAIN",227,2016-05-27,1467.69565217391
"FPWW0120307",4,17,10,"SAVANNAH",234,2016-06-03,1575.79148550725
"FPWW0120308",4,17,9,"WELFORD",234,2016-06-03,1575.79148550725
"FPWW0120309",4,17,8,"BANQUET",230,2016-05-30,1515.49148550725
"FPWW0120310",4,17,7,"TRINTELLA",237,2016-06-06,1625.94981884058
"FPWW0120311",4,17,6,"SOPHYTRA",235,2016-06-04,1591.32065217391
"FPWW0120312",4,17,5,"KOBRA PLUS",231,2016-05-31,1530.21648550725
"FPWW0120313",4,17,4,"HEROLDO",237,2016-06-06,1625.94981884058
"FPWW0120314",4,17,3,"TORKIL",238,2016-06-07,1644.86648550725
"FPWW0120315",4,17,2,"OCTET",230,2016-05-30,1515.49148550725
"FPWW0120316",4,18,2,"ELEMENT",230,2016-05-30,1515.49148550725
"FPWW0120317",4,18,3,"FIGURA",231,2016-05-31,1530.21648550725
"FPWW0120318",4,18,4,"SW GNEJS",233,2016-06-02,1560.39565217391
"FPWW0120319",4,18,5,"SW SKOTTE",237,2016-06-06,1625.94981884058
"FPWW0120320",4,18,6,"FORBAN",233,2016-06-02,1560.39565217391
"FPWW0120321",4,18,7,"VISCOUNT CPBT W 136",236,2016-06-05,1607.38731884058
"FPWW0120322",4,18,8,"ROYSSAC",228,2016-05-28,1485.94148550725
"FPWW0120323",4,18,9,"DUXFORD",233,2016-06-02,1560.39565217391
"FPWW0120324",4,18,10,"KOBIERA",233,2016-06-02,1560.39565217391
"FPWW0120325",4,18,11,"AKTEUR",235,2016-06-04,1591.32065217391
"FPWW0120326",4,18,12,"OLIVIN",237,2016-06-06,1625.94981884058
"FPWW0120327",4,18,13,"LOCH 3754 ADLON",235,2016-06-04,1591.32065217391
"FPWW0120328",4,18,14,"CH CLARO",229,2016-05-29,1500.77898550725
"FPWW0120329",4,18,15,"CARDOS",231,2016-05-31,1530.21648550725
"FPWW0120330",4,18,16,"SEMAFOR",229,2016-05-29,1500.77898550725
"FPWW0120331",4,18,17,"RETRO",235,2016-06-04,1591.32065217391
"FPWW0120332",4,18,18,"IMPRESSION",232,2016-06-01,1545.24981884058
"FPWW0120333",4,18,19,"EUROJET",235,2016-06-04,1591.32065217391
"FPWW0120334",4,18,20,"CAESAR",232,2016-06-01,1545.24981884058
"FPWW0120335",4,18,21,"INSPIRATION",235,2016-06-04,1591.32065217391
"FPWW0120336",4,19,21,"PROBUS",235,2016-06-04,1591.32065217391
"FPWW0120337",4,19,20,"RAMIRO",228,2016-05-28,1485.94148550725
"FPWW0120338",4,19,19,"VELOCITY",233,2016-06-02,1560.39565217391
"FPWW0120339",4,19,18,"INTACT",233,2016-06-02,1560.39565217391
"FPWW0120340",4,19,17,"MACRO",231,2016-05-31,1530.21648550725
"FPWW0120341",4,19,16,"QUATUOR",230,2016-05-30,1515.49148550725
"FPWW0120342",4,19,15,"TIGER",231,2016-05-31,1530.21648550725
"FPWW0120343",4,19,14,"BAGATELLE 007",232,2016-06-01,1545.24981884058
"FPWW0120344",4,19,13,"KLEBER",234,2016-06-03,1575.79148550725
"FPWW0120345",4,19,12,"NIRVANA",230,2016-05-30,1515.49148550725
"FPWW0120346",4,19,11,"BRYZA",229,2016-05-29,1500.77898550725
"FPWW0120347",4,19,10,"ORZIVAL",231,2016-05-31,1530.21648550725
"FPWW0120348",4,19,9,"CH CLARO",230,2016-05-30,1515.49148550725
"FPWW0120349",4,19,8,"SW TATAROS",232,2016-06-01,1545.24981884058
"FPWW0120350",4,19,7,"CETUS",235,2016-06-04,1591.32065217391
"FPWW0120351",4,19,6,"MAGNUS",235,2016-06-04,1591.32065217391
"FPWW0120352",4,19,5,"NARIDANA",231,2016-05-31,1530.21648550725
"FPWW0120353",4,19,4,"TAIFUN",228,2016-05-28,1485.94148550725
"FPWW0120354",4,19,3,"EINSTEIN",233,2016-06-02,1560.39565217391
"FPWW0120355",4,19,2,"MARCHEVAL",230,2016-05-30,1515.49148550725
"FPWW0120356",3,2,4,"TRAVIX",234,2016-06-03,1575.79148550725
"FPWW0120357",3,2,5,"RETRO",236,2016-06-05,1607.38731884058
"FPWW0120358",3,2,6,"HAMAC",228,2016-05-28,1485.94148550725
"FPWW0120359",3,2,7,"WELFORD",235,2016-06-04,1591.32065217391
"FPWW0120360",3,2,8,"ELEMENT",228,2016-05-28,1485.94148550725
"FPWW0120361",3,2,9,"INNOV",228,2016-05-28,1485.94148550725
"FPWW0120362",3,2,10,"AUBUSSON",227,2016-05-27,1467.69565217391
"FPWW0120363",3,2,11,"PYTAGOR",229,2016-05-29,1500.77898550725
"FPWW0120364",3,2,12,"ZYTA",236,2016-06-05,1607.38731884058
"FPWW0120365",3,2,13,"ERIWAN",230,2016-05-30,1515.49148550725
"FPWW0120366",3,2,14,"AVANTAGE",231,2016-05-31,1530.21648550725
"FPWW0120367",3,2,15,"DEKAN",232,2016-06-01,1545.24981884058
"FPWW0120368",3,2,16,"KWS CHAMSIN LP 779.2.04",226,2016-05-26,1447.66648550725
"FPWW0120369",3,2,17,"ROYSSAC",227,2016-05-27,1467.69565217391
"FPWW0120370",3,2,18,"CORDIALE",229,2016-05-29,1500.77898550725
"FPWW0120371",3,2,19,"CH CLARO",228,2016-05-28,1485.94148550725
"FPWW0120372",3,2,20,"MUSKETEER",231,2016-05-31,1530.21648550725
"FPWW0120373",3,2,21,"SW HURTIG",234,2016-06-03,1575.79148550725
"FPWW0120374",3,2,22,"CLIFF",233,2016-06-02,1560.39565217391
"FPWW0120375",3,2,23,"MIRAGE",232,2016-06-01,1545.24981884058
"FPWW0120376",3,3,23,"VANILNOIR",230,2016-05-30,1515.49148550725
"FPWW0120377",3,3,22,"TABASCO",234,2016-06-03,1575.79148550725
"FPWW0120378",3,3,21,"KORWETA",235,2016-06-04,1591.32065217391
"FPWW0120379",3,3,20,"CARDOS",231,2016-05-31,1530.21648550725
"FPWW0120380",3,3,19,"PAMIER",231,2016-05-31,1530.21648550725
"FPWW0120381",3,3,18,"TRAPPE",229,2016-05-29,1500.77898550725
"FPWW0120382",3,3,17,"PROBUS",236,2016-06-05,1607.38731884058
"FPWW0120383",3,3,16,"SYMBOL",234,2016-06-03,1575.79148550725
"FPWW0120384",3,3,15,"FLAIR",233,2016-06-02,1560.39565217391
"FPWW0120385",3,3,14,"CH CLARO",228,2016-05-28,1485.94148550725
"FPWW0120386",3,3,13,"LORENZO",231,2016-05-31,1530.21648550725
"FPWW0120387",3,3,12,"CARENIUS",235,2016-06-04,1591.32065217391
"FPWW0120388",3,3,11,"RENAN",230,2016-05-30,1515.49148550725
"FPWW0120389",3,3,10,"VERSAILLES",233,2016-06-02,1560.39565217391
"FPWW0120390",3,3,9,"NARIDANA",232,2016-06-01,1545.24981884058
"FPWW0120391",3,3,8,"SOISSONS",228,2016-05-28,1485.94148550725
"FPWW0120392",3,3,7,"BILL",230,2016-05-30,1515.49148550725
"FPWW0120393",3,3,6,"CH CAMEDO",231,2016-05-31,1530.21648550725
"FPWW0120394",3,3,5,"EPIDOC",228,2016-05-28,1485.94148550725
"FPWW0120395",3,3,4,"BRANDO",233,2016-06-02,1560.39565217391
"FPWW0120396",3,4,4,"LINDOS",233,2016-06-02,1560.39565217391
"FPWW0120397",3,4,5,"ACIENDA",227,2016-05-27,1467.69565217391
"FPWW0120398",3,4,6,"VIVANT",235,2016-06-04,1591.32065217391
"FPWW0120399",3,4,7,"CALISTO",228,2016-05-28,1485.94148550725
"FPWW0120400",3,4,8,"KOSACK",238,2016-06-07,1644.86648550725
"FPWW0120401",3,4,9,"CH CLARO",229,2016-05-29,1500.77898550725
"FPWW0120402",3,4,10,"VISCOUNT CPBT W 136",235,2016-06-04,1591.32065217391
"FPWW0120403",3,4,11,"VITUS",234,2016-06-03,1575.79148550725
"FPWW0120404",3,4,12,"PORTLAND",233,2016-06-02,1560.39565217391
"FPWW0120405",3,4,13,"JULIUS",234,2016-06-03,1575.79148550725
"FPWW0120406",3,4,14,"HUMBER",230,2016-05-30,1515.49148550725
"FPWW0120407",3,4,15,"SEYRAC",233,2016-06-02,1560.39565217391
"FPWW0120408",3,4,16,"KLEBER",233,2016-06-02,1560.39565217391
"FPWW0120409",3,4,17,"GALAXIE",228,2016-05-28,1485.94148550725
"FPWW0120410",3,4,18,"IRIDIUM",229,2016-05-29,1500.77898550725
"FPWW0120411",3,4,19,"INSPIRATION",233,2016-06-02,1560.39565217391
"FPWW0120412",3,4,20,"VELOCITY",231,2016-05-31,1530.21648550725
"FPWW0120413",3,4,21,"BUSSARD",231,2016-05-31,1530.21648550725
"FPWW0120414",3,4,22,"QUEBON",229,2016-05-29,1500.77898550725
"FPWW0120415",3,4,23,"SCHAMANE",231,2016-05-31,1530.21648550725
"FPWW0120416",3,5,23,"GULLIVER",231,2016-05-31,1530.21648550725
"FPWW0120417",3,5,22,"CH CLARO",228,2016-05-28,1485.94148550725
"FPWW0120418",3,5,21,"JENGA",232,2016-06-01,1545.24981884058
"FPWW0120419",3,5,20,"TITLIS",232,2016-06-01,1545.24981884058
"FPWW0120420",3,5,19,"FASTNET",233,2016-06-02,1560.39565217391
"FPWW0120421",3,5,18,"GLOBUS",232,2016-06-01,1545.24981884058
"FPWW0120422",3,5,17,"VANEK",226,2016-05-26,1447.66648550725
"FPWW0120423",3,5,16,"DISCUS",233,2016-06-02,1560.39565217391
"FPWW0120424",3,5,15,"MARCHEVAL",228,2016-05-28,1485.94148550725
"FPWW0120425",3,5,14,"GARCIA",226,2016-05-26,1447.66648550725
"FPWW0120426",3,5,13,"HEROLDO",235,2016-06-04,1591.32065217391
"FPWW0120427",3,5,12,"AROBASE",228,2016-05-28,1485.94148550725
"FPWW0120428",3,5,11,"ZOBEL",236,2016-06-05,1607.38731884058
"FPWW0120429",3,5,10,"LUCIUS",234,2016-06-03,1575.79148550725
"FPWW0120430",3,5,9,"CPBT W130",234,2016-06-03,1575.79148550725
"FPWW0120431",3,5,8,"MALACCA",233,2016-06-02,1560.39565217391
"FPWW0120432",3,5,7,"RAISON",233,2016-06-02,1560.39565217391
"FPWW0120433",3,5,6,"TROCADERO",226,2016-05-26,1447.66648550725
"FPWW0120434",3,5,5,"COMPLIMENT",234,2016-06-03,1575.79148550725
"FPWW0120435",3,5,4,"CH CLARO",228,2016-05-28,1485.94148550725
"FPWW0120436",3,6,4,"TRINTELLA",235,2016-06-04,1591.32065217391
"FPWW0120437",3,6,5,"CONTUR",236,2016-06-05,1607.38731884058
"FPWW0120438",3,6,6,"ROMANUS",234,2016-06-03,1575.79148550725
"FPWW0120439",3,6,7,"PAROLI",234,2016-06-03,1575.79148550725
"FPWW0120440",3,6,8,"DUXFORD",233,2016-06-02,1560.39565217391
"FPWW0120441",3,6,9,"MILVUS",233,2016-06-02,1560.39565217391
"FPWW0120442",3,6,10,"FORMAT",236,2016-06-05,1607.38731884058
"FPWW0120443",3,6,11,"INTERET",233,2016-06-02,1560.39565217391
"FPWW0120444",3,6,12,"TOISONDOR",232,2016-06-01,1545.24981884058
"FPWW0120445",3,6,13,"METEOR",233,2016-06-02,1560.39565217391
"FPWW0120446",3,6,14,"ATTLASS",232,2016-06-01,1545.24981884058
"FPWW0120447",3,6,15,"BATIS",231,2016-05-31,1530.21648550725
"FPWW0120448",3,6,16,"OSTKA STRZELECKA",234,2016-06-03,1575.79148550725
"FPWW0120449",3,6,17,"CH CLARO",228,2016-05-28,1485.94148550725
"FPWW0120450",3,6,18,"STRIKER",233,2016-06-02,1560.39565217391
"FPWW0120451",3,6,19,"PROFILUS",231,2016-05-31,1530.21648550725
"FPWW0120452",3,6,20,"KWS SCIROCCO LP 509.3.04",227,2016-05-27,1467.69565217391
"FPWW0120453",3,6,21,"KOBIERA",232,2016-06-01,1545.24981884058
"FPWW0120454",3,6,22,"PETRUS",232,2016-06-01,1545.24981884058
"FPWW0120455",3,6,23,"CRAKLIN",226,2016-05-26,1447.66648550725
"FPWW0120456",3,7,23,"MARKIZA",231,2016-05-31,1530.21648550725
"FPWW0120457",3,7,22,"ACHAT",234,2016-06-03,1575.79148550725
"FPWW0120458",3,7,21,"BAGATELLE 007",230,2016-05-30,1515.49148550725
"FPWW0120459",3,7,20,"FRIDOLIN",229,2016-05-29,1500.77898550725
"FPWW0120460",3,7,19,"LIMERICK",231,2016-05-31,1530.21648550725
"FPWW0120461",3,7,18,"JB ASANO",231,2016-05-31,1530.21648550725
"FPWW0120462",3,7,17,"SKATER",232,2016-06-01,1545.24981884058
"FPWW0120463",3,7,16,"DEBEN",233,2016-06-02,1560.39565217391
"FPWW0120464",3,7,15,"KOCH",233,2016-06-02,1560.39565217391
"FPWW0120465",3,7,14,"GLADIATOR",231,2016-05-31,1530.21648550725
"FPWW0120466",3,7,13,"BRILLIANT",231,2016-05-31,1530.21648550725
"FPWW0120467",3,7,12,"CH CLARO",229,2016-05-29,1500.77898550725
"FPWW0120468",3,7,11,"ZINAL",228,2016-05-28,1485.94148550725
"FPWW0120469",3,7,10,"DRIFTER",235,2016-06-04,1591.32065217391
"FPWW0120470",3,7,9,"ESKET",235,2016-06-04,1591.32065217391
"FPWW0120471",3,7,8,"KOBRA PLUS",230,2016-05-30,1515.49148550725
"FPWW0120472",3,7,7,"BALTIMOR",233,2016-06-02,1560.39565217391
"FPWW0120473",3,7,6,"ESTICA",236,2016-06-05,1607.38731884058
"FPWW0120474",3,7,5,"LUDWIG",230,2016-05-30,1515.49148550725
"FPWW0120475",3,7,4,"ARINA",231,2016-05-31,1530.21648550725
"FPWW0120476",3,8,4,"FOREL",229,2016-05-29,1500.77898550725
"FPWW0120477",3,8,5,"MAGNO",228,2016-05-28,1485.94148550725
"FPWW0120478",3,8,6,"NIRVANA",229,2016-05-29,1500.77898550725
"FPWW0120479",3,8,7,"CH CLARO",229,2016-05-29,1500.77898550725
"FPWW0120480",3,8,8,"GLASGOW",230,2016-05-30,1515.49148550725
"FPWW0120481",3,8,9,"SEMAFOR",229,2016-05-29,1500.77898550725
"FPWW0120482",3,8,10,"OAKLEY",234,2016-06-03,1575.79148550725
"FPWW0120483",3,8,11,"CAPO",230,2016-05-30,1515.49148550725
"FPWW0120484",3,8,12,"TAIFUN",227,2016-05-27,1467.69565217391
"FPWW0120485",3,8,13,"AUTAN",227,2016-05-27,1467.69565217391
"FPWW0120486",3,8,14,"ALLISTER",228,2016-05-28,1485.94148550725
"FPWW0120487",3,8,15,"ALCHEMY",236,2016-06-05,1607.38731884058
"FPWW0120488",3,8,16,"HISTORY",235,2016-06-04,1591.32065217391
"FPWW0120489",3,8,17,"URBAN",235,2016-06-04,1591.32065217391
"FPWW0120490",3,8,18,"MACRO",229,2016-05-29,1500.77898550725
"FPWW0120491",3,8,19,"APACHE",228,2016-05-28,1485.94148550725
"FPWW0120492",3,8,20,"ARACK",229,2016-05-29,1500.77898550725
"FPWW0120493",3,8,21,"NUTKA",233,2016-06-02,1560.39565217391
"FPWW0120494",3,8,22,"EUROJET",234,2016-06-03,1575.79148550725
"FPWW0120495",3,8,23,"TORKIL",233,2016-06-02,1560.39565217391
"FPWW0120496",3,9,23,"OLIVIN",236,2016-06-05,1607.38731884058
"FPWW0120497",3,9,22,"SANKARA",231,2016-05-31,1530.21648550725
"FPWW0120498",3,9,21,"LONA",226,2016-05-26,1447.66648550725
"FPWW0120499",3,9,20,"CH CLARO",228,2016-05-28,1485.94148550725
"FPWW0120500",3,9,19,"MERCATO",228,2016-05-28,1485.94148550725
"FPWW0120501",3,9,18,"SOLITAR",236,2016-06-05,1607.38731884058
"FPWW0120502",3,9,17,"ORZIVAL",230,2016-05-30,1515.49148550725
"FPWW0120503",3,9,16,"BANQUET",228,2016-05-28,1485.94148550725
"FPWW0120504",3,9,15,"APOLLO",230,2016-05-30,1515.49148550725
"FPWW0120505",3,9,14,"TANELIN",230,2016-05-30,1515.49148550725
"FPWW0120506",3,9,13,"HAUSSMANN",231,2016-05-31,1530.21648550725
"FPWW0120507",3,9,12,"OCTET",228,2016-05-28,1485.94148550725
"FPWW0120508",3,9,11,"MANDUB",236,2016-06-05,1607.38731884058
"FPWW0120509",3,9,10,"SW SKOTTE",235,2016-06-04,1591.32065217391
"FPWW0120510",3,9,9,"EQUILIBRE",229,2016-05-29,1500.77898550725
"FPWW0120511",3,9,8,"LEVIS",230,2016-05-30,1515.49148550725
"FPWW0120512",3,9,7,"AMBROSIA",233,2016-06-02,1560.39565217391
"FPWW0120513",3,9,6,"SLEJPNER",235,2016-06-04,1591.32065217391
"FPWW0120514",3,9,5,"SOPHYTRA",233,2016-06-02,1560.39565217391
"FPWW0120515",3,9,4,"ASTRADO",231,2016-05-31,1530.21648550725
"FPWW0120516",3,10,4,"ZANATAN",234,2016-06-03,1575.79148550725
"FPWW0120517",3,10,5,"MUZA",230,2016-05-30,1515.49148550725
"FPWW0120518",3,10,6,"MONSUN",228,2016-05-28,1485.94148550725
"FPWW0120519",3,10,7,"SENAT",234,2016-06-03,1575.79148550725
"FPWW0120520",3,10,8,"IMPRESSION",232,2016-06-01,1545.24981884058
"FPWW0120521",3,10,9,"SW TATAROS",231,2016-05-31,1530.21648550725
"FPWW0120522",3,10,10,"AGUILA",227,2016-05-27,1467.69565217391
"FPWW0120523",3,10,11,"SW TOPPER",231,2016-05-31,1530.21648550725
"FPWW0120524",3,10,12,"TORONTO",229,2016-05-29,1500.77898550725
"FPWW0120525",3,10,13,"HOURRA",228,2016-05-28,1485.94148550725
"FPWW0120526",3,10,14,"SW GNEJS",230,2016-05-30,1515.49148550725
"FPWW0120527",3,10,15,"CH CLARO",228,2016-05-28,1485.94148550725
"FPWW0120528",3,10,16,"CAPHORN",229,2016-05-29,1500.77898550725
"FPWW0120529",3,10,17,"BERMUDE",230,2016-05-30,1515.49148550725
"FPWW0120530",3,10,18,"FORBAN",231,2016-05-31,1530.21648550725
"FPWW0120531",3,10,19,"RICHEPAIN",227,2016-05-27,1467.69565217391
"FPWW0120532",3,10,20,"MANAGER",231,2016-05-31,1530.21648550725
"FPWW0120533",3,10,21,"INSTINCT",228,2016-05-28,1485.94148550725
"FPWW0120534",3,10,22,"P05312",226,2016-05-26,1447.66648550725
"FPWW0120535",3,10,23,"TIGER",229,2016-05-29,1500.77898550725
"FPWW0120536",3,11,23,"POTENZIAL",231,2016-05-31,1530.21648550725
"FPWW0120537",3,11,22,"HEREFORD",233,2016-06-02,1560.39565217391
"FPWW0120538",3,11,21,"JAFET",234,2016-06-03,1575.79148550725
"FPWW0120539",3,11,20,"PR22R20",231,2016-05-31,1530.21648550725
"FPWW0120540",3,11,19,"INTACT",232,2016-06-01,1545.24981884058
"FPWW0120541",3,11,18,"FORNO",230,2016-05-30,1515.49148550725
"FPWW0120542",3,11,17,"MARIN",228,2016-05-28,1485.94148550725
"FPWW0120543",3,11,16,"PAPAGENO",231,2016-05-31,1530.21648550725
"FPWW0120544",3,11,15,"ISTABRAQ",231,2016-05-31,1530.21648550725
"FPWW0120545",3,11,14,"TAMARO",231,2016-05-31,1530.21648550725
"FPWW0120546",3,11,13,"GREIF",232,2016-06-01,1545.24981884058
"FPWW0120547",3,11,12,"CHARGER",231,2016-05-31,1530.21648550725
"FPWW0120548",3,11,11,"LYNX",235,2016-06-04,1591.32065217391
"FPWW0120549",3,11,10,"CH CLARO",229,2016-05-29,1500.77898550725
"FPWW0120550",3,11,9,"MARKSMAN",230,2016-05-30,1515.49148550725
"FPWW0120551",3,11,8,"GATSBY",236,2016-06-05,1607.38731884058
"FPWW0120552",3,11,7,"AKTEUR",237,2016-06-06,1625.94981884058
"FPWW0120553",3,11,6,"JAZZI",226,2016-05-26,1447.66648550725
"FPWW0120554",3,11,5,"FLORETT",230,2016-05-30,1515.49148550725
"FPWW0120555",3,11,4,"CAPNOR",231,2016-05-31,1530.21648550725
"FPWW0120556",3,12,4,"IZYDA",230,2016-05-30,1515.49148550725
"FPWW0120557",3,12,5,"CH CLARO",229,2016-05-29,1500.77898550725
"FPWW0120558",3,12,6,"HANSEAT",231,2016-05-31,1530.21648550725
"FPWW0120559",3,12,7,"CETUS",233,2016-06-02,1560.39565217391
"FPWW0120560",3,12,8,"RUNAL",229,2016-05-29,1500.77898550725
"FPWW0120561",3,12,9,"FIGURA",230,2016-05-30,1515.49148550725
"FPWW0120562",3,12,10,"HYPERION",233,2016-06-02,1560.39565217391
"FPWW0120563",3,12,11,"ORNICAR",229,2016-05-29,1500.77898550725
"FPWW0120564",3,12,12,"AZIMUT",226,2016-05-26,1447.66648550725
"FPWW0120565",3,12,13,"MEUNIER",230,2016-05-30,1515.49148550725
"FPWW0120566",3,12,14,"CORSAIRE",231,2016-05-31,1530.21648550725
"FPWW0120567",3,12,15,"CATALAN",228,2016-05-28,1485.94148550725
"FPWW0120568",3,12,16,"CONSORT",236,2016-06-05,1607.38731884058
"FPWW0120569",3,12,17,"LOCH 3754 ADLON",234,2016-06-03,1575.79148550725
"FPWW0120570",3,12,18,"H05606",226,2016-05-26,1447.66648550725
"FPWW0120571",3,12,19,"TRANSIT",232,2016-06-01,1545.24981884058
"FPWW0120572",3,12,20,"ALTIGO",227,2016-05-27,1467.69565217391
"FPWW0120573",3,12,21,"INCISIF",231,2016-05-31,1530.21648550725
"FPWW0120574",3,12,22,"SAVANNAH",233,2016-06-02,1560.39565217391
"FPWW0120575",3,12,23,"CH CLARO",229,2016-05-29,1500.77898550725
"FPWW0120576",3,13,23,"MAGNUS",232,2016-06-01,1545.24981884058
"FPWW0120577",3,13,22,"CH CLARO",229,2016-05-29,1500.77898550725
"FPWW0120578",3,13,21,"TULSA",235,2016-06-04,1591.32065217391
"FPWW0120579",3,13,20,"PHILIUS",231,2016-05-31,1530.21648550725
"FPWW0120580",3,13,19,"SIMANO",228,2016-05-28,1485.94148550725
"FPWW0120581",3,13,18,"CH CLARO",229,2016-05-29,1500.77898550725
"FPWW0120582",3,13,17,"MAXYL",233,2016-06-02,1560.39565217391
"FPWW0120583",3,13,16,"HANSWIN",229,2016-05-29,1500.77898550725
"FPWW0120584",3,13,15,"CAESAR",232,2016-06-01,1545.24981884058
"FPWW0120585",3,13,14,"CHAUMONT",226,2016-05-26,1447.66648550725
"FPWW0120586",3,13,13,"SAMURAI",235,2016-06-04,1591.32065217391
"FPWW0120587",3,13,12,"CUBUS",233,2016-06-02,1560.39565217391
"FPWW0120588",3,13,11,"LEGENDA",234,2016-06-03,1575.79148550725
"FPWW0120589",3,13,10,"BRYZA",228,2016-05-28,1485.94148550725
"FPWW0120590",3,13,9,"MARSHAL",237,2016-06-06,1625.94981884058
"FPWW0120591",3,13,8,"BISCAY",236,2016-06-05,1607.38731884058
"FPWW0120592",3,13,7,"H03309",227,2016-05-27,1467.69565217391
"FPWW0120593",3,13,6,"KWS AURUM LP 819.4.04",228,2016-05-28,1485.94148550725
"FPWW0120594",3,13,5,"SW HARNESK",237,2016-06-06,1625.94981884058
"FPWW0120595",3,13,4,"LARS",233,2016-06-02,1560.39565217391
"FPWW0120596",3,14,4,"ZENITH",233,2016-06-02,1560.39565217391
"FPWW0120597",3,14,5,"RUBENS",229,2016-05-29,1500.77898550725
"FPWW0120598",3,14,6,"ELLVIS",234,2016-06-03,1575.79148550725
"FPWW0120599",3,14,7,"PULSAR",231,2016-05-31,1530.21648550725
"FPWW0120600",3,14,8,"CH COMBIN",229,2016-05-29,1500.77898550725
"FPWW0120601",3,14,9,"TUKAN",231,2016-05-31,1530.21648550725
"FPWW0120602",3,14,10,"BUENO",228,2016-05-28,1485.94148550725
"FPWW0120603",3,14,11,"ANTHUS",234,2016-06-03,1575.79148550725
"FPWW0120604",3,14,12,"SURETTA",229,2016-05-29,1500.77898550725
"FPWW0120605",3,14,13,"CH CLARO",228,2016-05-28,1485.94148550725
"FPWW0120606",3,14,14,"WINNETOU",235,2016-06-04,1591.32065217391
"FPWW0120607",3,14,15,"MONOPOL",234,2016-06-03,1575.79148550725
"FPWW0120608",3,14,16,"CENTRUM",234,2016-06-03,1575.79148550725
"FPWW0120609",3,14,17,"MENDEL",228,2016-05-28,1485.94148550725
"FPWW0120610",3,14,18,"H04438",230,2016-05-30,1515.49148550725
"FPWW0120611",3,14,19,"CASSIOPEIA",236,2016-06-05,1607.38731884058
"FPWW0120612",3,14,20,"SW HARPUN",234,2016-06-03,1575.79148550725
"FPWW0120613",3,14,21,"CAMBRENA",230,2016-05-30,1515.49148550725
"FPWW0120614",3,14,22,"ARES",231,2016-05-31,1530.21648550725
"FPWW0120615",3,14,23,"ELEGANT",233,2016-06-02,1560.39565217391
"FPWW0120616",3,15,23,"MONTY",231,2016-05-31,1530.21648550725
"FPWW0120617",3,15,22,"INTENSE",229,2016-05-29,1500.77898550725
"FPWW0120618",3,15,21,"SOBI",233,2016-06-02,1560.39565217391
"FPWW0120619",3,15,20,"PALADAIN",229,2016-05-29,1500.77898550725
"FPWW0120620",3,15,19,"NADOBNA",229,2016-05-29,1500.77898550725
"FPWW0120621",3,15,18,"MASCOT",229,2016-05-29,1500.77898550725
"FPWW0120622",3,15,17,"H05581A",229,2016-05-29,1500.77898550725
"FPWW0120623",3,15,16,"RAMIRO",228,2016-05-28,1485.94148550725
"FPWW0120624",3,15,15,"PRIVILEG",234,2016-06-03,1575.79148550725
"FPWW0120625",3,15,14,"CCB PREFERENCE",229,2016-05-29,1500.77898550725
"FPWW0120626",3,15,13,"SOKRATES",233,2016-06-02,1560.39565217391
"FPWW0120627",3,15,12,"XENOS",229,2016-05-29,1500.77898550725
"FPWW0120628",3,15,11,"ORVANTIS",229,2016-05-29,1500.77898550725
"FPWW0120629",3,15,10,"FOLIO",231,2016-05-31,1530.21648550725
"FPWW0120630",3,15,9,"BOGATKA",230,2016-05-30,1515.49148550725
"FPWW0120631",3,15,8,"CH CLARO",229,2016-05-29,1500.77898550725
"FPWW0120632",3,15,7,"BOOMER",234,2016-06-03,1575.79148550725
"FPWW0120633",3,15,6,"PARADOR",233,2016-06-02,1560.39565217391
"FPWW0120634",3,15,5,"SATYNA",230,2016-05-30,1515.49148550725
"FPWW0120635",3,16,5,"WYDMA",233,2016-06-02,1560.39565217391
"FPWW0120636",3,16,6,"BASTIDE",227,2016-05-27,1467.69565217391
"FPWW0120637",3,16,7,"PR22R58",226,2016-05-26,1447.66648550725
"FPWW0120638",3,16,8,"EXSEPT",235,2016-06-04,1591.32065217391
"FPWW0120639",3,16,9,"BROMPTON",234,2016-06-03,1575.79148550725
"FPWW0120640",3,16,10,"ZENTOS",236,2016-06-05,1607.38731884058
"FPWW0120641",3,16,11,"TORAS",235,2016-06-04,1591.32065217391
"FPWW0120642",3,16,12,"ACTROS",236,2016-06-05,1607.38731884058
"FPWW0120643",3,16,13,"EQUINOX",234,2016-06-03,1575.79148550725
"FPWW0120644",3,16,14,"FREGATA",237,2016-06-06,1625.94981884058
"FPWW0120645",3,16,15,"TAMBOR",233,2016-06-02,1560.39565217391
"FPWW0120646",3,16,16,"ATLANTIS",234,2016-06-03,1575.79148550725
"FPWW0120647",3,16,17,"SKAGEN",236,2016-06-05,1607.38731884058
"FPWW0120648",3,16,18,"HERMANN",235,2016-06-04,1591.32065217391
"FPWW0120649",3,16,19,"SEMPER",230,2016-05-30,1515.49148550725
"FPWW0120650",3,16,20,"CARIBOU",230,2016-05-30,1515.49148550725
"FPWW0120651",3,16,21,"CH CLARO",228,2016-05-28,1485.94148550725
"FPWW0120652",3,16,22,"AUDI",233,2016-06-02,1560.39565217391
"FPWW0120653",3,16,23,"GRISBY",233,2016-06-02,1560.39565217391
"FPWW0120654",3,17,23,"ALDRIC",228,2016-05-28,1485.94148550725
"FPWW0120655",3,17,22,"RECITAL",226,2016-05-26,1447.66648550725
"FPWW0120656",3,17,21,"CEZANNE",226,2016-05-26,1447.66648550725
"FPWW0120657",3,17,20,"MULAN",231,2016-05-31,1530.21648550725
"FPWW0120658",3,17,19,"TUAREG",233,2016-06-02,1560.39565217391
"FPWW0120659",3,17,18,"LEIFFER",233,2016-06-02,1560.39565217391
"FPWW0120660",3,17,17,"BORNEO",233,2016-06-02,1560.39565217391
"FPWW0120661",3,17,16,"CH CLARO",229,2016-05-29,1500.77898550725
"FPWW0120662",3,17,15,"NATURASTAR",234,2016-06-03,1575.79148550725
"FPWW0120663",3,17,14,"CAMPERO",229,2016-05-29,1500.77898550725
"FPWW0120664",3,17,13,"EXPERT",233,2016-06-02,1560.39565217391
"FPWW0120665",3,17,12,"BUTEO",233,2016-06-02,1560.39565217391
"FPWW0120666",3,17,11,"SKALMEJE",233,2016-06-02,1560.39565217391
"FPWW0120667",3,17,10,"ZAWISZA",234,2016-06-03,1575.79148550725
"FPWW0120668",3,17,9,"CERTO",234,2016-06-03,1575.79148550725
"FPWW0120669",3,17,8,"BATUTA",231,2016-05-31,1530.21648550725
"FPWW0120670",3,17,7,"NATEJA",234,2016-06-03,1575.79148550725
"FPWW0120671",3,17,6,"ORESTIS",234,2016-06-03,1575.79148550725
"FPWW0120672",3,17,5,"PR 22 R 28",232,2016-06-01,1545.24981884058
"FPWW0120673",3,18,5,"EINSTEIN",231,2016-05-31,1530.21648550725
"FPWW0120674",3,18,6,"MAGISTER",234,2016-06-03,1575.79148550725
"FPWW0120675",3,18,7,"CCB INGENIO",226,2016-05-26,1447.66648550725
"FPWW0120676",3,18,8,"BALANCE",232,2016-06-01,1545.24981884058
"FPWW0120677",3,18,9,"EUCLIDE",229,2016-05-29,1500.77898550725
"FPWW0120678",3,18,10,"QUATUOR",229,2016-05-29,1500.77898550725
"FPWW0120679",3,18,11,"CH CLARO",229,2016-05-29,1500.77898550725
"FPWW0120680",3,18,12,"FEDOR",234,2016-06-03,1575.79148550725
"FPWW0120681",3,18,13,"FINEZJA",233,2016-06-02,1560.39565217391
"FPWW0120682",3,18,14,"KANZLER",234,2016-06-03,1575.79148550725
"FPWW0120683",3,18,15,"RYWALKA",236,2016-06-05,1607.38731884058
"FPWW0120684",3,18,16,"SMUGA",229,2016-05-29,1500.77898550725
"FPWW0120685",3,18,17,"CONTRA",232,2016-06-01,1545.24981884058
"FPWW0120686",3,18,18,"ORATORIO",228,2016-05-28,1485.94148550725
"FPWW0120687",3,18,19,"IBIS",231,2016-05-31,1530.21648550725
"FPWW0120688",3,18,20,"EXOTIC",226,2016-05-26,1447.66648550725
"FPWW0120689",3,18,21,"ROBIGUS",234,2016-06-03,1575.79148550725
"FPWW0120690",3,18,22,"MEWA",230,2016-05-30,1515.49148550725
"FPWW0120691",3,18,23,"SMUGGLER",233,2016-06-02,1560.39565217391
"FPWW0120692",3,19,23,"DINOSOR",230,2016-05-30,1515.49148550725
"FPWW0120693",3,19,22,"SPERBER",230,2016-05-30,1515.49148550725
"FPWW0120694",3,19,21,"ZEBEDEE",231,2016-05-31,1530.21648550725
"FPWW0120695",3,19,20,"MIKON",232,2016-06-01,1545.24981884058
"FPWW0120696",3,19,19,"ISENGRAIN",228,2016-05-28,1485.94148550725
"FPWW0120697",3,19,18,"ENORM",233,2016-06-02,1560.39565217391
"FPWW0120698",3,19,17,"APERITIV",230,2016-05-30,1515.49148550725
"FPWW0120699",3,19,16,"RAINER",230,2016-05-30,1515.49148550725
"FPWW0120700",3,19,15,"HALDOR",236,2016-06-05,1607.38731884058
"FPWW0120701",3,19,14,"TOWER",234,2016-06-03,1575.79148550725
"FPWW0120702",3,19,13,"HUSSAR",234,2016-06-03,1575.79148550725
"FPWW0120703",3,19,12,"PRINZ",236,2016-06-05,1607.38731884058
"FPWW0120704",3,19,11,"ORDEAL",235,2016-06-04,1591.32065217391
"FPWW0120705",3,19,10,"AZZURO",231,2016-05-31,1530.21648550725
"FPWW0120706",3,19,9,"TONACJA",236,2016-06-05,1607.38731884058
"FPWW0120707",3,19,8,"INOUI",228,2016-05-28,1485.94148550725
"FPWW0120708",3,19,7,"SISLEY",229,2016-05-29,1500.77898550725
"FPWW0120709",3,19,6,"CH CLARO",229,2016-05-29,1500.77898550725
"FPWW0120710",3,19,5,"INEDIT",230,2016-05-30,1515.49148550725
