plot.UID,timestamp,value,corrected_value,spatial_trend,spatial_residual,value_json,responsible,measurement_id,trait.id,trait.label,trait.name,trait.si_unit,method.id,method.name
FPWW0280036,20190412T1300+0100,784.0,806.242762618141,637.056883874108,84.5929393720163,NA,NA,11378,45,PltBBCH30,Beginning stem elongation,deg C d,376,QMER method based on P-splines to determine timing of key stages and quantities at defined time points
FPWW0280013,20190412T1300+0100,784.0,746.493998760408,783.832600691149,-18.6693009653707,NA,NA,11378,45,PltBBCH30,Beginning stem elongation,deg C d,376,QMER method based on P-splines to determine timing of key stages and quantities at defined time points
FPWW0280041,20190412T1300+0100,784.0,745.170822963539,765.899404848803,-10.364290942632,NA,NA,11378,45,PltBBCH30,Beginning stem elongation,deg C d,376,QMER method based on P-splines to determine timing of key stages and quantities at defined time points
FPWW0280049,20190412T0100+0100,784.0,835.783243893034,688.712223691942,73.5355101005461,NA,NA,11378,45,PltBBCH30,Beginning stem elongation,deg C d,376,QMER method based on P-splines to determine timing of key stages and quantities at defined time points
FPWW0280003,20190403T1300+0100,728.0,589.801146794338,800.786824371198,-105.49283878843,NA,NA,11378,45,PltBBCH30,Beginning stem elongation,deg C d,376,QMER method based on P-splines to determine timing of key stages and quantities at defined time points
FPWW0280050,20190403T0100+0100,728.0,701.566377007834,732.132783479426,-15.2832032357959,NA,NA,11378,45,PltBBCH30,Beginning stem elongation,deg C d,376,QMER method based on P-splines to determine timing of key stages and quantities at defined time points
FPWW0280024,20190403T0100+0100,728.0,714.646855425615,702.830674482122,5.90809047174636,NA,NA,11378,45,PltBBCH30,Beginning stem elongation,deg C d,376,QMER method based on P-splines to determine timing of key stages and quantities at defined time points
FPWW0280039,20190404T0100+0100,732.0,693.032923161447,691.00909379079,1.01191468532863,NA,NA,11378,45,PltBBCH30,Beginning stem elongation,deg C d,376,QMER method based on P-splines to determine timing of key stages and quantities at defined time points
FPWW0280018,20190404T0100+0100,732.0,719.391591788534,722.269902519346,-1.43915536540617,NA,NA,11378,45,PltBBCH30,Beginning stem elongation,deg C d,376,QMER method based on P-splines to determine timing of key stages and quantities at defined time points
FPWW0280017,20190404T1300+0100,732.0,749.06708129741,737.850763321559,5.60815898792567,NA,NA,11378,45,PltBBCH30,Beginning stem elongation,deg C d,376,QMER method based on P-splines to determine timing of key stages and quantities at defined time points
FPWW0280043,20190404T1300+0100,732.0,720.583096201605,663.179445897655,28.7018251519752,NA,NA,11378,45,PltBBCH30,Beginning stem elongation,deg C d,376,QMER method based on P-splines to determine timing of key stages and quantities at defined time points
FPWW0280005,20190404T0100+0100,732.0,734.336115360988,661.119668661072,36.6082233499582,NA,NA,11378,45,PltBBCH30,Beginning stem elongation,deg C d,376,QMER method based on P-splines to determine timing of key stages and quantities at defined time points
FPWW0280044,20190402T1300+0100,716.0,675.245716741694,716.143009024695,-20.4486461415005,NA,NA,11378,45,PltBBCH30,Beginning stem elongation,deg C d,376,QMER method based on P-splines to determine timing of key stages and quantities at defined time points
FPWW0280015,20190402T0100+0100,716.0,723.33517559735,681.234539563552,21.0503180168994,NA,NA,11378,45,PltBBCH30,Beginning stem elongation,deg C d,376,QMER method based on P-splines to determine timing of key stages and quantities at defined time points
FPWW0280022,20190402T1300+0100,716.0,744.798044479736,660.132298478555,42.3328730005909,NA,NA,11378,45,PltBBCH30,Beginning stem elongation,deg C d,376,QMER method based on P-splines to determine timing of key stages and quantities at defined time points
FPWW0280008,20190402T0100+0100,716.0,695.036113365571,686.840397945334,4.09785771011854,NA,NA,11378,45,PltBBCH30,Beginning stem elongation,deg C d,376,QMER method based on P-splines to determine timing of key stages and quantities at defined time points
FPWW0280027,20190328T1300+0100,668.0,574.312073839133,737.753326920553,-81.72062654071,NA,NA,11378,45,PltBBCH30,Beginning stem elongation,deg C d,376,QMER method based on P-splines to determine timing of key stages and quantities at defined time points
FPWW0280034,20190411T1300+0100,778.0,771.179056975652,696.679617578794,37.2497196984289,NA,NA,11378,45,PltBBCH30,Beginning stem elongation,deg C d,376,QMER method based on P-splines to determine timing of key stages and quantities at defined time points
FPWW0280035,20190411T0100+0100,778.0,748.055204268941,684.621764586967,31.7167198409868,NA,NA,11378,45,PltBBCH30,Beginning stem elongation,deg C d,376,QMER method based on P-splines to determine timing of key stages and quantities at defined time points
FPWW0280020,20190329T0100+0100,676.0,623.702174681407,767.086542799268,-71.6921840589304,NA,NA,11378,45,PltBBCH30,Beginning stem elongation,deg C d,376,QMER method based on P-splines to determine timing of key stages and quantities at defined time points
FPWW0280023,20190329T1300+0100,676.0,641.882934262347,682.481019345757,-20.2990425417049,NA,NA,11378,45,PltBBCH30,Beginning stem elongation,deg C d,376,QMER method based on P-splines to determine timing of key stages and quantities at defined time points
FPWW0280042,20190329T1300+0100,676.0,550.258979223584,751.856935682732,-100.798978229574,NA,NA,11378,45,PltBBCH30,Beginning stem elongation,deg C d,376,QMER method based on P-splines to determine timing of key stages and quantities at defined time points
FPWW0280033,20190405T0100+0100,734.0,699.747889400619,693.177749784453,3.28506980808304,NA,NA,11378,45,PltBBCH30,Beginning stem elongation,deg C d,376,QMER method based on P-splines to determine timing of key stages and quantities at defined time points
FPWW0280011,20190405T0100+0100,734.0,708.686046931338,698.958876847902,4.86358504171767,NA,NA,11378,45,PltBBCH30,Beginning stem elongation,deg C d,376,QMER method based on P-splines to determine timing of key stages and quantities at defined time points
FPWW0280037,20190405T1300+0100,734.0,640.378724478598,729.091726753294,-44.3565011373482,NA,NA,11378,45,PltBBCH30,Beginning stem elongation,deg C d,376,QMER method based on P-splines to determine timing of key stages and quantities at defined time points
FPWW0280012,20190405T1300+0100,734.0,737.903721203667,700.844408555903,18.529656323882,NA,NA,11378,45,PltBBCH30,Beginning stem elongation,deg C d,376,QMER method based on P-splines to determine timing of key stages and quantities at defined time points
FPWW0280054,20190405T0100+0100,734.0,676.604290883165,790.654137637037,-57.0249233769359,NA,NA,11378,45,PltBBCH30,Beginning stem elongation,deg C d,376,QMER method based on P-splines to determine timing of key stages and quantities at defined time points
FPWW0280030,20190401T1300+0100,706.0,603.773940422706,738.626713857695,-67.4263867174945,NA,NA,11378,45,PltBBCH30,Beginning stem elongation,deg C d,376,QMER method based on P-splines to determine timing of key stages and quantities at defined time points
FPWW0280004,20190401T1300+0100,706.0,608.929450866201,737.192146227428,-64.1313476806132,NA,NA,11378,45,PltBBCH30,Beginning stem elongation,deg C d,376,QMER method based on P-splines to determine timing of key stages and quantities at defined time points
FPWW0280040,20190401T1300+0100,706.0,672.905935996794,667.224324058124,2.84080596933504,NA,NA,11378,45,PltBBCH30,Beginning stem elongation,deg C d,376,QMER method based on P-splines to determine timing of key stages and quantities at defined time points
FPWW0280001,20190401T0100+0100,706.0,626.935981158351,679.030278195503,-26.0471485185758,NA,NA,11378,45,PltBBCH30,Beginning stem elongation,deg C d,376,QMER method based on P-splines to determine timing of key stages and quantities at defined time points
FPWW0280028,20190401T0100+0100,706.0,703.020518532078,629.823611348794,36.5984535916421,NA,NA,11378,45,PltBBCH30,Beginning stem elongation,deg C d,376,QMER method based on P-splines to determine timing of key stages and quantities at defined time points
FPWW0280016,20190401T0100+0100,706.0,709.061780084255,738.685445338734,-14.8118326272392,NA,NA,11378,45,PltBBCH30,Beginning stem elongation,deg C d,376,QMER method based on P-splines to determine timing of key stages and quantities at defined time points
FPWW0280052,20190320T1300+0100,616.0,571.669392844969,715.711159853329,-72.0208835041799,NA,NA,11378,45,PltBBCH30,Beginning stem elongation,deg C d,376,QMER method based on P-splines to determine timing of key stages and quantities at defined time points
FPWW0280053,20190326T0100+0100,659.0,643.708933675638,714.749513123427,-35.5202897238945,NA,NA,11378,45,PltBBCH30,Beginning stem elongation,deg C d,376,QMER method based on P-splines to determine timing of key stages and quantities at defined time points
FPWW0280025,20190326T1300+0100,659.0,650.396793186304,643.355738099481,3.52052754341141,NA,NA,11378,45,PltBBCH30,Beginning stem elongation,deg C d,376,QMER method based on P-splines to determine timing of key stages and quantities at defined time points
FPWW0280047,20190331T0100+0100,695.0,651.779234481335,688.91682839887,-18.5687969587673,NA,NA,11378,45,PltBBCH30,Beginning stem elongation,deg C d,376,QMER method based on P-splines to determine timing of key stages and quantities at defined time points
FPWW0280048,20190331T1300+0100,695.0,618.439476712621,764.601078314957,-73.0808008011681,NA,NA,11378,45,PltBBCH30,Beginning stem elongation,deg C d,376,QMER method based on P-splines to determine timing of key stages and quantities at defined time points
FPWW0280032,20190331T0100+0100,695.0,552.178997895649,794.850321356027,-121.335661730189,NA,NA,11378,45,PltBBCH30,Beginning stem elongation,deg C d,376,QMER method based on P-splines to determine timing of key stages and quantities at defined time points
FPWW0280051,20190331T1300+0100,695.0,677.721311601267,699.471333090765,-10.875010744749,NA,NA,11378,45,PltBBCH30,Beginning stem elongation,deg C d,376,QMER method based on P-splines to determine timing of key stages and quantities at defined time points
FPWW0280009,20190331T1300+0100,695.0,679.926263541471,631.393540499286,24.2663615210924,NA,NA,11378,45,PltBBCH30,Beginning stem elongation,deg C d,376,QMER method based on P-splines to determine timing of key stages and quantities at defined time points
FPWW0280029,20190330T0100+0100,685.0,613.130041056245,718.011042228039,-52.4405005858974,NA,NA,11378,45,PltBBCH30,Beginning stem elongation,deg C d,376,QMER method based on P-splines to determine timing of key stages and quantities at defined time points
FPWW0280031,20190408T1300+0100,754.0,736.256607620928,700.088826214033,18.0838907034473,NA,NA,11378,45,PltBBCH30,Beginning stem elongation,deg C d,376,QMER method based on P-splines to determine timing of key stages and quantities at defined time points
FPWW0280014,20190413T0100+0100,789.0,871.596479156088,653.25127217667,109.172603489709,NA,NA,11378,45,PltBBCH30,Beginning stem elongation,deg C d,376,QMER method based on P-splines to determine timing of key stages and quantities at defined time points
FPWW0280010,20190413T1300+0100,789.0,758.603483978165,783.022998228582,-12.2097571252084,NA,NA,11378,45,PltBBCH30,Beginning stem elongation,deg C d,376,QMER method based on P-splines to determine timing of key stages and quantities at defined time points
FPWW0280002,20190413T1300+0100,789.0,734.03458953436,724.391789124278,4.82140020504079,NA,NA,11378,45,PltBBCH30,Beginning stem elongation,deg C d,376,QMER method based on P-splines to determine timing of key stages and quantities at defined time points
FPWW0280046,20190409T1300+0100,763.0,787.316017761106,698.804899656878,44.2555590521139,NA,NA,11378,45,PltBBCH30,Beginning stem elongation,deg C d,376,QMER method based on P-splines to determine timing of key stages and quantities at defined time points
FPWW0280045,20190409T1300+0100,763.0,773.554295866823,674.756172789434,49.399061538695,NA,NA,11378,45,PltBBCH30,Beginning stem elongation,deg C d,376,QMER method based on P-splines to determine timing of key stages and quantities at defined time points
FPWW0280026,20190410T0100+0100,770.0,846.794379814954,615.812111702362,115.491134056296,NA,NA,11378,45,PltBBCH30,Beginning stem elongation,deg C d,376,QMER method based on P-splines to determine timing of key stages and quantities at defined time points
FPWW0280038,20190410T1300+0100,770.0,772.444273371044,640.274788966873,66.0847422020858,NA,NA,11378,45,PltBBCH30,Beginning stem elongation,deg C d,376,QMER method based on P-splines to determine timing of key stages and quantities at defined time points
FPWW0280007,20190410T0100+0100,770.0,829.975963450171,612.634226765247,108.670868342462,NA,NA,11378,45,PltBBCH30,Beginning stem elongation,deg C d,376,QMER method based on P-splines to determine timing of key stages and quantities at defined time points
FPWW0280006,20190407T0100+0100,745.0,763.749781761479,648.618024741609,57.5658785099352,NA,NA,11378,45,PltBBCH30,Beginning stem elongation,deg C d,376,QMER method based on P-splines to determine timing of key stages and quantities at defined time points
FPWW0280019,20190407T0100+0100,745.0,937.958684874339,500.89404018789,218.532322343225,NA,NA,11378,45,PltBBCH30,Beginning stem elongation,deg C d,376,QMER method based on P-splines to determine timing of key stages and quantities at defined time points
FPWW0280021,20190325T0100+0100,655.0,577.625469462299,786.928901316433,-104.651715927067,NA,NA,11378,45,PltBBCH30,Beginning stem elongation,deg C d,376,QMER method based on P-splines to determine timing of key stages and quantities at defined time points
