genotype.id,year_site.UIDs,timestamp,heritability,genotype_mean,standard_error,weights_vcov,responsible,trait.id,trait.label,trait.name,trait.si_unit,method.id,method.name
10052,DSSB006,20200901T1100+0100,0.82,135.902725342655,1.70693246705728,0.599456970473286,barendregt@dsp-delley.ch,108,CnpBBCH89,End of maturity,1,1308,Maturity rating
10008,DSSB006,20200901T1100+0100,0.82,139.22222634083,1.72649878231727,0.596543549462979,barendregt@dsp-delley.ch,108,CnpBBCH89,End of maturity,1,1308,Maturity rating
10019,DSSB006,20200901T1100+0100,0.82,139.932515115844,1.7264189936614,0.598919335002668,barendregt@dsp-delley.ch,108,CnpBBCH89,End of maturity,1,1308,Maturity rating
10007,DSSB006,20200901T1100+0100,0.82,136.000629689554,1.70117872229875,0.601735236606048,barendregt@dsp-delley.ch,108,CnpBBCH89,End of maturity,1,1308,Maturity rating
10058,DSSB006,20200901T1100+0100,0.82,136.555170306121,1.77157463815779,0.593695541548356,barendregt@dsp-delley.ch,108,CnpBBCH89,End of maturity,1,1308,Maturity rating
10001,DSSB006,20200901T1100+0100,0.82,126.755757098049,1.7012972905521,0.598770116811514,barendregt@dsp-delley.ch,108,CnpBBCH89,End of maturity,1,1308,Maturity rating
10010,DSSB006,20200901T1100+0100,0.82,128.714861352829,1.76438258074074,0.592663146817246,barendregt@dsp-delley.ch,108,CnpBBCH89,End of maturity,1,1308,Maturity rating
10176,DSSB006,20200901T1100+0100,0.82,128.807516456586,1.68884048483498,0.601172693455062,barendregt@dsp-delley.ch,108,CnpBBCH89,End of maturity,1,1308,Maturity rating
10003,DSSB006,20200901T1100+0100,0.82,132.48120238295,1.70131105513303,0.599994121098047,barendregt@dsp-delley.ch,108,CnpBBCH89,End of maturity,1,1308,Maturity rating
10018,DSSB006,20200901T1100+0100,0.82,142.063203376172,1.76233384091616,0.592834767090067,barendregt@dsp-delley.ch,108,CnpBBCH89,End of maturity,1,1308,Maturity rating
10049,DSSB006,20200901T1100+0100,0.82,125.391086957935,1.69724049648825,0.598740916038846,barendregt@dsp-delley.ch,108,CnpBBCH89,End of maturity,1,1308,Maturity rating
10025,DSSB006,20200901T1100+0100,0.82,136.859777009604,1.70626587108749,0.602216877998213,barendregt@dsp-delley.ch,108,CnpBBCH89,End of maturity,1,1308,Maturity rating
10056,DSSB006,20200901T1100+0100,0.82,138.508024907664,1.70446944820599,0.597115604951185,barendregt@dsp-delley.ch,108,CnpBBCH89,End of maturity,1,1308,Maturity rating
10004,DSSB006,20200901T1100+0100,0.82,135.773864429658,1.69439578469613,0.601050476833468,barendregt@dsp-delley.ch,108,CnpBBCH89,End of maturity,1,1308,Maturity rating
10015,DSSB006,20200901T1100+0100,0.82,138.185519899314,1.67844278446674,0.601738804736858,barendregt@dsp-delley.ch,108,CnpBBCH89,End of maturity,1,1308,Maturity rating
10175,DSSB006,20200901T1100+0100,0.82,130.788970136564,1.68625244943169,0.599553727021894,barendregt@dsp-delley.ch,108,CnpBBCH89,End of maturity,1,1308,Maturity rating
10005,DSSB006,20200901T1100+0100,0.82,131.77464552392,1.68035554616808,0.602233236305986,barendregt@dsp-delley.ch,108,CnpBBCH89,End of maturity,1,1308,Maturity rating
10051,DSSB006,20200901T1100+0100,0.82,137.418200688167,1.70240023539208,0.59377988665091,barendregt@dsp-delley.ch,108,CnpBBCH89,End of maturity,1,1308,Maturity rating
10020,DSSB006,20200901T1100+0100,0.82,138.283931188674,1.69051101655993,0.600375036743235,barendregt@dsp-delley.ch,108,CnpBBCH89,End of maturity,1,1308,Maturity rating
10011,DSSB006,20200901T1100+0100,0.82,139.724115552215,1.67809987707561,0.603748428568071,barendregt@dsp-delley.ch,108,CnpBBCH89,End of maturity,1,1308,Maturity rating
10017,DSSB006,20200901T1100+0100,0.82,137.172227172975,1.72638628565197,0.59720146316234,barendregt@dsp-delley.ch,108,CnpBBCH89,End of maturity,1,1308,Maturity rating
10057,DSSB006,20200901T1100+0100,0.82,131.874127812803,1.71966843614675,0.597212325055775,barendregt@dsp-delley.ch,108,CnpBBCH89,End of maturity,1,1308,Maturity rating
10016,DSSB006,20200901T1100+0100,0.82,136.770647746653,1.73659530872819,0.597564434802133,barendregt@dsp-delley.ch,108,CnpBBCH89,End of maturity,1,1308,Maturity rating
10014,DSSB006,20200901T1100+0100,0.82,137.609091511791,1.70454960692838,0.594871615642881,barendregt@dsp-delley.ch,108,CnpBBCH89,End of maturity,1,1308,Maturity rating
10054,DSSB006,20200901T1100+0100,0.82,139.130778707518,1.74827513294064,0.593544870077797,barendregt@dsp-delley.ch,108,CnpBBCH89,End of maturity,1,1308,Maturity rating
10021,DSSB006,20200901T1100+0100,0.82,137.31012451977,1.72656072056649,0.595297999767279,barendregt@dsp-delley.ch,108,CnpBBCH89,End of maturity,1,1308,Maturity rating
10050,DSSB006,20200901T1100+0100,0.82,135.238052124227,1.72935099763876,0.599399715406157,barendregt@dsp-delley.ch,108,CnpBBCH89,End of maturity,1,1308,Maturity rating
10012,DSSB006,20200901T1100+0100,0.82,127.133958495793,1.72373854749853,0.598262452449635,barendregt@dsp-delley.ch,108,CnpBBCH89,End of maturity,1,1308,Maturity rating
10053,DSSB006,20200901T1100+0100,0.82,133.614320426515,1.75365417993362,0.594351394814783,barendregt@dsp-delley.ch,108,CnpBBCH89,End of maturity,1,1308,Maturity rating
10174,DSSB006,20200901T1100+0100,0.82,131.928453304772,1.79556400735839,0.588907376980751,barendregt@dsp-delley.ch,108,CnpBBCH89,End of maturity,1,1308,Maturity rating
10055,DSSB006,20200901T1100+0100,0.82,134.16139529364,1.79009072647651,0.589286443320201,barendregt@dsp-delley.ch,108,CnpBBCH89,End of maturity,1,1308,Maturity rating
10013,DSSB006,20200901T1100+0100,0.82,132.014745439959,1.75245269420953,0.591141268071596,barendregt@dsp-delley.ch,108,CnpBBCH89,End of maturity,1,1308,Maturity rating
10006,DSSB006,20200901T1100+0100,0.82,129.589946593677,1.75295441118035,0.592718155217038,barendregt@dsp-delley.ch,108,CnpBBCH89,End of maturity,1,1308,Maturity rating
10009,DSSB006,20200901T1100+0100,0.82,134.996526843854,1.74975138825104,0.594249958378612,barendregt@dsp-delley.ch,108,CnpBBCH89,End of maturity,1,1308,Maturity rating
