plot.UID,timestamp,value,corrected_value,spatial_trend,spatial_residual,value_json,responsible,measurement_id,trait.id,trait.label,trait.name,trait.si_unit,method.id,method.name
DSSB0070074,20200901T1100+0100,140.0,NA,NA,NA,NA,barendregt@dsp-delley.ch,11332,108,CnpBBCH89,End of maturity,1,368,Maturity rating
DSSB0070021,20200901T1100+0100,133.0,NA,NA,NA,NA,barendregt@dsp-delley.ch,11332,108,CnpBBCH89,End of maturity,1,368,Maturity rating
DSSB0070044,20200901T1100+0100,133.0,NA,NA,NA,NA,barendregt@dsp-delley.ch,11332,108,CnpBBCH89,End of maturity,1,368,Maturity rating
DSSB0070003,20200901T1100+0100,137.0,NA,NA,NA,NA,barendregt@dsp-delley.ch,11332,108,CnpBBCH89,End of maturity,1,368,Maturity rating
DSSB0070039,20200901T1100+0100,137.0,NA,NA,NA,NA,barendregt@dsp-delley.ch,11332,108,CnpBBCH89,End of maturity,1,368,Maturity rating
DSSB0070047,20200901T1100+0100,129.0,NA,NA,NA,NA,barendregt@dsp-delley.ch,11332,108,CnpBBCH89,End of maturity,1,368,Maturity rating
DSSB0070020,20200901T1100+0100,135.0,NA,NA,NA,NA,barendregt@dsp-delley.ch,11332,108,CnpBBCH89,End of maturity,1,368,Maturity rating
DSSB0070062,20200901T1100+0100,137.0,NA,NA,NA,NA,barendregt@dsp-delley.ch,11332,108,CnpBBCH89,End of maturity,1,368,Maturity rating
DSSB0070063,20200901T1100+0100,140.0,NA,NA,NA,NA,barendregt@dsp-delley.ch,11332,108,CnpBBCH89,End of maturity,1,368,Maturity rating
DSSB0070011,20200901T1100+0100,140.0,NA,NA,NA,NA,barendregt@dsp-delley.ch,11332,108,CnpBBCH89,End of maturity,1,368,Maturity rating
DSSB0070028,20200901T1100+0100,133.0,NA,NA,NA,NA,barendregt@dsp-delley.ch,11332,108,CnpBBCH89,End of maturity,1,368,Maturity rating
DSSB0070024,20200901T1100+0100,137.0,NA,NA,NA,NA,barendregt@dsp-delley.ch,11332,108,CnpBBCH89,End of maturity,1,368,Maturity rating
DSSB0070059,20200901T1100+0100,133.0,NA,NA,NA,NA,barendregt@dsp-delley.ch,11332,108,CnpBBCH89,End of maturity,1,368,Maturity rating
DSSB0070031,20200901T1100+0100,142.0,NA,NA,NA,NA,barendregt@dsp-delley.ch,11332,108,CnpBBCH89,End of maturity,1,368,Maturity rating
DSSB0070036,20200901T1100+0100,129.0,NA,NA,NA,NA,barendregt@dsp-delley.ch,11332,108,CnpBBCH89,End of maturity,1,368,Maturity rating
DSSB0070065,20200901T1100+0100,140.0,NA,NA,NA,NA,barendregt@dsp-delley.ch,11332,108,CnpBBCH89,End of maturity,1,368,Maturity rating
DSSB0070048,20200901T1100+0100,134.0,NA,NA,NA,NA,barendregt@dsp-delley.ch,11332,108,CnpBBCH89,End of maturity,1,368,Maturity rating
DSSB0070056,20200901T1100+0100,140.0,NA,NA,NA,NA,barendregt@dsp-delley.ch,11332,108,CnpBBCH89,End of maturity,1,368,Maturity rating
DSSB0070070,20200901T1100+0100,133.0,NA,NA,NA,NA,barendregt@dsp-delley.ch,11332,108,CnpBBCH89,End of maturity,1,368,Maturity rating
DSSB0070069,20200901T1100+0100,137.0,NA,NA,NA,NA,barendregt@dsp-delley.ch,11332,108,CnpBBCH89,End of maturity,1,368,Maturity rating
DSSB0070072,20200901T1100+0100,133.0,NA,NA,NA,NA,barendregt@dsp-delley.ch,11332,108,CnpBBCH89,End of maturity,1,368,Maturity rating
DSSB0070027,20200901T1100+0100,140.0,NA,NA,NA,NA,barendregt@dsp-delley.ch,11332,108,CnpBBCH89,End of maturity,1,368,Maturity rating
DSSB0070029,20200901T1100+0100,133.0,NA,NA,NA,NA,barendregt@dsp-delley.ch,11332,108,CnpBBCH89,End of maturity,1,368,Maturity rating
DSSB0070006,20200901T1100+0100,137.0,NA,NA,NA,NA,barendregt@dsp-delley.ch,11332,108,CnpBBCH89,End of maturity,1,368,Maturity rating
DSSB0070018,20200901T1100+0100,133.0,NA,NA,NA,NA,barendregt@dsp-delley.ch,11332,108,CnpBBCH89,End of maturity,1,368,Maturity rating
DSSB0070022,20200901T1100+0100,133.0,NA,NA,NA,NA,barendregt@dsp-delley.ch,11332,108,CnpBBCH89,End of maturity,1,368,Maturity rating
DSSB0070068,20200901T1100+0100,140.0,NA,NA,NA,NA,barendregt@dsp-delley.ch,11332,108,CnpBBCH89,End of maturity,1,368,Maturity rating
DSSB0070015,20200901T1100+0100,137.0,NA,NA,NA,NA,barendregt@dsp-delley.ch,11332,108,CnpBBCH89,End of maturity,1,368,Maturity rating
DSSB0070053,20200901T1100+0100,140.0,NA,NA,NA,NA,barendregt@dsp-delley.ch,11332,108,CnpBBCH89,End of maturity,1,368,Maturity rating
DSSB0070042,20200901T1100+0100,144.0,NA,NA,NA,NA,barendregt@dsp-delley.ch,11332,108,CnpBBCH89,End of maturity,1,368,Maturity rating
DSSB0070005,20200901T1100+0100,133.0,NA,NA,NA,NA,barendregt@dsp-delley.ch,11332,108,CnpBBCH89,End of maturity,1,368,Maturity rating
DSSB0070012,20200901T1100+0100,137.0,NA,NA,NA,NA,barendregt@dsp-delley.ch,11332,108,CnpBBCH89,End of maturity,1,368,Maturity rating
DSSB0070014,20200901T1100+0100,137.0,NA,NA,NA,NA,barendregt@dsp-delley.ch,11332,108,CnpBBCH89,End of maturity,1,368,Maturity rating
DSSB0070045,20200901T1100+0100,133.0,NA,NA,NA,NA,barendregt@dsp-delley.ch,11332,108,CnpBBCH89,End of maturity,1,368,Maturity rating
DSSB0070061,20200901T1100+0100,133.0,NA,NA,NA,NA,barendregt@dsp-delley.ch,11332,108,CnpBBCH89,End of maturity,1,368,Maturity rating
DSSB0070035,20200901T1100+0100,133.0,NA,NA,NA,NA,barendregt@dsp-delley.ch,11332,108,CnpBBCH89,End of maturity,1,368,Maturity rating
DSSB0070054,20200901T1100+0100,140.0,NA,NA,NA,NA,barendregt@dsp-delley.ch,11332,108,CnpBBCH89,End of maturity,1,368,Maturity rating
DSSB0070057,20200901T1100+0100,133.0,NA,NA,NA,NA,barendregt@dsp-delley.ch,11332,108,CnpBBCH89,End of maturity,1,368,Maturity rating
DSSB0070075,20200901T1100+0100,130.0,NA,NA,NA,NA,barendregt@dsp-delley.ch,11332,108,CnpBBCH89,End of maturity,1,368,Maturity rating
DSSB0070017,20200901T1100+0100,133.0,NA,NA,NA,NA,barendregt@dsp-delley.ch,11332,108,CnpBBCH89,End of maturity,1,368,Maturity rating
DSSB0070016,20200901T1100+0100,137.0,NA,NA,NA,NA,barendregt@dsp-delley.ch,11332,108,CnpBBCH89,End of maturity,1,368,Maturity rating
DSSB0070008,20200901T1100+0100,142.0,NA,NA,NA,NA,barendregt@dsp-delley.ch,11332,108,CnpBBCH89,End of maturity,1,368,Maturity rating
DSSB0070046,20200901T1100+0100,133.0,NA,NA,NA,NA,barendregt@dsp-delley.ch,11332,108,CnpBBCH89,End of maturity,1,368,Maturity rating
DSSB0070010,20200901T1100+0100,140.0,NA,NA,NA,NA,barendregt@dsp-delley.ch,11332,108,CnpBBCH89,End of maturity,1,368,Maturity rating
DSSB0070037,20200901T1100+0100,140.0,NA,NA,NA,NA,barendregt@dsp-delley.ch,11332,108,CnpBBCH89,End of maturity,1,368,Maturity rating
DSSB0070073,20200901T1100+0100,133.0,NA,NA,NA,NA,barendregt@dsp-delley.ch,11332,108,CnpBBCH89,End of maturity,1,368,Maturity rating
DSSB0070064,20200901T1100+0100,142.0,NA,NA,NA,NA,barendregt@dsp-delley.ch,11332,108,CnpBBCH89,End of maturity,1,368,Maturity rating
DSSB0070067,20200901T1100+0100,140.0,NA,NA,NA,NA,barendregt@dsp-delley.ch,11332,108,CnpBBCH89,End of maturity,1,368,Maturity rating
DSSB0070032,20200901T1100+0100,140.0,NA,NA,NA,NA,barendregt@dsp-delley.ch,11332,108,CnpBBCH89,End of maturity,1,368,Maturity rating
DSSB0070066,20200901T1100+0100,140.0,NA,NA,NA,NA,barendregt@dsp-delley.ch,11332,108,CnpBBCH89,End of maturity,1,368,Maturity rating
DSSB0070013,20200901T1100+0100,140.0,NA,NA,NA,NA,barendregt@dsp-delley.ch,11332,108,CnpBBCH89,End of maturity,1,368,Maturity rating
DSSB0070033,20200901T1100+0100,129.0,NA,NA,NA,NA,barendregt@dsp-delley.ch,11332,108,CnpBBCH89,End of maturity,1,368,Maturity rating
DSSB0070058,20200901T1100+0100,133.0,NA,NA,NA,NA,barendregt@dsp-delley.ch,11332,108,CnpBBCH89,End of maturity,1,368,Maturity rating
DSSB0070043,20200901T1100+0100,133.0,NA,NA,NA,NA,barendregt@dsp-delley.ch,11332,108,CnpBBCH89,End of maturity,1,368,Maturity rating
DSSB0070055,20200901T1100+0100,140.0,NA,NA,NA,NA,barendregt@dsp-delley.ch,11332,108,CnpBBCH89,End of maturity,1,368,Maturity rating
DSSB0070026,20200901T1100+0100,133.0,NA,NA,NA,NA,barendregt@dsp-delley.ch,11332,108,CnpBBCH89,End of maturity,1,368,Maturity rating
DSSB0070025,20200901T1100+0100,144.0,NA,NA,NA,NA,barendregt@dsp-delley.ch,11332,108,CnpBBCH89,End of maturity,1,368,Maturity rating
DSSB0070050,20200901T1100+0100,128.0,NA,NA,NA,NA,barendregt@dsp-delley.ch,11332,108,CnpBBCH89,End of maturity,1,368,Maturity rating
DSSB0070004,20200901T1100+0100,140.0,NA,NA,NA,NA,barendregt@dsp-delley.ch,11332,108,CnpBBCH89,End of maturity,1,368,Maturity rating
DSSB0070007,20200901T1100+0100,140.0,NA,NA,NA,NA,barendregt@dsp-delley.ch,11332,108,CnpBBCH89,End of maturity,1,368,Maturity rating
DSSB0070071,20200901T1100+0100,133.0,NA,NA,NA,NA,barendregt@dsp-delley.ch,11332,108,CnpBBCH89,End of maturity,1,368,Maturity rating
DSSB0070049,20200901T1100+0100,137.0,NA,NA,NA,NA,barendregt@dsp-delley.ch,11332,108,CnpBBCH89,End of maturity,1,368,Maturity rating
DSSB0070009,20200901T1100+0100,140.0,NA,NA,NA,NA,barendregt@dsp-delley.ch,11332,108,CnpBBCH89,End of maturity,1,368,Maturity rating
DSSB0070002,20200901T1100+0100,144.0,NA,NA,NA,NA,barendregt@dsp-delley.ch,11332,108,CnpBBCH89,End of maturity,1,368,Maturity rating
DSSB0070052,20200901T1100+0100,140.0,NA,NA,NA,NA,barendregt@dsp-delley.ch,11332,108,CnpBBCH89,End of maturity,1,368,Maturity rating
DSSB0070051,20200901T1100+0100,133.0,NA,NA,NA,NA,barendregt@dsp-delley.ch,11332,108,CnpBBCH89,End of maturity,1,368,Maturity rating
DSSB0070040,20200901T1100+0100,133.0,NA,NA,NA,NA,barendregt@dsp-delley.ch,11332,108,CnpBBCH89,End of maturity,1,368,Maturity rating
DSSB0070041,20200901T1100+0100,142.0,NA,NA,NA,NA,barendregt@dsp-delley.ch,11332,108,CnpBBCH89,End of maturity,1,368,Maturity rating
DSSB0070030,20200901T1100+0100,133.0,NA,NA,NA,NA,barendregt@dsp-delley.ch,11332,108,CnpBBCH89,End of maturity,1,368,Maturity rating
DSSB0070060,20200901T1100+0100,128.0,NA,NA,NA,NA,barendregt@dsp-delley.ch,11332,108,CnpBBCH89,End of maturity,1,368,Maturity rating
DSSB0070001,20200901T1100+0100,140.0,NA,NA,NA,NA,barendregt@dsp-delley.ch,11332,108,CnpBBCH89,End of maturity,1,368,Maturity rating
DSSB0070038,20200901T1100+0100,133.0,NA,NA,NA,NA,barendregt@dsp-delley.ch,11332,108,CnpBBCH89,End of maturity,1,368,Maturity rating
DSSB0070034,20200901T1100+0100,134.0,NA,NA,NA,NA,barendregt@dsp-delley.ch,11332,108,CnpBBCH89,End of maturity,1,368,Maturity rating
DSSB0070019,20200901T1100+0100,133.0,NA,NA,NA,NA,barendregt@dsp-delley.ch,11332,108,CnpBBCH89,End of maturity,1,368,Maturity rating
DSSB0070023,20200901T1100+0100,133.0,NA,NA,NA,NA,barendregt@dsp-delley.ch,11332,108,CnpBBCH89,End of maturity,1,368,Maturity rating
