plot.UID,timestamp,value,corrected_value,spatial_trend,spatial_residual,value_json,responsible,measurement_id,trait.id,trait.label,trait.name,trait.si_unit,method.id,method.name
DSSB0040010,20200901T1100+0100,137.0,NA,NA,NA,NA,barendregt@dsp-delley.ch,11299,108,CnpBBCH89,End of maturity,1,368,Maturity rating
DSSB0040021,20200901T1100+0100,133.0,NA,NA,NA,NA,barendregt@dsp-delley.ch,11299,108,CnpBBCH89,End of maturity,1,368,Maturity rating
DSSB0040032,20200901T1100+0100,134.0,NA,NA,NA,NA,barendregt@dsp-delley.ch,11299,108,CnpBBCH89,End of maturity,1,368,Maturity rating
DSSB0040016,20200901T1100+0100,129.0,NA,NA,NA,NA,barendregt@dsp-delley.ch,11299,108,CnpBBCH89,End of maturity,1,368,Maturity rating
DSSB0040050,20200901T1100+0100,140.0,NA,NA,NA,NA,barendregt@dsp-delley.ch,11299,108,CnpBBCH89,End of maturity,1,368,Maturity rating
DSSB0040023,20200901T1100+0100,137.0,NA,NA,NA,NA,barendregt@dsp-delley.ch,11299,108,CnpBBCH89,End of maturity,1,368,Maturity rating
DSSB0040005,20200901T1100+0100,140.0,NA,NA,NA,NA,barendregt@dsp-delley.ch,11299,108,CnpBBCH89,End of maturity,1,368,Maturity rating
DSSB0040045,20200901T1100+0100,133.0,NA,NA,NA,NA,barendregt@dsp-delley.ch,11299,108,CnpBBCH89,End of maturity,1,368,Maturity rating
DSSB0040007,20200901T1100+0100,135.0,NA,NA,NA,NA,barendregt@dsp-delley.ch,11299,108,CnpBBCH89,End of maturity,1,368,Maturity rating
DSSB0040041,20200901T1100+0100,135.0,NA,NA,NA,NA,barendregt@dsp-delley.ch,11299,108,CnpBBCH89,End of maturity,1,368,Maturity rating
DSSB0040033,20200901T1100+0100,133.0,NA,NA,NA,NA,barendregt@dsp-delley.ch,11299,108,CnpBBCH89,End of maturity,1,368,Maturity rating
DSSB0040012,20200901T1100+0100,140.0,NA,NA,NA,NA,barendregt@dsp-delley.ch,11299,108,CnpBBCH89,End of maturity,1,368,Maturity rating
DSSB0040011,20200901T1100+0100,129.0,NA,NA,NA,NA,barendregt@dsp-delley.ch,11299,108,CnpBBCH89,End of maturity,1,368,Maturity rating
DSSB0040040,20200901T1100+0100,140.0,NA,NA,NA,NA,barendregt@dsp-delley.ch,11299,108,CnpBBCH89,End of maturity,1,368,Maturity rating
DSSB0040039,20200901T1100+0100,129.0,NA,NA,NA,NA,barendregt@dsp-delley.ch,11299,108,CnpBBCH89,End of maturity,1,368,Maturity rating
DSSB0040049,20200901T1100+0100,137.0,NA,NA,NA,NA,barendregt@dsp-delley.ch,11299,108,CnpBBCH89,End of maturity,1,368,Maturity rating
DSSB0040048,20200901T1100+0100,141.0,NA,NA,NA,NA,barendregt@dsp-delley.ch,11299,108,CnpBBCH89,End of maturity,1,368,Maturity rating
DSSB0040030,20200901T1100+0100,141.0,NA,NA,NA,NA,barendregt@dsp-delley.ch,11299,108,CnpBBCH89,End of maturity,1,368,Maturity rating
DSSB0040008,20200901T1100+0100,142.0,NA,NA,NA,NA,barendregt@dsp-delley.ch,11299,108,CnpBBCH89,End of maturity,1,368,Maturity rating
DSSB0040013,20200901T1100+0100,140.0,NA,NA,NA,NA,barendregt@dsp-delley.ch,11299,108,CnpBBCH89,End of maturity,1,368,Maturity rating
DSSB0040019,20200901T1100+0100,140.0,NA,NA,NA,NA,barendregt@dsp-delley.ch,11299,108,CnpBBCH89,End of maturity,1,368,Maturity rating
DSSB0040024,20200901T1100+0100,133.0,NA,NA,NA,NA,barendregt@dsp-delley.ch,11299,108,CnpBBCH89,End of maturity,1,368,Maturity rating
DSSB0040034,20200901T1100+0100,130.0,NA,NA,NA,NA,barendregt@dsp-delley.ch,11299,108,CnpBBCH89,End of maturity,1,368,Maturity rating
DSSB0040025,20200901T1100+0100,133.0,NA,NA,NA,NA,barendregt@dsp-delley.ch,11299,108,CnpBBCH89,End of maturity,1,368,Maturity rating
DSSB0040037,20200901T1100+0100,128.0,NA,NA,NA,NA,barendregt@dsp-delley.ch,11299,108,CnpBBCH89,End of maturity,1,368,Maturity rating
DSSB0040038,20200901T1100+0100,133.0,NA,NA,NA,NA,barendregt@dsp-delley.ch,11299,108,CnpBBCH89,End of maturity,1,368,Maturity rating
DSSB0040031,20200901T1100+0100,137.0,NA,NA,NA,NA,barendregt@dsp-delley.ch,11299,108,CnpBBCH89,End of maturity,1,368,Maturity rating
DSSB0040026,20200901T1100+0100,140.0,NA,NA,NA,NA,barendregt@dsp-delley.ch,11299,108,CnpBBCH89,End of maturity,1,368,Maturity rating
DSSB0040036,20200901T1100+0100,140.0,NA,NA,NA,NA,barendregt@dsp-delley.ch,11299,108,CnpBBCH89,End of maturity,1,368,Maturity rating
DSSB0040022,20200901T1100+0100,129.0,NA,NA,NA,NA,barendregt@dsp-delley.ch,11299,108,CnpBBCH89,End of maturity,1,368,Maturity rating
DSSB0040015,20200901T1100+0100,140.0,NA,NA,NA,NA,barendregt@dsp-delley.ch,11299,108,CnpBBCH89,End of maturity,1,368,Maturity rating
DSSB0040046,20200901T1100+0100,140.0,NA,NA,NA,NA,barendregt@dsp-delley.ch,11299,108,CnpBBCH89,End of maturity,1,368,Maturity rating
DSSB0040017,20200901T1100+0100,130.0,NA,NA,NA,NA,barendregt@dsp-delley.ch,11299,108,CnpBBCH89,End of maturity,1,368,Maturity rating
DSSB0040006,20200901T1100+0100,137.0,NA,NA,NA,NA,barendregt@dsp-delley.ch,11299,108,CnpBBCH89,End of maturity,1,368,Maturity rating
DSSB0040042,20200901T1100+0100,137.0,NA,NA,NA,NA,barendregt@dsp-delley.ch,11299,108,CnpBBCH89,End of maturity,1,368,Maturity rating
DSSB0040043,20200901T1100+0100,142.0,NA,NA,NA,NA,barendregt@dsp-delley.ch,11299,108,CnpBBCH89,End of maturity,1,368,Maturity rating
DSSB0040027,20200901T1100+0100,133.0,NA,NA,NA,NA,barendregt@dsp-delley.ch,11299,108,CnpBBCH89,End of maturity,1,368,Maturity rating
DSSB0040028,20200901T1100+0100,137.0,NA,NA,NA,NA,barendregt@dsp-delley.ch,11299,108,CnpBBCH89,End of maturity,1,368,Maturity rating
DSSB0040020,20200901T1100+0100,128.0,NA,NA,NA,NA,barendregt@dsp-delley.ch,11299,108,CnpBBCH89,End of maturity,1,368,Maturity rating
DSSB0040003,20200901T1100+0100,140.0,NA,NA,NA,NA,barendregt@dsp-delley.ch,11299,108,CnpBBCH89,End of maturity,1,368,Maturity rating
DSSB0040001,20200901T1100+0100,133.0,NA,NA,NA,NA,barendregt@dsp-delley.ch,11299,108,CnpBBCH89,End of maturity,1,368,Maturity rating
DSSB0040018,20200901T1100+0100,133.0,NA,NA,NA,NA,barendregt@dsp-delley.ch,11299,108,CnpBBCH89,End of maturity,1,368,Maturity rating
DSSB0040002,20200901T1100+0100,140.0,NA,NA,NA,NA,barendregt@dsp-delley.ch,11299,108,CnpBBCH89,End of maturity,1,368,Maturity rating
DSSB0040004,20200901T1100+0100,142.0,NA,NA,NA,NA,barendregt@dsp-delley.ch,11299,108,CnpBBCH89,End of maturity,1,368,Maturity rating
DSSB0040044,20200901T1100+0100,143.0,NA,NA,NA,NA,barendregt@dsp-delley.ch,11299,108,CnpBBCH89,End of maturity,1,368,Maturity rating
DSSB0040014,20200901T1100+0100,140.0,NA,NA,NA,NA,barendregt@dsp-delley.ch,11299,108,CnpBBCH89,End of maturity,1,368,Maturity rating
DSSB0040047,20200901T1100+0100,143.0,NA,NA,NA,NA,barendregt@dsp-delley.ch,11299,108,CnpBBCH89,End of maturity,1,368,Maturity rating
DSSB0040035,20200901T1100+0100,133.0,NA,NA,NA,NA,barendregt@dsp-delley.ch,11299,108,CnpBBCH89,End of maturity,1,368,Maturity rating
DSSB0040029,20200901T1100+0100,141.0,NA,NA,NA,NA,barendregt@dsp-delley.ch,11299,108,CnpBBCH89,End of maturity,1,368,Maturity rating
DSSB0040009,20200901T1100+0100,133.0,NA,NA,NA,NA,barendregt@dsp-delley.ch,11299,108,CnpBBCH89,End of maturity,1,368,Maturity rating
