,temp,GR,genotype.id
0,-10.0,0.050538607,10023
1,-10.0,-0.10419825,10009
2,-10.0,-0.14603172,10001
3,-10.0,0.0,general
4,-9.899799,0.050538607,10023
5,-9.899799,-0.10419825,10009
6,-9.899799,-0.14603172,10001
7,-9.899799,0.0,general
8,-9.7996,0.050538607,10023
9,-9.7996,-0.10419825,10009
10,-9.7996,-0.14603172,10001
11,-9.7996,0.0,general
12,-9.699399,0.050538607,10023
13,-9.699399,-0.10419825,10009
14,-9.699399,-0.14603172,10001
15,-9.699399,0.0,general
16,-9.599198,0.050538607,10023
17,-9.599198,-0.10419825,10009
18,-9.599198,-0.14603172,10001
19,-9.599198,0.0,general
20,-9.498998,0.050538607,10023
21,-9.498998,-0.10419825,10009
22,-9.498998,-0.14603172,10001
23,-9.498998,0.0,general
24,-9.398798,0.050538607,10023
25,-9.398798,-0.10419825,10009
26,-9.398798,-0.14603172,10001
27,-9.398798,0.0,general
28,-9.298597,0.050538607,10023
29,-9.298597,-0.10419825,10009
30,-9.298597,-0.14603172,10001
31,-9.298597,0.0,general
32,-9.198397,0.050538607,10023
33,-9.198397,-0.10419825,10009
34,-9.198397,-0.14603172,10001
35,-9.198397,0.0,general
36,-9.098196,0.050538607,10023
37,-9.098196,-0.10419825,10009
38,-9.098196,-0.14603172,10001
39,-9.098196,0.0,general
40,-8.997996,0.050538607,10023
41,-8.997996,-0.10419825,10009
42,-8.997996,-0.14603172,10001
43,-8.997996,0.0,general
44,-8.897796,0.050538607,10023
45,-8.897796,-0.10419825,10009
46,-8.897796,-0.14603172,10001
47,-8.897796,0.0,general
48,-8.797595,0.050538607,10023
49,-8.797595,-0.10419825,10009
50,-8.797595,-0.14603172,10001
51,-8.797595,0.0,general
52,-8.697394,0.050538607,10023
53,-8.697394,-0.10419825,10009
54,-8.697394,-0.14603172,10001
55,-8.697394,0.0,general
56,-8.597195,0.050538607,10023
57,-8.597195,-0.10419825,10009
58,-8.597195,-0.14603172,10001
59,-8.597195,0.0,general
60,-8.496994,0.050538607,10023
61,-8.496994,-0.10419825,10009
62,-8.496994,-0.14603172,10001
63,-8.496994,0.0,general
64,-8.396793,0.050538607,10023
65,-8.396793,-0.10419825,10009
66,-8.396793,-0.14603172,10001
67,-8.396793,0.0,general
68,-8.296593,0.050538607,10023
69,-8.296593,-0.10419825,10009
70,-8.296593,-0.14603172,10001
71,-8.296593,0.0,general
72,-8.196393,0.050538607,10023
73,-8.196393,-0.10419825,10009
74,-8.196393,-0.14603172,10001
75,-8.196393,0.0,general
76,-8.096192,0.050538607,10023
77,-8.096192,-0.10419825,10009
78,-8.096192,-0.14603172,10001
79,-8.096192,0.0,general
80,-7.995992,0.050538607,10023
81,-7.995992,-0.10419825,10009
82,-7.995992,-0.14603172,10001
83,-7.995992,0.0,general
84,-7.8957915,0.050538607,10023
85,-7.8957915,-0.10419825,10009
86,-7.8957915,-0.14603172,10001
87,-7.8957915,0.0,general
88,-7.7955914,0.050538607,10023
89,-7.7955914,-0.10419825,10009
90,-7.7955914,-0.14603172,10001
91,-7.7955914,0.0,general
92,-7.6953907,0.050538607,10023
93,-7.6953907,-0.10419825,10009
94,-7.6953907,-0.14603172,10001
95,-7.6953907,0.0,general
96,-7.5951905,0.050538607,10023
97,-7.5951905,-0.10419825,10009
98,-7.5951905,-0.14603172,10001
99,-7.5951905,0.0,general
100,-7.49499,0.050538607,10023
101,-7.49499,-0.10419825,10009
102,-7.49499,-0.14603172,10001
103,-7.49499,0.0,general
104,-7.3947897,0.050538607,10023
105,-7.3947897,-0.10419825,10009
106,-7.3947897,-0.14603172,10001
107,-7.3947897,0.0,general
108,-7.294589,0.050538607,10023
109,-7.294589,-0.10419825,10009
110,-7.294589,-0.14603172,10001
111,-7.294589,0.0,general
112,-7.194389,0.050538607,10023
113,-7.194389,-0.10419825,10009
114,-7.194389,-0.14603172,10001
115,-7.194389,0.0,general
116,-7.094188,0.050538607,10023
117,-7.094188,-0.10419825,10009
118,-7.094188,-0.14603172,10001
119,-7.094188,0.0,general
120,-6.993988,0.050538607,10023
121,-6.993988,-0.10419825,10009
122,-6.993988,-0.14603172,10001
123,-6.993988,0.0,general
124,-6.8937874,0.050538607,10023
125,-6.8937874,-0.10419825,10009
126,-6.8937874,-0.14603172,10001
127,-6.8937874,0.0,general
128,-6.793587,0.050538607,10023
129,-6.793587,-0.10419825,10009
130,-6.793587,-0.14603172,10001
131,-6.793587,0.0,general
132,-6.6933866,0.050538607,10023
133,-6.6933866,-0.10419825,10009
134,-6.6933866,-0.14603172,10001
135,-6.6933866,0.0,general
136,-6.5931864,0.050538607,10023
137,-6.5931864,-0.10419825,10009
138,-6.5931864,-0.14603172,10001
139,-6.5931864,0.0,general
140,-6.492986,0.050538607,10023
141,-6.492986,-0.10419825,10009
142,-6.492986,-0.14603172,10001
143,-6.492986,0.0,general
144,-6.3927855,0.050538607,10023
145,-6.3927855,-0.10419825,10009
146,-6.3927855,-0.14603172,10001
147,-6.3927855,0.0,general
148,-6.2925854,0.050538607,10023
149,-6.2925854,-0.10419825,10009
150,-6.2925854,-0.14603172,10001
151,-6.2925854,0.0,general
152,-6.1923847,0.050538607,10023
153,-6.1923847,-0.10419825,10009
154,-6.1923847,-0.14603172,10001
155,-6.1923847,0.0,general
156,-6.0921845,0.050538607,10023
157,-6.0921845,-0.10419825,10009
158,-6.0921845,-0.14603172,10001
159,-6.0921845,0.0,general
160,-5.991984,0.050538607,10023
161,-5.991984,-0.10419825,10009
162,-5.991984,-0.14603172,10001
163,-5.991984,0.0,general
164,-5.8917837,0.050538607,10023
165,-5.8917837,-0.10419825,10009
166,-5.8917837,-0.14603172,10001
167,-5.8917837,0.0,general
168,-5.791583,0.050538607,10023
169,-5.791583,-0.10419825,10009
170,-5.791583,-0.14603172,10001
171,-5.791583,0.0,general
172,-5.691383,0.050538607,10023
173,-5.691383,-0.10419825,10009
174,-5.691383,-0.14603172,10001
175,-5.691383,0.0,general
176,-5.591182,0.050538607,10023
177,-5.591182,-0.10419825,10009
178,-5.591182,-0.14603172,10001
179,-5.591182,0.0,general
180,-5.490982,0.050538607,10023
181,-5.490982,-0.10419825,10009
182,-5.490982,-0.14603172,10001
183,-5.490982,0.0,general
184,-5.3907814,0.050538607,10023
185,-5.3907814,-0.10419825,10009
186,-5.3907814,-0.14603172,10001
187,-5.3907814,0.0,general
188,-5.290581,0.050538607,10023
189,-5.290581,-0.10419825,10009
190,-5.290581,-0.14603172,10001
191,-5.290581,0.0,general
192,-5.1903806,0.050538607,10023
193,-5.1903806,-0.10419825,10009
194,-5.1903806,-0.14603172,10001
195,-5.1903806,0.0,general
196,-5.0901804,0.050538607,10023
197,-5.0901804,-0.10419825,10009
198,-5.0901804,-0.14603172,10001
199,-5.0901804,0.0,general
200,-4.9899797,0.050538607,10023
201,-4.9899797,-0.10419825,10009
202,-4.9899797,-0.14603172,10001
203,-4.9899797,0.0,general
204,-4.8897796,0.050538607,10023
205,-4.8897796,-0.10419825,10009
206,-4.8897796,-0.14603172,10001
207,-4.8897796,0.0,general
208,-4.7895794,0.050538607,10023
209,-4.7895794,-0.10419825,10009
210,-4.7895794,-0.14603172,10001
211,-4.7895794,0.0,general
212,-4.6893787,0.050538607,10023
213,-4.6893787,-0.10419825,10009
214,-4.6893787,-0.14603172,10001
215,-4.6893787,0.0,general
216,-4.5891786,0.050538607,10023
217,-4.5891786,-0.10419825,10009
218,-4.5891786,-0.14603172,10001
219,-4.5891786,0.0,general
220,-4.488978,0.050538607,10023
221,-4.488978,-0.10419825,10009
222,-4.488978,-0.14603172,10001
223,-4.488978,0.0,general
224,-4.3887777,0.050538607,10023
225,-4.3887777,-0.10419825,10009
226,-4.3887777,-0.14603172,10001
227,-4.3887777,0.0,general
228,-4.288577,0.050538607,10023
229,-4.288577,-0.10419825,10009
230,-4.288577,-0.14603172,10001
231,-4.288577,0.0,general
232,-4.188377,0.050538607,10023
233,-4.188377,-0.10419825,10009
234,-4.188377,-0.14603172,10001
235,-4.188377,0.0,general
236,-4.0881763,0.050538607,10023
237,-4.0881763,-0.10419825,10009
238,-4.0881763,-0.14603172,10001
239,-4.0881763,0.0,general
240,-3.9879758,0.050538607,10023
241,-3.9879758,-0.10419825,10009
242,-3.9879758,-0.14603172,10001
243,-3.9879758,0.0,general
244,-3.8877757,0.050538607,10023
245,-3.8877757,-0.10419825,10009
246,-3.8877757,-0.14603172,10001
247,-3.8877757,0.0,general
248,-3.7875752,0.050538607,10023
249,-3.7875752,-0.10419825,10009
250,-3.7875752,-0.14603172,10001
251,-3.7875752,0.0,general
252,-3.6873748,0.050538607,10023
253,-3.6873748,-0.10419825,10009
254,-3.6873748,-0.14603172,10001
255,-3.6873748,0.0,general
256,-3.5871744,0.050538607,10023
257,-3.5871744,-0.10419825,10009
258,-3.5871744,-0.14603172,10001
259,-3.5871744,0.0,general
260,-3.486974,0.050538607,10023
261,-3.486974,-0.10419825,10009
262,-3.486974,-0.14603172,10001
263,-3.486974,0.0,general
264,-3.3867736,0.050538607,10023
265,-3.3867736,-0.10419825,10009
266,-3.3867736,-0.14603172,10001
267,-3.3867736,0.0,general
268,-3.2865732,0.050538607,10023
269,-3.2865732,-0.10419825,10009
270,-3.2865732,-0.14603172,10001
271,-3.2865732,0.0,general
272,-3.1863728,0.050538607,10023
273,-3.1863728,-0.10419825,10009
274,-3.1863728,-0.14603172,10001
275,-3.1863728,0.0,general
276,-3.0861723,0.050538607,10023
277,-3.0861723,-0.10419825,10009
278,-3.0861723,-0.14603172,10001
279,-3.0861723,0.0,general
280,-2.985972,0.050538607,10023
281,-2.985972,-0.10419825,10009
282,-2.985972,-0.14603172,10001
283,-2.985972,0.0,general
284,-2.8857715,0.050538607,10023
285,-2.8857715,-0.10419825,10009
286,-2.8857715,-0.14603172,10001
287,-2.8857715,0.0,general
288,-2.785571,0.050538607,10023
289,-2.785571,-0.10419825,10009
290,-2.785571,-0.14603172,10001
291,-2.785571,0.0,general
292,-2.6853707,0.050538607,10023
293,-2.6853707,-0.10419825,10009
294,-2.6853707,-0.14603172,10001
295,-2.6853707,0.0,general
296,-2.5851703,0.050538607,10023
297,-2.5851703,-0.10419825,10009
298,-2.5851703,-0.14603172,10001
299,-2.5851703,0.0,general
300,-2.4849699,0.050538607,10023
301,-2.4849699,-0.10419825,10009
302,-2.4849699,-0.14603172,10001
303,-2.4849699,0.0,general
304,-2.3847694,0.050538607,10023
305,-2.3847694,-0.10419825,10009
306,-2.3847694,-0.14603172,10001
307,-2.3847694,0.0,general
308,-2.284569,0.050538607,10023
309,-2.284569,-0.10419825,10009
310,-2.284569,-0.14603172,10001
311,-2.284569,0.0,general
312,-2.1843688,0.050538607,10023
313,-2.1843688,-0.10419825,10009
314,-2.1843688,-0.14603172,10001
315,-2.1843688,0.0,general
316,-2.0841684,0.050538607,10023
317,-2.0841684,-0.10419825,10009
318,-2.0841684,-0.14603172,10001
319,-2.0841684,0.0,general
320,-1.9839679,0.050538607,10023
321,-1.9839679,-0.10419825,10009
322,-1.9839679,-0.14603172,10001
323,-1.9839679,0.0,general
324,-1.8837675,0.050538607,10023
325,-1.8837675,-0.10419825,10009
326,-1.8837675,-0.14603172,10001
327,-1.8837675,0.0,general
328,-1.7835672,0.050538607,10023
329,-1.7835672,-0.10419825,10009
330,-1.7835672,-0.14603172,10001
331,-1.7835672,0.0,general
332,-1.6833668,0.050538607,10023
333,-1.6833668,-0.10419825,10009
334,-1.6833668,-0.14603172,10001
335,-1.6833668,0.0,general
336,-1.5831664,0.050538607,10023
337,-1.5831664,-0.10419825,10009
338,-1.5831664,-0.14603172,10001
339,-1.5831664,0.0,general
340,-1.482966,0.050538607,10023
341,-1.482966,-0.10419825,10009
342,-1.482966,-0.14603172,10001
343,-1.482966,0.0,general
344,-1.3827655,0.050538607,10023
345,-1.3827655,-0.10419825,10009
346,-1.3827655,-0.14603172,10001
347,-1.3827655,0.0,general
348,-1.2825651,0.050538607,10023
349,-1.2825651,-0.10419825,10009
350,-1.2825651,-0.14603172,10001
351,-1.2825651,0.0,general
352,-1.1823647,0.050538607,10023
353,-1.1823647,-0.10419825,10009
354,-1.1823647,-0.14603172,10001
355,-1.1823647,0.0,general
356,-1.0821643,0.050538607,10023
357,-1.0821643,-0.10419825,10009
358,-1.0821643,-0.14603172,10001
359,-1.0821643,0.0,general
360,-0.98196393,0.050538607,10023
361,-0.98196393,-0.10419825,10009
362,-0.98196393,-0.14603172,10001
363,-0.98196393,0.0,general
364,-0.8817635,0.050538607,10023
365,-0.8817635,-0.10419825,10009
366,-0.8817635,-0.14603172,10001
367,-0.8817635,0.0,general
368,-0.7815631,0.050538607,10023
369,-0.7815631,-0.10419825,10009
370,-0.7815631,-0.14603172,10001
371,-0.7815631,0.0,general
372,-0.68136275,0.050538607,10023
373,-0.68136275,-0.10419825,10009
374,-0.68136275,-0.14603172,10001
375,-0.68136275,0.0,general
376,-0.58116233,0.050538607,10023
377,-0.58116233,-0.10419825,10009
378,-0.58116233,-0.14603172,10001
379,-0.58116233,0.0,general
380,-0.48096192,0.050538607,10023
381,-0.48096192,-0.10419825,10009
382,-0.48096192,-0.14603172,10001
383,-0.48096192,0.0,general
384,-0.38076153,0.050538607,10023
385,-0.38076153,-0.10419825,10009
386,-0.38076153,-0.14603172,10001
387,-0.38076153,0.0,general
388,-0.28056112,0.050538607,10023
389,-0.28056112,-0.10419825,10009
390,-0.28056112,-0.14603172,10001
391,-0.28056112,0.0,general
392,-0.18036072,0.050538607,10023
393,-0.18036072,-0.10419825,10009
394,-0.18036072,-0.14603172,10001
395,-0.18036072,0.0,general
396,-0.08016032,0.050538607,10023
397,-0.08016032,-0.10419825,10009
398,-0.08016032,-0.14603172,10001
399,-0.08016032,0.0,general
400,0.02004008,0.050538607,10023
401,0.02004008,-0.10419825,10009
402,0.02004008,-0.14603172,10001
403,0.02004008,0.0,general
404,0.12024048,0.050538607,10023
405,0.12024048,-0.10419825,10009
406,0.12024048,-0.14603172,10001
407,0.12024048,0.0,general
408,0.22044088,0.050538607,10023
409,0.22044088,-0.10419825,10009
410,0.22044088,-0.14603172,10001
411,0.22044088,0.0,general
412,0.32064128,0.050538607,10023
413,0.32064128,-0.10419825,10009
414,0.32064128,-0.14603172,10001
415,0.32064128,0.0,general
416,0.4208417,0.050538607,10023
417,0.4208417,-0.10419825,10009
418,0.4208417,-0.14603172,10001
419,0.4208417,0.0,general
420,0.5210421,0.050538607,10023
421,0.5210421,-0.10419825,10009
422,0.5210421,-0.14603172,10001
423,0.5210421,0.0,general
424,0.62124246,0.050538607,10023
425,0.62124246,-0.10419825,10009
426,0.62124246,-0.14603172,10001
427,0.62124246,0.0,general
428,0.7214429,0.050538607,10023
429,0.7214429,-0.10419825,10009
430,0.7214429,-0.14603172,10001
431,0.7214429,0.0,general
432,0.8216433,0.050538607,10023
433,0.8216433,-0.10419825,10009
434,0.8216433,-0.14603172,10001
435,0.8216433,0.0,general
436,0.9218437,0.050538607,10023
437,0.9218437,-0.10419825,10009
438,0.9218437,-0.14603172,10001
439,0.9218437,0.0,general
440,1.0220441,0.050538607,10023
441,1.0220441,-0.10419825,10009
442,1.0220441,-0.14603172,10001
443,1.0220441,0.0,general
444,1.1222445,0.050538607,10023
445,1.1222445,-0.10419825,10009
446,1.1222445,-0.14603172,10001
447,1.1222445,0.0,general
448,1.2224449,0.050538607,10023
449,1.2224449,-0.10419825,10009
450,1.2224449,-0.14603172,10001
451,1.2224449,0.0,general
452,1.3226453,0.050538607,10023
453,1.3226453,-0.10419825,10009
454,1.3226453,-0.14603172,10001
455,1.3226453,0.0,general
456,1.4228457,0.050538607,10023
457,1.4228457,-0.10419825,10009
458,1.4228457,-0.14603172,10001
459,1.4228457,0.0,general
460,1.5230461,0.050538607,10023
461,1.5230461,-0.10419825,10009
462,1.5230461,-0.14603172,10001
463,1.5230461,0.0,general
464,1.6232466,0.050538607,10023
465,1.6232466,-0.10419825,10009
466,1.6232466,-0.14603172,10001
467,1.6232466,0.0,general
468,1.7234468,0.050538607,10023
469,1.7234468,-0.10419825,10009
470,1.7234468,-0.14603172,10001
471,1.7234468,0.0,general
472,1.8236473,0.050538607,10023
473,1.8236473,-0.10419825,10009
474,1.8236473,-0.14603172,10001
475,1.8236473,0.0,general
476,1.9238477,0.050538607,10023
477,1.9238477,-0.10419825,10009
478,1.9238477,-0.14603172,10001
479,1.9238477,0.0,general
480,2.024048,0.050538607,10023
481,2.024048,-0.10419825,10009
482,2.024048,-0.14603172,10001
483,2.024048,0.0,general
484,2.1242485,0.050538607,10023
485,2.1242485,-0.10419825,10009
486,2.1242485,-0.14603172,10001
487,2.1242485,0.0,general
488,2.224449,0.050538607,10023
489,2.224449,-0.10419825,10009
490,2.224449,-0.14603172,10001
491,2.224449,0.0,general
492,2.3246493,0.050538607,10023
493,2.3246493,-0.10419825,10009
494,2.3246493,-0.14603172,10001
495,2.3246493,0.0,general
496,2.4248497,0.050538607,10023
497,2.4248497,-0.10419825,10009
498,2.4248497,-0.14603172,10001
499,2.4248497,0.0,general
500,2.5250502,0.050538607,10023
501,2.5250502,-0.10419825,10009
502,2.5250502,-0.14603172,10001
503,2.5250502,0.0,general
504,2.6252506,0.050538607,10023
505,2.6252506,-0.10419825,10009
506,2.6252506,-0.14603172,10001
507,2.6252506,0.0,general
508,2.725451,0.050538607,10023
509,2.725451,-0.10419825,10009
510,2.725451,-0.14603172,10001
511,2.725451,0.0,general
512,2.8256514,0.050538607,10023
513,2.8256514,-0.10419825,10009
514,2.8256514,-0.14603172,10001
515,2.8256514,0.0,general
516,2.9258518,0.050538607,10023
517,2.9258518,-0.10419825,10009
518,2.9258518,-0.14603172,10001
519,2.9258518,0.0,general
520,3.026052,0.050538607,10023
521,3.026052,-0.10419825,10009
522,3.026052,-0.14603172,10001
523,3.026052,0.0,general
524,3.1262524,0.050538607,10023
525,3.1262524,-0.10419825,10009
526,3.1262524,-0.14603172,10001
527,3.1262524,0.0,general
528,3.2264528,0.050538607,10023
529,3.2264528,-0.10419825,10009
530,3.2264528,-0.14603172,10001
531,3.2264528,0.0,general
532,3.3266532,0.050538607,10023
533,3.3266532,-0.10419825,10009
534,3.3266532,-0.14603172,10001
535,3.3266532,0.0,general
536,3.4268537,0.050538607,10023
537,3.4268537,-0.10419825,10009
538,3.4268537,-0.14603172,10001
539,3.4268537,0.0,general
540,3.527054,0.050538607,10023
541,3.527054,-0.10419825,10009
542,3.527054,-0.14603172,10001
543,3.527054,0.0,general
544,3.6272545,0.050538607,10023
545,3.6272545,-0.10419825,10009
546,3.6272545,-0.14603172,10001
547,3.6272545,0.0,general
548,3.727455,0.050538607,10023
549,3.727455,-0.10419825,10009
550,3.727455,-0.14603172,10001
551,3.727455,0.0,general
552,3.8276553,0.050538607,10023
553,3.8276553,-0.10419825,10009
554,3.8276553,-0.14603172,10001
555,3.8276553,0.0,general
556,3.9278557,0.050538607,10023
557,3.9278557,-0.10419825,10009
558,3.9278557,-0.14603172,10001
559,3.9278557,0.0,general
560,4.028056,0.050538607,10023
561,4.028056,-0.10419825,10009
562,4.028056,-0.14603172,10001
563,4.028056,0.0,general
564,4.1282563,0.050538607,10023
565,4.1282563,-0.10419825,10009
566,4.1282563,-0.14603172,10001
567,4.1282563,0.0,general
568,4.228457,0.050538607,10023
569,4.228457,-0.10419825,10009
570,4.228457,-0.14603172,10001
571,4.228457,0.0,general
572,4.328657,0.050538607,10023
573,4.328657,-0.10419825,10009
574,4.328657,-0.14603172,10001
575,4.328657,0.0,general
576,4.428858,0.050538607,10023
577,4.428858,-0.10419825,10009
578,4.428858,-0.14603172,10001
579,4.428858,0.0,general
580,4.529058,0.050538607,10023
581,4.529058,-0.10419825,10009
582,4.529058,-0.14603172,10001
583,4.529058,0.0,general
584,4.6292586,0.050538607,10023
585,4.6292586,-0.10419825,10009
586,4.6292586,-0.14603172,10001
587,4.6292586,0.0,general
588,4.729459,0.050538607,10023
589,4.729459,-0.10419825,10009
590,4.729459,-0.14603172,10001
591,4.729459,0.0,general
592,4.8296595,0.050538607,10023
593,4.8296595,-0.10419825,10009
594,4.8296595,-0.14603172,10001
595,4.8296595,0.0,general
596,4.9298596,0.050538607,10023
597,4.9298596,-0.10419825,10009
598,4.9298596,-0.14603172,10001
599,4.9298596,0.0,general
600,5.0300603,0.050538607,10023
601,5.0300603,-0.10419825,10009
602,5.0300603,-0.14603172,10001
603,5.0300603,0.0,general
604,5.1302605,0.050538607,10023
605,5.1302605,-0.10419825,10009
606,5.1302605,-0.14603172,10001
607,5.1302605,0.0,general
608,5.230461,0.050538607,10023
609,5.230461,-0.10419825,10009
610,5.230461,-0.14603172,10001
611,5.230461,0.0,general
612,5.3306613,0.050538607,10023
613,5.3306613,-0.10419825,10009
614,5.3306613,-0.14603172,10001
615,5.3306613,0.0,general
616,5.430862,0.050538607,10023
617,5.430862,-0.10419825,10009
618,5.430862,-0.14603172,10001
619,5.430862,0.0,general
620,5.531062,0.050538607,10023
621,5.531062,-0.10419825,10009
622,5.531062,-0.14603172,10001
623,5.531062,0.0,general
624,5.6312623,0.050538607,10023
625,5.6312623,-0.10419825,10009
626,5.6312623,-0.14603172,10001
627,5.6312623,0.0,general
628,5.731463,0.050538607,10023
629,5.731463,-0.10419825,10009
630,5.731463,-0.14603172,10001
631,5.731463,0.0,general
632,5.831663,0.050538607,10023
633,5.831663,-0.10419825,10009
634,5.831663,-0.14603172,10001
635,5.831663,0.0,general
636,5.931864,0.050538607,10023
637,5.931864,-0.10419825,10009
638,5.931864,-0.14603172,10001
639,5.931864,0.0,general
640,6.032064,0.050538607,10023
641,6.032064,-0.10419825,10009
642,6.032064,-0.14603172,10001
643,6.032064,0.0,general
644,6.1322646,0.050538607,10023
645,6.1322646,-0.10419825,10009
646,6.1322646,-0.14603172,10001
647,6.1322646,0.0,general
648,6.232465,0.050538607,10023
649,6.232465,-0.10419825,10009
650,6.232465,-0.14603172,10001
651,6.232465,0.0,general
652,6.3326654,0.050538607,10023
653,6.3326654,-0.10419825,10009
654,6.3326654,-0.14603172,10001
655,6.3326654,0.0,general
656,6.4328656,0.050538607,10023
657,6.4328656,-0.10419825,10009
658,6.4328656,-0.14603172,10001
659,6.4328656,0.0,general
660,6.5330663,0.050538607,10023
661,6.5330663,-0.10419825,10009
662,6.5330663,-0.14603172,10001
663,6.5330663,0.0,general
664,6.6332664,0.050538607,10023
665,6.6332664,-0.10419825,10009
666,6.6332664,-0.14603172,10001
667,6.6332664,0.0,general
668,6.733467,0.050538607,10023
669,6.733467,-0.10419825,10009
670,6.733467,-0.14603172,10001
671,6.733467,0.0,general
672,6.8336673,0.050538607,10023
673,6.8336673,-0.10419825,10009
674,6.8336673,-0.14603172,10001
675,6.8336673,0.0,general
676,6.933868,0.050538607,10023
677,6.933868,-0.10419825,10009
678,6.933868,-0.14603172,10001
679,6.933868,0.0,general
680,7.034068,0.050538607,10023
681,7.034068,-0.10419825,10009
682,7.034068,-0.14603172,10001
683,7.034068,0.0,general
684,7.1342688,0.050538607,10023
685,7.1342688,-0.10419825,10009
686,7.1342688,-0.14603172,10001
687,7.1342688,0.0,general
688,7.234469,0.050538607,10023
689,7.234469,-0.10419825,10009
690,7.234469,-0.14603172,10001
691,7.234469,0.0,general
692,7.334669,0.050538607,10023
693,7.334669,-0.10419825,10009
694,7.334669,-0.14603172,10001
695,7.334669,0.0,general
696,7.43487,0.050538607,10023
697,7.43487,-0.10419825,10009
698,7.43487,-0.14603172,10001
699,7.43487,0.0,general
700,7.53507,0.050538607,10023
701,7.53507,-0.10419825,10009
702,7.53507,-0.14603172,10001
703,7.53507,0.0,general
704,7.6352706,0.050538607,10023
705,7.6352706,-0.10419825,10009
706,7.6352706,-0.14603172,10001
707,7.6352706,0.0,general
708,7.735471,0.050538607,10023
709,7.735471,-0.10419825,10009
710,7.735471,-0.14603172,10001
711,7.735471,0.0,general
712,7.8356714,0.050538607,10023
713,7.8356714,-0.10419825,10009
714,7.8356714,-0.14603172,10001
715,7.8356714,0.0,general
716,7.9358716,0.050538607,10023
717,7.9358716,-0.10419825,10009
718,7.9358716,-0.14603172,10001
719,7.9358716,0.0,general
720,8.036072,0.050538607,10023
721,8.036072,-0.10419825,10009
722,8.036072,-0.14603172,10001
723,8.036072,0.0,general
724,8.136272,0.050538607,10023
725,8.136272,-0.10419825,10009
726,8.136272,-0.14603172,10001
727,8.136272,0.0,general
728,8.236473,0.050538607,10023
729,8.236473,-0.10419825,10009
730,8.236473,-0.14603172,10001
731,8.236473,0.0,general
732,8.336674,0.050538607,10023
733,8.336674,-0.10419825,10009
734,8.336674,-0.14603172,10001
735,8.336674,0.0,general
736,8.436873,0.050538607,10023
737,8.436873,-0.10419825,10009
738,8.436873,-0.14603172,10001
739,8.436873,0.0,general
740,8.537074,0.050538607,10023
741,8.537074,-0.10419825,10009
742,8.537074,-0.14603172,10001
743,8.537074,0.0,general
744,8.637275,0.050538607,10023
745,8.637275,-0.10419825,10009
746,8.637275,-0.14603172,10001
747,8.637275,0.0,general
748,8.737475,0.050538607,10023
749,8.737475,-0.10419825,10009
750,8.737475,-0.14603172,10001
751,8.737475,0.0,general
752,8.837675,0.050538607,10023
753,8.837675,-0.10419825,10009
754,8.837675,-0.14603172,10001
755,8.837675,0.0,general
756,8.937876,0.050538607,10023
757,8.937876,-0.10419825,10009
758,8.937876,-0.14603172,10001
759,8.937876,0.0,general
760,9.038076,0.050538607,10023
761,9.038076,-0.10419825,10009
762,9.038076,-0.14603172,10001
763,9.038076,0.0,general
764,9.138276,0.050538607,10023
765,9.138276,-0.10419825,10009
766,9.138276,-0.14603172,10001
767,9.138276,0.0,general
768,9.238477,0.050538607,10023
769,9.238477,-0.10419825,10009
770,9.238477,-0.14603172,10001
771,9.238477,0.0,general
772,9.338677,0.050538607,10023
773,9.338677,-0.10419825,10009
774,9.338677,-0.14603172,10001
775,9.338677,0.0,general
776,9.438878,0.050538607,10023
777,9.438878,-0.10419825,10009
778,9.438878,-0.14603172,10001
779,9.438878,0.0,general
780,9.539078,0.050538607,10023
781,9.539078,-0.10419825,10009
782,9.539078,-0.14603172,10001
783,9.539078,0.0,general
784,9.639278,0.050538607,10023
785,9.639278,-0.10419825,10009
786,9.639278,-0.14603172,10001
787,9.639278,0.0,general
788,9.739479,0.050538607,10023
789,9.739479,-0.10419825,10009
790,9.739479,-0.14603172,10001
791,9.739479,0.0,general
792,9.83968,0.050538607,10023
793,9.83968,-0.10419825,10009
794,9.83968,-0.14603172,10001
795,9.83968,0.0,general
796,9.939879,0.050538607,10023
797,9.939879,-0.10419825,10009
798,9.939879,-0.14603172,10001
799,9.939879,0.0,general
800,10.04008,0.050538607,10023
801,10.04008,-0.10419825,10009
802,10.04008,-0.14603172,10001
803,10.04008,0.0,general
804,10.140281,0.050538607,10023
805,10.140281,-0.10419825,10009
806,10.140281,-0.14603172,10001
807,10.140281,0.0,general
808,10.240481,0.050538607,10023
809,10.240481,-0.10419825,10009
810,10.240481,-0.14603172,10001
811,10.240481,0.0,general
812,10.340681,0.050538607,10023
813,10.340681,-0.10419825,10009
814,10.340681,-0.14603172,10001
815,10.340681,0.0,general
816,10.440882,0.050538607,10023
817,10.440882,-0.10419825,10009
818,10.440882,-0.14603172,10001
819,10.440882,0.0,general
820,10.541082,0.050538607,10023
821,10.541082,-0.10419825,10009
822,10.541082,-0.14603172,10001
823,10.541082,0.0,general
824,10.641283,0.050538607,10023
825,10.641283,-0.10419825,10009
826,10.641283,-0.14603172,10001
827,10.641283,0.0,general
828,10.741483,0.050538607,10023
829,10.741483,-0.10419825,10009
830,10.741483,-0.14603172,10001
831,10.741483,0.0,general
832,10.841683,0.050538607,10023
833,10.841683,-0.10419825,10009
834,10.841683,-0.14603172,10001
835,10.841683,0.0,general
836,10.941884,0.050538607,10023
837,10.941884,-0.10419825,10009
838,10.941884,-0.14603172,10001
839,10.941884,0.0,general
840,11.042084,0.050538607,10023
841,11.042084,-0.10419825,10009
842,11.042084,-0.14603172,10001
843,11.042084,0.0,general
844,11.142284,0.050538607,10023
845,11.142284,-0.10419825,10009
846,11.142284,-0.14603172,10001
847,11.142284,0.0,general
848,11.242485,0.050538607,10023
849,11.242485,-0.10419825,10009
850,11.242485,-0.14603172,10001
851,11.242485,0.0,general
852,11.342686,0.050538607,10023
853,11.342686,-0.10419825,10009
854,11.342686,-0.14603172,10001
855,11.342686,0.0,general
856,11.442885,0.050538607,10023
857,11.442885,-0.10419825,10009
858,11.442885,-0.14603172,10001
859,11.442885,0.0,general
860,11.543086,0.050538607,10023
861,11.543086,-0.10419825,10009
862,11.543086,-0.14603172,10001
863,11.543086,0.0,general
864,11.643287,0.050538607,10023
865,11.643287,-0.10419825,10009
866,11.643287,-0.14603172,10001
867,11.643287,0.0,general
868,11.743487,0.050538607,10023
869,11.743487,-0.10419825,10009
870,11.743487,-0.14603172,10001
871,11.743487,0.0,general
872,11.843687,0.050538607,10023
873,11.843687,-0.10419825,10009
874,11.843687,-0.14603172,10001
875,11.843687,0.0,general
876,11.943888,0.050538607,10023
877,11.943888,-0.10419825,10009
878,11.943888,-0.14603172,10001
879,11.943888,0.0,general
880,12.044088,0.050538607,10023
881,12.044088,-0.10419825,10009
882,12.044088,-0.14603172,10001
883,12.044088,0.0,general
884,12.144289,0.050538607,10023
885,12.144289,-0.10419825,10009
886,12.144289,-0.14603172,10001
887,12.144289,0.0,general
888,12.244489,0.050538607,10023
889,12.244489,-0.10419825,10009
890,12.244489,-0.14603172,10001
891,12.244489,0.0,general
892,12.344689,0.050538607,10023
893,12.344689,-0.10419825,10009
894,12.344689,-0.14603172,10001
895,12.344689,0.0,general
896,12.44489,0.050538607,10023
897,12.44489,-0.10419825,10009
898,12.44489,-0.14603172,10001
899,12.44489,0.0,general
900,12.54509,0.050538607,10023
901,12.54509,-0.10419825,10009
902,12.54509,-0.14603172,10001
903,12.54509,0.0,general
904,12.64529,0.050538607,10023
905,12.64529,-0.10419825,10009
906,12.64529,-0.14603172,10001
907,12.64529,0.0,general
908,12.745491,0.050538607,10023
909,12.745491,-0.10419825,10009
910,12.745491,-0.14603172,10001
911,12.745491,0.0,general
912,12.845692,0.050538607,10023
913,12.845692,-0.10419825,10009
914,12.845692,-0.14603172,10001
915,12.845692,0.0,general
916,12.945891,0.050538607,10023
917,12.945891,-0.10419825,10009
918,12.945891,-0.14603172,10001
919,12.945891,0.0,general
920,13.046092,0.050538607,10023
921,13.046092,-0.10419825,10009
922,13.046092,-0.14603172,10001
923,13.046092,0.0,general
924,13.146293,0.050538607,10023
925,13.146293,-0.10419825,10009
926,13.146293,-0.14603172,10001
927,13.146293,0.0,general
928,13.246493,0.050538607,10023
929,13.246493,-0.10419825,10009
930,13.246493,-0.14603172,10001
931,13.246493,0.0,general
932,13.346693,0.050538607,10023
933,13.346693,-0.10419825,10009
934,13.346693,-0.14603172,10001
935,13.346693,0.0,general
936,13.446894,0.050538607,10023
937,13.446894,-0.10419825,10009
938,13.446894,-0.14603172,10001
939,13.446894,0.0,general
940,13.547094,0.050538607,10023
941,13.547094,-0.10419825,10009
942,13.547094,-0.14603172,10001
943,13.547094,0.0,general
944,13.647295,0.050538607,10023
945,13.647295,-0.10419825,10009
946,13.647295,-0.14603172,10001
947,13.647295,0.0,general
948,13.747495,0.050538607,10023
949,13.747495,-0.10419825,10009
950,13.747495,-0.14603172,10001
951,13.747495,0.0,general
952,13.847695,0.050538607,10023
953,13.847695,-0.10419825,10009
954,13.847695,-0.14603172,10001
955,13.847695,0.0,general
956,13.947896,0.050538607,10023
957,13.947896,-0.10419825,10009
958,13.947896,-0.14603172,10001
959,13.947896,0.0,general
960,14.048097,0.050538607,10023
961,14.048097,-0.10419825,10009
962,14.048097,-0.14603172,10001
963,14.048097,0.0,general
964,14.148296,0.050538607,10023
965,14.148296,-0.10419825,10009
966,14.148296,-0.14603172,10001
967,14.148296,0.0,general
968,14.248497,0.050538607,10023
969,14.248497,-0.10419825,10009
970,14.248497,-0.14603172,10001
971,14.248497,0.0,general
972,14.348698,0.050538607,10023
973,14.348698,-0.10419825,10009
974,14.348698,-0.14603172,10001
975,14.348698,0.0,general
976,14.448897,0.050538607,10023
977,14.448897,-0.10419825,10009
978,14.448897,-0.14603172,10001
979,14.448897,0.0,general
980,14.549098,0.050538607,10023
981,14.549098,-0.10419825,10009
982,14.549098,-0.14603172,10001
983,14.549098,0.0,general
984,14.649299,0.050538607,10023
985,14.649299,-0.10419825,10009
986,14.649299,-0.14603172,10001
987,14.649299,0.0,general
988,14.749499,0.050538607,10023
989,14.749499,-0.10419825,10009
990,14.749499,-0.14603172,10001
991,14.749499,0.0,general
992,14.849699,0.05749486,10023
993,14.849699,-0.09682351,10009
994,14.849699,-0.1383753,10001
995,14.849699,0.0073892176,general
996,14.9499,0.07271256,10023
997,14.9499,-0.08069034,10009
998,14.9499,-0.12162587,10001
999,14.9499,0.023554087,general
1000,15.0501,0.08811245,10023
1001,15.0501,-0.064364016,10009
1002,15.0501,-0.104675926,10001
1003,15.0501,0.039912477,general
1004,15.150301,0.10369322,10023
1005,15.150301,-0.047845945,10009
1006,15.150301,-0.087526895,10001
1007,15.150301,0.056463003,general
1008,15.250501,0.119452864,10023
1009,15.250501,-0.031138219,10009
1010,15.250501,-0.070180975,10001
1011,15.250501,0.07320355,general
1012,15.350701,0.13539049,10023
1013,15.350701,-0.014241815,10009
1014,15.350701,-0.05263917,10001
1015,15.350701,0.090133145,general
1016,15.450902,0.15150373,10023
1017,15.450902,0.0028407723,10009
1018,15.450902,-0.03490407,10001
1019,15.450902,0.10724929,general
1020,15.551103,0.16779032,10023
1021,15.551103,0.02010715,10009
1022,15.551103,-0.01697816,10001
1023,15.551103,0.12454958,general
1024,15.651302,0.18424785,10023
1025,15.651302,0.03755474,10009
1026,15.651302,0.0011358857,10001
1027,15.651302,0.14203145,general
1028,15.751503,0.20087335,10023
1029,15.751503,0.0551804,10009
1030,15.751503,0.01943481,10001
1031,15.751503,0.15969174,general
1032,15.851704,0.21766382,10023
1033,15.851704,0.07298094,10009
1034,15.851704,0.03791529,10001
1035,15.851704,0.17752725,general
1036,15.951903,0.23461589,10023
1037,15.951903,0.09095283,10009
1038,15.951903,0.05657366,10001
1039,15.951903,0.19553444,general
1040,16.052105,0.251726,10023
1041,16.052105,0.10909225,10009
1042,16.052105,0.075405955,10001
1043,16.052105,0.21370949,general
1044,16.152304,0.26898953,10023
1045,16.152304,0.12739433,10009
1046,16.152304,0.09440714,10001
1047,16.152304,0.23204753,general
1048,16.252504,0.28640297,10023
1049,16.252504,0.14585534,10009
1050,16.252504,0.1135733,10001
1051,16.252504,0.2505448,general
1052,16.352705,0.3039614,10023
1053,16.352705,0.16447008,10009
1054,16.352705,0.13289909,10001
1055,16.352705,0.2691961,general
1056,16.452906,0.3216597,10023
1057,16.452906,0.18323308,10009
1058,16.452906,0.15237878,10001
1059,16.452906,0.28799596,general
1060,16.553106,0.33949292,10023
1061,16.553106,0.20213911,10009
1062,16.553106,0.17200698,10001
1063,16.553106,0.30693913,general
1064,16.653307,0.35745522,10023
1065,16.653307,0.22118196,10009
1066,16.653307,0.19177724,10001
1067,16.653307,0.3260194,general
1068,16.753508,0.375541,10023
1069,16.753508,0.24035579,10009
1070,16.753508,0.21168344,10001
1071,16.753508,0.34523088,general
1072,16.853708,0.39374375,10023
1073,16.853708,0.2596536,10009
1074,16.853708,0.23171838,10001
1075,16.853708,0.3645666,general
1076,16.953907,0.41205704,10023
1077,16.953907,0.27906856,10009
1078,16.953907,0.25187498,10001
1079,16.953907,0.3840197,general
1080,17.054108,0.43047455,10023
1081,17.054108,0.29859406,10009
1082,17.054108,0.27214628,10001
1083,17.054108,0.40358356,general
1084,17.154308,0.44898883,10023
1085,17.154308,0.3182221,10009
1086,17.154308,0.2925241,10001
1087,17.154308,0.42325017,general
1088,17.254509,0.4675929,10023
1089,17.254509,0.33794537,10009
1090,17.254509,0.31300074,10001
1091,17.254509,0.44301218,general
1092,17.35471,0.48627898,10023
1093,17.35471,0.35775557,10009
1094,17.35471,0.33356762,10001
1095,17.35471,0.4628613,general
1096,17.45491,0.50503933,10023
1097,17.45491,0.37764448,10009
1098,17.45491,0.35421622,10001
1099,17.45491,0.48278928,general
1100,17.55511,0.52386576,10023
1101,17.55511,0.39760348,10009
1102,17.55511,0.3749376,10001
1103,17.55511,0.5027875,general
1104,17.65531,0.5427497,10023
1105,17.65531,0.4176235,10009
1106,17.65531,0.39572233,10001
1107,17.65531,0.5228468,general
1108,17.75551,0.56168306,10023
1109,17.75551,0.43769583,10009
1110,17.75551,0.41656142,10001
1111,17.75551,0.5429586,general
1112,17.855711,0.5806576,10023
1113,17.855711,0.45781186,10009
1114,17.855711,0.43744582,10001
1115,17.855711,0.56311417,general
1116,17.955912,0.59966385,10023
1117,17.955912,0.47796145,10009
1118,17.955912,0.45836508,10001
1119,17.955912,0.58330333,general
1120,18.056112,0.6186931,10023
1121,18.056112,0.49813554,10009
1122,18.056112,0.47930974,10001
1123,18.056112,0.603517,general
1124,18.156313,0.637736,10023
1125,18.156313,0.518324,10009
1126,18.156313,0.5002694,10001
1127,18.156313,0.6237452,general
1128,18.256514,0.65678376,10023
1129,18.256514,0.5385177,10009
1130,18.256514,0.5212344,10001
1131,18.256514,0.6439785,general
1132,18.356714,0.6758269,10023
1133,18.356714,0.5587064,10009
1134,18.356714,0.54219425,10001
1135,18.356714,0.66420686,general
1136,18.456913,0.694856,10023
1137,18.456913,0.5788802,10009
1138,18.456913,0.5631387,10001
1139,18.456913,0.68442035,general
1140,18.557114,0.71386206,10023
1141,18.557114,0.59902966,10009
1142,18.557114,0.58405787,10001
1143,18.557114,0.7046094,general
1144,18.657314,0.7328356,10023
1145,18.657314,0.61914456,10009
1146,18.657314,0.60494107,10001
1147,18.657314,0.7247638,general
1148,18.757515,0.7517675,10023
1149,18.757515,0.63921547,10009
1150,18.757515,0.6257786,10001
1151,18.757515,0.7448741,general
1152,18.857716,0.77064806,10023
1153,18.857716,0.6592318,10009
1154,18.857716,0.64655954,10001
1155,18.857716,0.7649298,general
1156,18.957916,0.7894684,10023
1157,18.957916,0.67918444,10009
1158,18.957916,0.66727424,10001
1159,18.957916,0.7849215,general
1160,19.058117,0.8082195,10023
1161,19.058117,0.69906354,10009
1162,19.058117,0.6879127,10001
1163,19.058117,0.80483973,general
1164,19.158318,0.8268923,10023
1165,19.158318,0.7188597,10009
1166,19.158318,0.708465,10001
1167,19.158318,0.8246747,general
1168,19.258516,0.8454774,10023
1169,19.258516,0.7385628,10009
1170,19.258516,0.7289208,10001
1171,19.258516,0.8444166,general
1172,19.358717,0.86396754,10023
1173,19.358717,0.75816524,10009
1174,19.358717,0.749272,10001
1175,19.358717,0.86405754,general
1176,19.458918,0.882353,10023
1177,19.458918,0.7776568,10009
1178,19.458918,0.769508,10001
1179,19.458918,0.88358736,general
1180,19.559118,0.90062624,10023
1181,19.559118,0.7970294,10009
1182,19.559118,0.7896206,10001
1183,19.559118,0.902998,general
1184,19.659319,0.9187789,10023
1185,19.659319,0.8162739,10009
1186,19.659319,0.80960035,10001
1187,19.659319,0.92228043,general
1188,19.75952,0.93680334,10023
1189,19.75952,0.8353828,10009
1190,19.75952,0.82943904,10001
1191,19.75952,0.94142675,general
1192,19.85972,0.9546921,10023
1193,19.85972,0.8543477,10009
1194,19.85972,0.84912837,10001
1195,19.85972,0.96042895,general
1196,19.959919,0.9724376,10023
1197,19.959919,0.8731607,10009
1198,19.959919,0.86866,10001
1199,19.959919,0.9792789,general
1200,20.06012,0.9900334,10023
1201,20.06012,0.89181507,10009
1202,20.06012,0.88802683,10001
1203,20.06012,0.99796987,general
1204,20.16032,1.0074728,10023
1205,20.16032,0.9103035,10009
1206,20.16032,0.90722156,10001
1207,20.16032,1.0164946,general
1208,20.26052,1.024749,10023
1209,20.26052,0.928619,10009
1210,20.26052,0.92623675,10001
1211,20.26052,1.0348462,general
1212,20.360722,1.0418565,10023
1213,20.360722,0.9467559,10009
1214,20.360722,0.9450662,10001
1215,20.360722,1.0530186,general
1216,20.460922,1.0587898,10023
1217,20.460922,0.96470773,10009
1218,20.460922,0.9637039,10001
1219,20.460922,1.0710057,general
1220,20.561123,1.075543,10023
1221,20.561123,0.98246884,10009
1222,20.561123,0.9821434,10001
1223,20.561123,1.0888017,general
1224,20.661324,1.0921117,10023
1225,20.661324,1.0000342,10009
1226,20.661324,1.0003797,10001
1227,20.661324,1.1064016,general
1228,20.761522,1.1084902,10023
1229,20.761522,1.017398,10009
1230,20.761522,1.0184069,10001
1231,20.761522,1.1237996,general
1232,20.861723,1.1246754,10023
1233,20.861723,1.0345569,10009
1234,20.861723,1.036221,10001
1235,20.861723,1.140992,general
1236,20.961924,1.140663,10023
1237,20.961924,1.0515063,10009
1238,20.961924,1.053818,10001
1239,20.961924,1.1579748,general
1240,21.062124,1.1564497,10023
1241,21.062124,1.0682427,10009
1242,21.062124,1.0711936,10001
1243,21.062124,1.174744,general
1244,21.162325,1.1720314,10023
1245,21.162325,1.0847617,10009
1246,21.162325,1.0883437,10001
1247,21.162325,1.1912956,general
1248,21.262526,1.1874058,10023
1249,21.262526,1.1010611,10009
1250,21.262526,1.1052656,10001
1251,21.262526,1.2076269,general
1252,21.362726,1.2025702,10023
1253,21.362726,1.1171377,10009
1254,21.362726,1.1219562,10001
1255,21.362726,1.2237351,general
1256,21.462925,1.2175221,10023
1257,21.462925,1.1329892,10009
1258,21.462925,1.1384132,10001
1259,21.462925,1.2396177,general
1260,21.563126,1.2322599,10023
1261,21.563126,1.1486135,10009
1262,21.563126,1.1546344,10001
1263,21.563126,1.2552727,general
1264,21.663326,1.2467821,10023
1265,21.663326,1.1640092,10009
1266,21.663326,1.1706182,10001
1267,21.663326,1.2706988,general
1268,21.763527,1.2610867,10023
1269,21.763527,1.1791745,10009
1270,21.763527,1.1863627,10001
1271,21.763527,1.2858938,general
1272,21.863728,1.2751733,10023
1273,21.863728,1.1941085,10009
1274,21.863728,1.2018672,10001
1275,21.863728,1.3008572,general
1276,21.963928,1.2890409,10023
1277,21.963928,1.2088103,10009
1278,21.963928,1.2171307,10001
1279,21.963928,1.3155879,general
1280,22.064129,1.302689,10023
1281,22.064129,1.2232795,10009
1282,22.064129,1.2321523,10001
1283,22.064129,1.3300854,general
1284,22.16433,1.3161173,10023
1285,22.16433,1.2375156,10009
1286,22.16433,1.2469323,10001
1287,22.16433,1.3443495,general
1288,22.264528,1.3293259,10023
1289,22.264528,1.2515187,10009
1290,22.264528,1.2614704,10001
1291,22.264528,1.3583802,general
1292,22.364729,1.3423153,10023
1293,22.364729,1.2652895,10009
1294,22.364729,1.2757672,10001
1295,22.364729,1.3721781,general
1296,22.46493,1.3550858,10023
1297,22.46493,1.2788284,10009
1298,22.46493,1.2898232,10001
1299,22.46493,1.3857435,general
1300,22.56513,1.3676382,10023
1301,22.56513,1.292136,10009
1302,22.56513,1.303639,10001
1303,22.56513,1.3990772,general
1304,22.66533,1.3799735,10023
1305,22.66533,1.3052133,10009
1306,22.66533,1.3172159,10001
1307,22.66533,1.4121802,general
1308,22.765532,1.3920925,10023
1309,22.765532,1.3180614,10009
1310,22.765532,1.3305547,10001
1311,22.765532,1.4250535,general
1312,22.865732,1.4039967,10023
1313,22.865732,1.3306817,10009
1314,22.865732,1.3436571,10001
1315,22.865732,1.4376986,general
1316,22.96593,1.4156872,10023
1317,22.96593,1.3430755,10009
1318,22.96593,1.3565243,10001
1319,22.96593,1.4501168,general
1320,23.066132,1.4271663,10023
1321,23.066132,1.3552451,10009
1322,23.066132,1.3691589,10001
1323,23.066132,1.4623103,general
1324,23.166332,1.4384353,10023
1325,23.166332,1.367192,10009
1326,23.166332,1.3815621,10001
1327,23.166332,1.4742807,general
1328,23.266533,1.4494965,10023
1329,23.266533,1.3789186,10009
1330,23.266533,1.3937366,10001
1331,23.266533,1.4860303,general
1332,23.366734,1.4603513,10023
1333,23.366734,1.3904265,10009
1334,23.366734,1.4056841,10001
1335,23.366734,1.4975609,general
1336,23.466934,1.4710025,10023
1337,23.466934,1.4017184,10009
1338,23.466934,1.4174073,10001
1339,23.466934,1.5088749,general
1340,23.567135,1.4814517,10023
1341,23.567135,1.4127964,10009
1342,23.567135,1.4289083,10001
1343,23.567135,1.5199746,general
1344,23.667336,1.491702,10023
1345,23.667336,1.4236631,10009
1346,23.667336,1.4401902,10001
1347,23.667336,1.5308627,general
1348,23.767534,1.5017552,10023
1349,23.767534,1.4343212,10009
1350,23.767534,1.4512554,10001
1351,23.767534,1.5415417,general
1352,23.867735,1.511614,10023
1353,23.867735,1.4447731,10009
1354,23.867735,1.4621065,10001
1355,23.867735,1.5520141,general
1356,23.967936,1.5212812,10023
1357,23.967936,1.4550219,10009
1358,23.967936,1.4727468,10001
1359,23.967936,1.562283,general
1360,24.068136,1.5307592,10023
1361,24.068136,1.46507,10009
1362,24.068136,1.4831789,10001
1363,24.068136,1.572351,general
1364,24.168337,1.540051,10023
1365,24.168337,1.4749207,10009
1366,24.168337,1.4934058,10001
1367,24.168337,1.582221,general
1368,24.268538,1.5491587,10023
1369,24.268538,1.4845765,10009
1370,24.268538,1.5034304,10001
1371,24.268538,1.5918957,general
1372,24.368738,1.5580862,10023
1373,24.368738,1.494041,10009
1374,24.368738,1.5132563,10001
1375,24.368738,1.6013788,general
1376,24.468939,1.5668352,10023
1377,24.468939,1.5033163,10009
1378,24.468939,1.5228859,10001
1379,24.468939,1.6106724,general
1380,24.569138,1.5754088,10023
1381,24.569138,1.5124056,10009
1382,24.569138,1.5323225,10001
1383,24.569138,1.6197796,general
1384,24.669338,1.5838102,10023
1385,24.669338,1.5213126,10009
1386,24.669338,1.5415696,10001
1387,24.669338,1.628704,general
1388,24.769539,1.592042,10023
1389,24.769539,1.5300395,10009
1390,24.769539,1.55063,10001
1391,24.769539,1.6374481,general
1392,24.86974,1.6001073,10023
1393,24.86974,1.5385901,10009
1394,24.86974,1.5595071,10001
1395,24.86974,1.6460154,general
1396,24.96994,1.608009,10023
1397,24.96994,1.546967,10009
1398,24.96994,1.568204,10001
1399,24.96994,1.6544088,general
1400,25.07014,1.6157497,10023
1401,25.07014,1.5551735,10009
1402,25.07014,1.5767239,10001
1403,25.07014,1.6626314,general
1404,25.170341,1.6233324,10023
1405,25.170341,1.5632123,10009
1406,25.170341,1.5850699,10001
1407,25.170341,1.670686,general
1408,25.27054,1.63076,10023
1409,25.27054,1.5710866,10009
1410,25.27054,1.593245,10001
1411,25.27054,1.6785759,general
1412,25.37074,1.6380355,10023
1413,25.37074,1.5787998,10009
1414,25.37074,1.6012528,10001
1415,25.37074,1.6863042,general
1416,25.470942,1.6451617,10023
1417,25.470942,1.5863549,10009
1418,25.470942,1.6090964,10001
1419,25.470942,1.693874,general
1420,25.571142,1.6521417,10023
1421,25.571142,1.5937546,10009
1422,25.571142,1.6167789,10001
1423,25.571142,1.7012883,general
1424,25.671343,1.6589773,10023
1425,25.671343,1.6010014,10009
1426,25.671343,1.6243024,10001
1427,25.671343,1.7085494,general
1428,25.771544,1.6656725,10023
1429,25.771544,1.6080995,10009
1430,25.771544,1.6316717,10001
1431,25.771544,1.7156614,general
1432,25.871744,1.6722293,10023
1433,25.871744,1.6150508,10009
1434,25.871744,1.6388885,10001
1435,25.871744,1.7226263,general
1436,25.971945,1.6786507,10023
1437,25.971945,1.6218585,10009
1438,25.971945,1.6459562,10001
1439,25.971945,1.7294474,general
1440,26.072144,1.6849394,10023
1441,26.072144,1.6285255,10009
1442,26.072144,1.6528778,10001
1443,26.072144,1.7361275,general
1444,26.172344,1.6910981,10023
1445,26.172344,1.6350546,10009
1446,26.172344,1.6596564,10001
1447,26.172344,1.7426695,general
1448,26.272545,1.6971295,10023
1449,26.272545,1.6414489,10009
1450,26.272545,1.6662948,10001
1451,26.272545,1.7490762,general
1452,26.372746,1.7030361,10023
1453,26.372746,1.6477108,10009
1454,26.372746,1.672796,10001
1455,26.372746,1.7553505,general
1456,26.472946,1.7088206,10023
1457,26.472946,1.6538433,10009
1458,26.472946,1.6791627,10001
1459,26.472946,1.761495,general
1460,26.573147,1.7144852,10023
1461,26.573147,1.6598487,10009
1462,26.573147,1.6853975,10001
1463,26.573147,1.7675122,general
1464,26.673347,1.7200327,10023
1465,26.673347,1.6657299,10009
1466,26.673347,1.6915033,10001
1467,26.673347,1.773405,general
1468,26.773546,1.7254654,10023
1469,26.773546,1.6714895,10009
1470,26.773546,1.697483,10001
1471,26.773546,1.7791759,general
1472,26.873747,1.7307858,10023
1473,26.873747,1.67713,10009
1474,26.873747,1.7033389,10001
1475,26.873747,1.7848275,general
1476,26.973948,1.7359966,10023
1477,26.973948,1.6826541,10009
1478,26.973948,1.709074,10001
1479,26.973948,1.7903625,general
1480,27.074148,1.7410996,10023
1481,27.074148,1.6880642,10009
1482,27.074148,1.7146908,10001
1483,27.074148,1.7957832,general
1484,27.174349,1.7460974,10023
1485,27.174349,1.6933626,10009
1486,27.174349,1.7201916,10001
1487,27.174349,1.801092,general
1488,27.27455,1.750992,10023
1489,27.27455,1.6985517,10009
1490,27.27455,1.7255788,10001
1491,27.27455,1.8062912,general
1492,27.37475,1.7557862,10023
1493,27.37475,1.7036343,10009
1494,27.37475,1.7308556,10001
1495,27.37475,1.8113838,general
1496,27.47495,1.7604817,10023
1497,27.47495,1.7086122,10009
1498,27.47495,1.7360237,10001
1499,27.47495,1.8163716,general
1500,27.57515,1.7650803,10023
1501,27.57515,1.7134876,10009
1502,27.57515,1.7410853,10001
1503,27.57515,1.8212565,general
1504,27.67535,1.769585,10023
1505,27.67535,1.7182633,10009
1506,27.67535,1.7460434,10001
1507,27.67535,1.8260416,general
1508,27.77555,1.7739975,10023
1509,27.77555,1.7229412,10009
1510,27.77555,1.7509,10001
1511,27.77555,1.8307287,general
1512,27.875751,1.7783194,10023
1513,27.875751,1.727523,10009
1514,27.875751,1.7556568,10001
1515,27.875751,1.8353195,general
1516,27.975952,1.7825531,10023
1517,27.975952,1.7320113,10009
1518,27.975952,1.7603166,10001
1519,27.975952,1.8398167,general
1520,28.076153,1.7867001,10023
1521,28.076153,1.736408,10009
1522,28.076153,1.7648813,10001
1523,28.076153,1.844222,general
1524,28.176353,1.7907634,10023
1525,28.176353,1.7407156,10009
1526,28.176353,1.7693534,10001
1527,28.176353,1.848538,general
1528,28.276552,1.7947433,10023
1529,28.276552,1.7449349,10009
1530,28.276552,1.7737339,10001
1531,28.276552,1.8527657,general
1532,28.376753,1.7986426,10023
1533,28.376753,1.7490689,10009
1534,28.376753,1.7780257,10001
1535,28.376753,1.8569077,general
1536,28.476954,1.8024632,10023
1537,28.476954,1.7531193,10009
1538,28.476954,1.7822309,10001
1539,28.476954,1.8609661,general
1540,28.577154,1.8062066,10023
1541,28.577154,1.7570878,10009
1542,28.577154,1.786351,10001
1543,28.577154,1.8649424,general
1544,28.677355,1.8098743,10023
1545,28.677355,1.7609762,10009
1546,28.677355,1.7903879,10001
1547,28.677355,1.8688384,general
1548,28.777555,1.8134679,10023
1549,28.777555,1.7647859,10009
1550,28.777555,1.7943431,10001
1551,28.777555,1.8726556,general
1552,28.877756,1.8169894,10023
1553,28.877756,1.7685194,10009
1554,28.877756,1.7982192,10001
1555,28.877756,1.8763964,general
1556,28.977957,1.8204404,10023
1557,28.977957,1.772178,10009
1558,28.977957,1.8020176,10001
1559,28.977957,1.8800622,general
1560,29.078156,1.823822,10023
1561,29.078156,1.7757629,10009
1562,29.078156,1.8057395,10001
1563,29.078156,1.8836542,general
1564,29.178356,1.8271363,10023
1565,29.178356,1.7792767,10009
1566,29.178356,1.8093873,10001
1567,29.178356,1.8871748,general
1568,29.278557,1.8303844,10023
1569,29.278557,1.7827202,10009
1570,29.278557,1.8129624,10001
1571,29.278557,1.8906251,general
1572,29.378757,1.8335682,10023
1573,29.378757,1.7860955,10009
1574,29.378757,1.8164667,10001
1575,29.378757,1.8940071,general
1576,29.478958,1.8366885,10023
1577,29.478958,1.7894036,10009
1578,29.478958,1.8199011,10001
1579,29.478958,1.8973216,general
1580,29.579159,1.8397475,10023
1581,29.579159,1.7926465,10009
1582,29.579159,1.8232679,10001
1583,29.579159,1.900571,general
1584,29.67936,1.8427455,10023
1585,29.67936,1.795825,10009
1586,29.67936,1.8265678,10001
1587,29.67936,1.9037557,general
1588,29.779558,1.8456848,10023
1589,29.779558,1.798941,10009
1590,29.779558,1.8298028,10001
1591,29.779558,1.9068778,general
1592,29.879759,1.8485663,10023
1593,29.879759,1.8019959,10009
1594,29.879759,1.8329744,10001
1595,29.879759,1.9099387,general
1596,29.97996,1.8513912,10023
1597,29.97996,1.8049908,10009
1598,29.97996,1.8360837,10001
1599,29.97996,1.9129394,general
1600,30.08016,1.8541609,10023
1601,30.08016,1.807927,10009
1602,30.08016,1.8391322,10001
1603,30.08016,1.9158815,general
1604,30.18036,1.8568767,10023
1605,30.18036,1.8108063,10009
1606,30.18036,1.8421214,10001
1607,30.18036,1.9187664,general
1608,30.280561,1.8595396,10023
1609,30.280561,1.8136293,10009
1610,30.280561,1.8450522,10001
1611,30.280561,1.921595,general
1612,30.380762,1.8621508,10023
1613,30.380762,1.8163977,10009
1614,30.380762,1.8479263,10001
1615,30.380762,1.9243687,general
1616,30.480963,1.8647115,10023
1617,30.480963,1.8191124,10009
1618,30.480963,1.8507447,10001
1619,30.480963,1.9270889,general
1620,30.581161,1.8672228,10023
1621,30.581161,1.8217747,10009
1622,30.581161,1.8535088,10001
1623,30.581161,1.9297564,general
1624,30.681362,1.8696855,10023
1625,30.681362,1.8243856,10009
1626,30.681362,1.8562194,10001
1627,30.681362,1.9323725,general
1628,30.781563,1.8721011,10023
1629,30.781563,1.8269465,10009
1630,30.781563,1.858878,10001
1631,30.781563,1.9349383,general
1632,30.881763,1.8744706,10023
1633,30.881763,1.8294586,10009
1634,30.881763,1.8614861,10001
1635,30.881763,1.9374553,general
1636,30.981964,1.8767946,10023
1637,30.981964,1.8319223,10009
1638,30.981964,1.8640438,10001
1639,30.981964,1.9399239,general
1640,31.082165,1.8790745,10023
1641,31.082165,1.8343394,10009
1642,31.082165,1.8665534,10001
1643,31.082165,1.9423457,general
1644,31.182365,1.8813112,10023
1645,31.182365,1.8367106,10009
1646,31.182365,1.8690151,10001
1647,31.182365,1.9447216,general
1648,31.282566,1.8835051,10023
1649,31.282566,1.8390366,10009
1650,31.282566,1.87143,10001
1651,31.282566,1.9470521,general
1652,31.382765,1.8856578,10023
1653,31.382765,1.8413187,10009
1654,31.382765,1.8737992,10001
1655,31.382765,1.9493388,general
1656,31.482965,1.8877698,10023
1657,31.482965,1.8435578,10009
1658,31.482965,1.876124,10001
1659,31.482965,1.9515823,general
1660,31.583166,1.8898424,10023
1661,31.583166,1.8457551,10009
1662,31.583166,1.8784052,10001
1663,31.583166,1.9537839,general
1664,31.683367,1.891876,10023
1665,31.683367,1.847911,10009
1666,31.683367,1.8806432,10001
1667,31.683367,1.955944,general
1668,31.783567,1.8938715,10023
1669,31.783567,1.8500266,10009
1670,31.783567,1.8828398,10001
1671,31.783567,1.9580637,general
1672,31.883768,1.8958298,10023
1673,31.883768,1.8521026,10009
1674,31.883768,1.8849951,10001
1675,31.883768,1.9601439,general
1676,31.983969,1.897752,10023
1677,31.983969,1.8541405,10009
1678,31.983969,1.8871108,10001
1679,31.983969,1.9621857,general
1680,32.084167,1.8996385,10023
1681,32.084167,1.8561405,10009
1682,32.084167,1.8891872,10001
1683,32.084167,1.9641896,general
1684,32.18437,1.90149,10023
1685,32.18437,1.8581034,10009
1686,32.18437,1.891225,10001
1687,32.18437,1.9661564,general
1688,32.28457,1.9033073,10023
1689,32.28457,1.86003,10009
1690,32.28457,1.8932253,10001
1691,32.28457,1.9680868,general
1692,32.38477,1.9050915,10023
1693,32.38477,1.8619215,10009
1694,32.38477,1.8951892,10001
1695,32.38477,1.969982,general
1696,32.48497,1.9068427,10023
1697,32.48497,1.8637781,10009
1698,32.48497,1.8971165,10001
1699,32.48497,1.9718423,general
1700,32.58517,1.9085621,10023
1701,32.58517,1.865601,10009
1702,32.58517,1.8990091,10001
1703,32.58517,1.9736687,general
1704,32.68537,1.9102501,10023
1705,32.68537,1.8673905,10009
1706,32.68537,1.9008669,10001
1707,32.68537,1.9754617,general
1708,32.785572,1.9119074,10023
1709,32.785572,1.8691475,10009
1710,32.785572,1.902691,10001
1711,32.785572,1.9772222,general
1712,32.885773,1.913535,10023
1713,32.885773,1.870873,10009
1714,32.885773,1.9044825,10001
1715,32.885773,1.9789511,general
1716,32.985973,1.9151326,10023
1717,32.985973,1.8725667,10009
1718,32.985973,1.9062408,10001
1719,32.985973,1.9806482,general
1720,33.086174,1.9167019,10023
1721,33.086174,1.8742304,10009
1722,33.086174,1.9079682,10001
1723,33.086174,1.9823151,general
1724,33.18637,1.9182428,10023
1725,33.18637,1.875864,10009
1726,33.18637,1.909664,10001
1727,33.18637,1.9839519,general
1728,33.28657,1.9197559,10023
1729,33.28657,1.8774682,10009
1730,33.28657,1.9113296,10001
1731,33.28657,1.9855592,general
1732,33.386772,1.9212422,10023
1733,33.386772,1.8790439,10009
1734,33.386772,1.9129654,10001
1735,33.386772,1.987138,general
1736,33.486973,1.9227023,10023
1737,33.486973,1.8805918,10009
1738,33.486973,1.9145724,10001
1739,33.486973,1.988689,general
1740,33.587173,1.9241362,10023
1741,33.587173,1.8821119,10009
1742,33.587173,1.9161507,10001
1743,33.587173,1.9902121,general
1744,33.687374,1.9255446,10023
1745,33.687374,1.883605,10009
1746,33.687374,1.9177009,10001
1747,33.687374,1.9917082,general
1748,33.787575,1.926928,10023
1749,33.787575,1.8850718,10009
1750,33.787575,1.9192237,10001
1751,33.787575,1.9931778,general
1752,33.887775,1.9282874,10023
1753,33.887775,1.8865128,10009
1754,33.887775,1.9207197,10001
1755,33.887775,1.9946216,general
1756,33.987976,1.9296228,10023
1757,33.987976,1.8879286,10009
1758,33.987976,1.9221896,10001
1759,33.987976,1.9960402,general
1760,34.088177,1.9309345,10023
1761,34.088177,1.8893193,10009
1762,34.088177,1.9236335,10001
1763,34.088177,1.9974337,general
1764,34.188377,1.9322234,10023
1765,34.188377,1.8906858,10009
1766,34.188377,1.925052,10001
1767,34.188377,1.9988028,general
1768,34.288578,1.9334902,10023
1769,34.288578,1.8920287,10009
1770,34.288578,1.9264461,10001
1771,34.288578,2.0001483,general
1772,34.38878,1.9347347,10023
1773,34.38878,1.8933481,10009
1774,34.38878,1.927816,10001
1775,34.38878,2.0014703,general
1776,34.48898,1.9359578,10023
1777,34.48898,1.8946446,10009
1778,34.48898,1.9291621,10001
1779,34.48898,2.0027695,general
1780,34.58918,1.9371597,10023
1781,34.58918,1.8959188,10009
1782,34.58918,1.9304851,10001
1783,34.58918,2.0040462,general
1784,34.68938,1.9383408,10023
1785,34.68938,1.897171,10009
1786,34.68938,1.931785,10001
1787,34.68938,2.0053008,general
1788,34.789577,1.9395014,10023
1789,34.789577,1.8984015,10009
1790,34.789577,1.9330624,10001
1791,34.789577,2.0065336,general
1792,34.88978,1.9406425,10023
1793,34.88978,1.8996112,10009
1794,34.88978,1.9343184,10001
1795,34.88978,2.0077457,general
1796,34.98998,1.941764,10023
1797,34.98998,1.9008002,10009
1798,34.98998,1.935553,10001
1799,34.98998,2.0089371,general
1800,35.09018,1.9428661,10023
1801,35.09018,1.9019685,10009
1802,35.09018,1.9367658,10001
1803,35.09018,2.0101078,general
1804,35.19038,1.9439497,10023
1805,35.19038,1.9031174,10009
1806,35.19038,1.9379586,10001
1807,35.19038,2.0112588,general
1808,35.29058,1.945015,10023
1809,35.29058,1.9042468,10009
1810,35.29058,1.9391309,10001
1811,35.29058,2.0123904,general
1812,35.39078,1.946062,10023
1813,35.39078,1.9053566,10009
1814,35.39078,1.9402834,10001
1815,35.39078,2.0135026,general
1816,35.490982,1.9470916,10023
1817,35.490982,1.9064481,10009
1818,35.490982,1.9414166,10001
1819,35.490982,2.0145962,general
1820,35.591183,1.9481038,10023
1821,35.591183,1.9075215,10009
1822,35.591183,1.9425308,10001
1823,35.591183,2.0156715,general
1824,35.691383,1.949099,10023
1825,35.691383,1.9085765,10009
1826,35.691383,1.943626,10001
1827,35.691383,2.0167286,general
1828,35.791584,1.9500777,10023
1829,35.791584,1.9096138,10009
1830,35.791584,1.9447032,10001
1831,35.791584,2.0177681,general
1832,35.891785,1.9510398,10023
1833,35.891785,1.910634,10009
1834,35.891785,1.9457623,10001
1835,35.891785,2.0187902,general
1836,35.991985,1.9519861,10023
1837,35.991985,1.9116373,10009
1838,35.991985,1.9468037,10001
1839,35.991985,2.0197954,general
1840,36.092186,1.9529166,10023
1841,36.092186,1.9126239,10009
1842,36.092186,1.9478279,10001
1843,36.092186,2.020784,general
1844,36.192387,1.9538317,10023
1845,36.192387,1.913594,10009
1846,36.192387,1.9488353,10001
1847,36.192387,2.021756,general
1848,36.292583,1.9547316,10023
1849,36.292583,1.9145479,10009
1850,36.292583,1.9498256,10001
1851,36.292583,2.0227118,general
1852,36.392784,1.9556167,10023
1853,36.392784,1.9154863,10009
1854,36.392784,1.9507998,10001
1855,36.392784,2.023652,general
1856,36.492985,1.9564872,10023
1857,36.492985,1.916409,10009
1858,36.492985,1.951758,10001
1859,36.492985,2.0245767,general
1860,36.593185,1.9573437,10023
1861,36.593185,1.9173172,10009
1862,36.593185,1.9527007,10001
1863,36.593185,2.0254865,general
1864,36.693386,1.9581858,10023
1865,36.693386,1.91821,10009
1866,36.693386,1.9536275,10001
1867,36.693386,2.026381,general
1868,36.793587,1.9590144,10023
1869,36.793587,1.9190884,10009
1870,36.793587,1.9545397,10001
1871,36.793587,2.0272613,general
1872,36.893787,1.9598297,10023
1873,36.893787,1.9199526,10009
1874,36.893787,1.9554368,10001
1875,36.893787,2.0281272,general
1876,36.993988,1.9606314,10023
1877,36.993988,1.9208026,10009
1878,36.993988,1.9563192,10001
1879,36.993988,2.0289788,general
1880,37.09419,1.9614203,10023
1881,37.09419,1.921639,10009
1882,37.09419,1.9571875,10001
1883,37.09419,2.0298169,general
1884,37.19439,1.9621965,10023
1885,37.19439,1.922462,10009
1886,37.19439,1.958042,10001
1887,37.19439,2.0306413,general
1888,37.29459,1.96296,10023
1889,37.29459,1.9232714,10009
1890,37.29459,1.9588825,10001
1891,37.29459,2.0314524,general
1892,37.39479,1.9637113,10023
1893,37.39479,1.9240677,10009
1894,37.39479,1.9597093,10001
1895,37.39479,2.0322504,general
1896,37.49499,1.9644506,10023
1897,37.49499,1.9248517,10009
1898,37.49499,1.960523,10001
1899,37.49499,2.0330358,general
1900,37.595192,1.9651783,10023
1901,37.595192,1.9256229,10009
1902,37.595192,1.9613239,10001
1903,37.595192,2.0338087,general
1904,37.695393,1.9658941,10023
1905,37.695393,1.9263818,10009
1906,37.695393,1.9621116,10001
1907,37.695393,2.034569,general
1908,37.79559,1.9665984,10023
1909,37.79559,1.9271286,10009
1910,37.79559,1.9628869,10001
1911,37.79559,2.0353172,general
1912,37.89579,1.9672917,10023
1913,37.89579,1.9278636,10009
1914,37.89579,1.9636499,10001
1915,37.89579,2.0360537,general
1916,37.99599,1.9679741,10023
1917,37.99599,1.928587,10009
1918,37.99599,1.9644009,10001
1919,37.99599,2.0367785,general
1920,38.09619,1.9686456,10023
1921,38.09619,1.9292989,10009
1922,38.09619,1.9651402,10001
1923,38.09619,2.0374918,general
1924,38.196392,1.9693063,10023
1925,38.196392,1.9299994,10009
1926,38.196392,1.9658674,10001
1927,38.196392,2.0381937,general
1928,38.296593,1.9699568,10023
1929,38.296593,1.9306891,10009
1930,38.296593,1.9665834,10001
1931,38.296593,2.0388846,general
1932,38.396793,1.9705971,10023
1933,38.396793,1.9313679,10009
1934,38.396793,1.9672881,10001
1935,38.396793,2.0395648,general
1936,38.496994,1.9712272,10023
1937,38.496994,1.9320359,10009
1938,38.496994,1.9679817,10001
1939,38.496994,2.040234,general
1940,38.597195,1.9718475,10023
1941,38.597195,1.9326935,10009
1942,38.597195,1.9686643,10001
1943,38.597195,2.040893,general
1944,38.697395,1.9724582,10023
1945,38.697395,1.933341,10009
1946,38.697395,1.9693366,10001
1947,38.697395,2.0415418,general
1948,38.797596,1.9730595,10023
1949,38.797596,1.9339786,10009
1950,38.797596,1.9699985,10001
1951,38.797596,2.0421805,general
1952,38.897797,1.9736514,10023
1953,38.897797,1.9346058,10009
1954,38.897797,1.9706498,10001
1955,38.897797,2.0428092,general
1956,38.997997,1.9742343,10023
1957,38.997997,1.9352238,10009
1958,38.997997,1.9712914,10001
1959,38.997997,2.0434284,general
1960,39.098198,1.9748079,10023
1961,39.098198,1.9358318,10009
1962,39.098198,1.9719225,10001
1963,39.098198,2.0440376,general
1964,39.1984,1.9753728,10023
1965,39.1984,1.9364307,10009
1966,39.1984,1.9725443,10001
1967,39.1984,2.0446377,general
1968,39.298595,1.9759287,10023
1969,39.298595,1.9370203,10009
1970,39.298595,1.9731563,10001
1971,39.298595,2.0452282,general
1972,39.398796,1.9764766,10023
1973,39.398796,1.9376011,10009
1974,39.398796,1.9737593,10001
1975,39.398796,2.0458102,general
1976,39.498997,1.9770157,10023
1977,39.498997,1.9381726,10009
1978,39.498997,1.9743527,10001
1979,39.498997,2.046383,general
1980,39.599197,1.9775466,10023
1981,39.599197,1.9387352,10009
1982,39.599197,1.9749371,10001
1983,39.599197,2.0469468,general
1984,39.699398,1.9780695,10023
1985,39.699398,1.9392898,10009
1986,39.699398,1.9755126,10001
1987,39.699398,2.0475023,general
1988,39.7996,1.9785844,10023
1989,39.7996,1.9398355,10009
1990,39.7996,1.9760793,10001
1991,39.7996,2.0480492,general
1992,39.8998,1.9790914,10023
1993,39.8998,1.9403732,10009
1994,39.8998,1.9766375,10001
1995,39.8998,2.0485878,general
1996,40.0,1.9795905,10023
1997,40.0,1.9409025,10009
1998,40.0,1.9771868,10001
1999,40.0,2.049118,general
